{
  "operationConfig" : {
    "name" : "getSingleAccDetailsorch1065",
    "type" : "MappedToBackend",
    "cachable" : false,
    "smsEnabled" : false,
    "security" : "authorized_app_user",
    "responseEncoding" : "UTF-8",
    "httpMethod" : "GET",
    "decodeResponseBody" : false,
    "odata" : [ {
      "id" : "$select",
      "dataType" : "string",
      "encode" : true,
      "accessType" : "readonly"
    }, {
      "id" : "$filter",
      "dataType" : "string",
      "encode" : true,
      "accessType" : "readonly"
    }, {
      "id" : "$orderby",
      "dataType" : "string",
      "encode" : true,
      "accessType" : "readonly"
    }, {
      "id" : "$top",
      "dataType" : "string",
      "encode" : true,
      "accessType" : "readonly"
    }, {
      "id" : "$skip",
      "dataType" : "string",
      "encode" : true,
      "accessType" : "readonly"
    }, {
      "id" : "$expand",
      "dataType" : "string",
      "encode" : true,
      "accessType" : "readonly"
    }, {
      "id" : "$batchsize",
      "dataType" : "string",
      "encode" : true,
      "accessType" : "readonly"
    }, {
      "id" : "$batchid",
      "dataType" : "string",
      "encode" : true,
      "accessType" : "readonly"
    } ],
    "iMapping" : "<?xml version=\"1.0\" encoding=\"UTF-8\" standalone=\"yes\"?><mapper xmlns=\"http://www.kony.com/ns/mapper\">      <map inputpath=\"request_in\" outputpath=\"request_out\">            <set-param inputpath=\"main_user\" outputpath=\"main_user\"/>            <set-param inputpath=\"username\" outputpath=\"username\"/>            <set-param inputpath=\"bank_id\" outputpath=\"bank_id\"/>          <set-param inputpath=\"account\" outputpath=\"account\"/>     </map></mapper>",
    "oMapping" : "<?xml version=\"1.0\" encoding=\"UTF-8\" standalone=\"yes\"?><mapper xmlns=\"http://www.kony.com/ns/mapper\">                                                  <map inputpath=\"response_in\" outputpath=\"response_out\">                                                                                                    <map inputpath=\"accountsview\" outputpath=\"SingleAccountDetails\">                                                                                                                                                    <set-param inputpath=\"AccountName\" outputpath=\"AccountName\"/>             <set-param inputpath=\"Account_id\" outputpath=\"Account_id\"/>               <set-param inputpath=\"FavouriteStatus\" outputpath=\"FavouriteStatus\"/>                                    <set-param inputpath=\"CurrencyCode\" outputpath=\"CurrencyCode\"/>                                                                                                                                                      <set-param inputpath=\"AvailableBalance\" outputpath=\"AvailableBalance\"/>                                                                                                                                                      <set-param inputpath=\"Scheme\" outputpath=\"Scheme\"/>                                                                                                                                                      <set-param inputpath=\"Number\" outputpath=\"Number\"/>                                                                                                                                                      <set-param inputpath=\"Address\" outputpath=\"Address\"/>                                                                                                                                                    <set-param inputpath=\"BankName\" outputpath=\"BankName\"/>                                                                                                                   <set-param inputpath=\"ExternalBank_id\" outputpath=\"Bank_id\"/>                                                                                                            <set-param inputpath=\"logo\" outputpath=\"BankLogo\"/>                                                                                                             <set-param inputpath=\"Type_id\" outputpath=\"Type_id\"/>                                                                                                      <set-param inputpath=\"TypeDescription\" outputpath=\"TypeDescription\"/>                                                                                                       <set-param inputpath=\"AccountHolder\" outputpath=\"AccountHolder\"/>                            <set-param inputpath=\"AccountHolder\" outputpath=\"Username\"/>                            <set-param inputpath=\"NickName\" outputpath=\"NickName\"/>                                               <set-param inputpath=\"LastUpdated\" outputpath=\"LastUpdated\"/>            <set-param inputpath=\"error\" outputpath=\"error\"/>      </map>                                             </map></mapper>",
    "iVisualMappingData" : "{\"nodeDataArray\":[{\"isGroup\":true,\"key\":\"request_in\",\"text\":\"SingleAccountDetails\",\"xy\":\"150 100\",\"__gohashid\":14075},{\"isGroup\":true,\"key\":\"request_out\",\"text\":\"dbpAccountsorch.getSingleAccDetailsorch\",\"xy\":\"770 100\",\"__gohashid\":14076}],\"linkDataArray\":[{\"from\":\"source\",\"to\":\"source:SingleAccountDetails\",\"fromPort\":\"source\",\"toPort\":\"source:SingleAccountDetails\",\"visible\":true,\"common\":false,\"__gohashid\":11226},{\"from\":\"source:SingleAccountDetails\",\"to\":\"source:SingleAccountDetails:fields\",\"fromPort\":\"source:SingleAccountDetails\",\"toPort\":\"source:SingleAccountDetails:fields\",\"visible\":true,\"common\":false,\"__gohashid\":11227},{\"from\":\"source:SingleAccountDetails:fields\",\"to\":\"source:SingleAccountDetails:account:\",\"fromPort\":\"source:SingleAccountDetails:fields\",\"toPort\":\"source:SingleAccountDetails:account:\",\"visible\":true,\"common\":false,\"__gohashid\":11228},{\"from\":\"target\",\"to\":\"target:parameters\",\"fromPort\":\"target\",\"toPort\":\"target:parameters\",\"visible\":true,\"common\":false,\"__gohashid\":11229},{\"from\":\"target:parameters\",\"to\":\"target:account:\",\"fromPort\":\"target:parameters\",\"toPort\":\"target:account:\",\"visible\":true,\"common\":false,\"__gohashid\":11230}],\"blockCount\":{\"variableCount\":0},\"variableMap\":{},\"xmlMappingOverride\":true}",
    "oVisualMappingData" : "{\"nodeDataArray\":[{\"isGroup\":true,\"key\":\"response_out\",\"text\":\"SingleAccountDetails\",\"xy\":\"770 100\",\"__gohashid\":17228},{\"isGroup\":true,\"key\":\"response_in\",\"text\":\"dbpAccountsorch.getSingleAccDetailsorch\",\"xy\":\"150 100\",\"__gohashid\":17229}],\"linkDataArray\":[{\"from\":\"target\",\"to\":\"target:SingleAccountDetails\",\"fromPort\":\"target\",\"toPort\":\"target:SingleAccountDetails\",\"visible\":true,\"common\":false,\"__gohashid\":322},{\"from\":\"target:SingleAccountDetails\",\"to\":\"target:SingleAccountDetails:fields\",\"fromPort\":\"target:SingleAccountDetails\",\"toPort\":\"target:SingleAccountDetails:fields\",\"visible\":true,\"common\":false,\"__gohashid\":323},{\"from\":\"target:SingleAccountDetails:fields\",\"to\":\"target:SingleAccountDetails:AccountName:\",\"fromPort\":\"target:SingleAccountDetails:fields\",\"toPort\":\"target:SingleAccountDetails:AccountName:\",\"visible\":true,\"common\":false,\"__gohashid\":324},{\"from\":\"target:SingleAccountDetails:fields\",\"to\":\"target:SingleAccountDetails:main_user:\",\"fromPort\":\"target:SingleAccountDetails:fields\",\"toPort\":\"target:SingleAccountDetails:main_user:\",\"visible\":true,\"common\":false,\"__gohashid\":325},{\"from\":\"target:SingleAccountDetails:fields\",\"to\":\"target:SingleAccountDetails:username:\",\"fromPort\":\"target:SingleAccountDetails:fields\",\"toPort\":\"target:SingleAccountDetails:username:\",\"visible\":true,\"common\":false,\"__gohashid\":326},{\"from\":\"target:SingleAccountDetails:fields\",\"to\":\"target:SingleAccountDetails:Bank_id:\",\"fromPort\":\"target:SingleAccountDetails:fields\",\"toPort\":\"target:SingleAccountDetails:Bank_id:\",\"visible\":true,\"common\":false,\"__gohashid\":327},{\"from\":\"target:SingleAccountDetails:fields\",\"to\":\"target:SingleAccountDetails:CurrencyCode:\",\"fromPort\":\"target:SingleAccountDetails:fields\",\"toPort\":\"target:SingleAccountDetails:CurrencyCode:\",\"visible\":true,\"common\":false,\"__gohashid\":328},{\"from\":\"target:SingleAccountDetails:fields\",\"to\":\"target:SingleAccountDetails:AvailableBalance:\",\"fromPort\":\"target:SingleAccountDetails:fields\",\"toPort\":\"target:SingleAccountDetails:AvailableBalance:\",\"visible\":true,\"common\":false,\"__gohashid\":329},{\"from\":\"target:SingleAccountDetails:fields\",\"to\":\"target:SingleAccountDetails:Scheme:\",\"fromPort\":\"target:SingleAccountDetails:fields\",\"toPort\":\"target:SingleAccountDetails:Scheme:\",\"visible\":true,\"common\":false,\"__gohashid\":330},{\"from\":\"target:SingleAccountDetails:fields\",\"to\":\"target:SingleAccountDetails:Number:\",\"fromPort\":\"target:SingleAccountDetails:fields\",\"toPort\":\"target:SingleAccountDetails:Number:\",\"visible\":true,\"common\":false,\"__gohashid\":331},{\"from\":\"target:SingleAccountDetails:fields\",\"to\":\"target:SingleAccountDetails:Address:\",\"fromPort\":\"target:SingleAccountDetails:fields\",\"toPort\":\"target:SingleAccountDetails:Address:\",\"visible\":true,\"common\":false,\"__gohashid\":332},{\"from\":\"target:SingleAccountDetails:fields\",\"to\":\"target:SingleAccountDetails:AccountHolder:\",\"fromPort\":\"target:SingleAccountDetails:fields\",\"toPort\":\"target:SingleAccountDetails:AccountHolder:\",\"visible\":true,\"common\":false,\"__gohashid\":333},{\"from\":\"target:SingleAccountDetails:fields\",\"to\":\"target:SingleAccountDetails:BankName:\",\"fromPort\":\"target:SingleAccountDetails:fields\",\"toPort\":\"target:SingleAccountDetails:BankName:\",\"visible\":true,\"common\":false,\"__gohashid\":334},{\"from\":\"target:SingleAccountDetails:fields\",\"to\":\"target:SingleAccountDetails:TypeDescription:\",\"fromPort\":\"target:SingleAccountDetails:fields\",\"toPort\":\"target:SingleAccountDetails:TypeDescription:\",\"visible\":true,\"common\":false,\"__gohashid\":335},{\"from\":\"target:SingleAccountDetails:fields\",\"to\":\"target:SingleAccountDetails:Type_id:\",\"fromPort\":\"target:SingleAccountDetails:fields\",\"toPort\":\"target:SingleAccountDetails:Type_id:\",\"visible\":true,\"common\":false,\"__gohashid\":336},{\"from\":\"target:SingleAccountDetails:fields\",\"to\":\"target:SingleAccountDetails:BankLogo:\",\"fromPort\":\"target:SingleAccountDetails:fields\",\"toPort\":\"target:SingleAccountDetails:BankLogo:\",\"visible\":true,\"common\":false,\"__gohashid\":337},{\"from\":\"target:SingleAccountDetails:fields\",\"to\":\"target:SingleAccountDetails:NickName:\",\"fromPort\":\"target:SingleAccountDetails:fields\",\"toPort\":\"target:SingleAccountDetails:NickName:\",\"visible\":true,\"common\":false,\"__gohashid\":338},{\"from\":\"target:SingleAccountDetails:fields\",\"to\":\"target:SingleAccountDetails:Account_id:\",\"fromPort\":\"target:SingleAccountDetails:fields\",\"toPort\":\"target:SingleAccountDetails:Account_id:\",\"visible\":true,\"common\":false,\"__gohashid\":339},{\"from\":\"target:SingleAccountDetails:fields\",\"to\":\"target:SingleAccountDetails:FavouriteStatus:\",\"fromPort\":\"target:SingleAccountDetails:fields\",\"toPort\":\"target:SingleAccountDetails:FavouriteStatus:\",\"visible\":true,\"common\":false,\"__gohashid\":340},{\"from\":\"source\",\"to\":\"source:parameters\",\"fromPort\":\"source\",\"toPort\":\"source:parameters\",\"visible\":true,\"common\":false,\"__gohashid\":341},{\"from\":\"source:parameters\",\"to\":\"source:SessionToken:\",\"fromPort\":\"source:parameters\",\"toPort\":\"source:SessionToken:\",\"visible\":true,\"common\":false,\"__gohashid\":342},{\"from\":\"source:parameters\",\"to\":\"source:errmsg:\",\"fromPort\":\"source:parameters\",\"toPort\":\"source:errmsg:\",\"visible\":true,\"common\":false,\"__gohashid\":343},{\"from\":\"source\",\"to\":\"source:Accounts\",\"fromPort\":\"source\",\"toPort\":\"source:Accounts\",\"visible\":true,\"common\":false,\"__gohashid\":344},{\"from\":\"source:Accounts\",\"to\":\"source:Accounts:parameters\",\"fromPort\":\"source:Accounts\",\"toPort\":\"source:Accounts:parameters\",\"visible\":true,\"common\":false,\"__gohashid\":345},{\"from\":\"source:Accounts:parameters\",\"to\":\"source:Accounts:AccountHolder:\",\"fromPort\":\"source:Accounts:parameters\",\"toPort\":\"source:Accounts:AccountHolder:\",\"visible\":true,\"common\":false,\"__gohashid\":346},{\"from\":\"source:Accounts:parameters\",\"to\":\"source:Accounts:AccountName:\",\"fromPort\":\"source:Accounts:parameters\",\"toPort\":\"source:Accounts:AccountName:\",\"visible\":true,\"common\":false,\"__gohashid\":347},{\"from\":\"source:Accounts:parameters\",\"to\":\"source:Accounts:Address:\",\"fromPort\":\"source:Accounts:parameters\",\"toPort\":\"source:Accounts:Address:\",\"visible\":true,\"common\":false,\"__gohashid\":348},{\"from\":\"source:Accounts:parameters\",\"to\":\"source:Accounts:AvailableBalance:\",\"fromPort\":\"source:Accounts:parameters\",\"toPort\":\"source:Accounts:AvailableBalance:\",\"visible\":true,\"common\":false,\"__gohashid\":349},{\"from\":\"source:Accounts:parameters\",\"to\":\"source:Accounts:CurrencyCode:\",\"fromPort\":\"source:Accounts:parameters\",\"toPort\":\"source:Accounts:CurrencyCode:\",\"visible\":true,\"common\":false,\"__gohashid\":350},{\"from\":\"source:Accounts:parameters\",\"to\":\"source:Accounts:ExternalBank_id:\",\"fromPort\":\"source:Accounts:parameters\",\"toPort\":\"source:Accounts:ExternalBank_id:\",\"visible\":true,\"common\":false,\"__gohashid\":351},{\"from\":\"source:Accounts:parameters\",\"to\":\"source:Accounts:Number:\",\"fromPort\":\"source:Accounts:parameters\",\"toPort\":\"source:Accounts:Number:\",\"visible\":true,\"common\":false,\"__gohashid\":352},{\"from\":\"source:Accounts:parameters\",\"to\":\"source:Accounts:Scheme:\",\"fromPort\":\"source:Accounts:parameters\",\"toPort\":\"source:Accounts:Scheme:\",\"visible\":true,\"common\":false,\"__gohashid\":353},{\"from\":\"source:Accounts:parameters\",\"to\":\"source:Accounts:TypeDescription:\",\"fromPort\":\"source:Accounts:parameters\",\"toPort\":\"source:Accounts:TypeDescription:\",\"visible\":true,\"common\":false,\"__gohashid\":354},{\"from\":\"source:Accounts:parameters\",\"to\":\"source:Accounts:error:\",\"fromPort\":\"source:Accounts:parameters\",\"toPort\":\"source:Accounts:error:\",\"visible\":true,\"common\":false,\"__gohashid\":355}],\"blockCount\":{\"variableCount\":0},\"variableMap\":{},\"xmlMappingOverride\":true}",
    "applyCommonMapping" : false,
    "applyRequestCommonMapping" : false,
    "applyResponseCommonMapping" : false,
    "backendMeta" : {
      "serviceName" : "dbpAccountsorch",
      "serviceVersion" : "1.0",
      "operationName" : "getSingleAccDetailsorch"
    },
    "relationshipHierarchyMapping" : {
      "children" : [ ],
      "name" : "SingleAccountDetails",
      "actions" : {
        "get" : true
      },
      "selected" : true
    },
    "requestXmlMappingOverride" : true,
    "responseXmlMappingOverride" : true
  }
}