{
  "operationConfig" : {
    "name" : "lockUnlockCustomer8209",
    "type" : "MappedToBackend",
    "cachable" : false,
    "smsEnabled" : false,
    "security" : "authorized_app_user",
    "responseEncoding" : "UTF-8",
    "httpMethod" : "GET",
    "decodeResponseBody" : false,
    "iMapping" : "<?xml version=\"1.0\" encoding=\"UTF-8\" standalone=\"yes\"?><mapper xmlns=\"http://www.kony.com/ns/mapper\"><map inputpath=\"request_in\" outputpath=\"request_out\"><set-param inputpath=\"UserName\" outputpath=\"userName\"/></map></mapper>",
    "oMapping" : "<?xml version=\"1.0\" encoding=\"UTF-8\" standalone=\"yes\"?><mapper xmlns=\"http://www.kony.com/ns/mapper\">        <map inputpath=\"response_in\" outputpath=\"response_out\">                <map inputpath=\"result\" outputpath=\"success\"/>    <map inputpath=\"dbpErrCode\" outputpath=\"dbpErrCode\"/>    <map inputpath=\"dbpErrMsg\" outputpath=\"dbpErrMsg\"/>  </map></mapper>",
    "oVisualMappingData" : "{\"nodeDataArray\":[{\"isGroup\":true,\"key\":\"response_out\",\"text\":\"DbxUser\",\"xy\":\"770 100\",\"__gohashid\":76057},{\"isGroup\":true,\"key\":\"response_in\",\"text\":\"dbpRbLocalServicesJava (1.0).lockUnlockCustomer\",\"xy\":\"150 100\",\"__gohashid\":76058}],\"linkDataArray\":[{\"from\":\"target\",\"to\":\"target:DbxUser\",\"fromPort\":\"target\",\"toPort\":\"target:DbxUser\",\"visible\":true,\"common\":false,\"__gohashid\":7850},{\"from\":\"target:DbxUser\",\"to\":\"target:DbxUser:fields\",\"fromPort\":\"target:DbxUser\",\"toPort\":\"target:DbxUser:fields\",\"visible\":true,\"common\":false,\"__gohashid\":7851},{\"from\":\"target:DbxUser:fields\",\"to\":\"target:DbxUser:id:\",\"fromPort\":\"target:DbxUser:fields\",\"toPort\":\"target:DbxUser:id:\",\"visible\":true,\"common\":false,\"__gohashid\":7852},{\"from\":\"target:DbxUser:fields\",\"to\":\"target:DbxUser:IDValue:\",\"fromPort\":\"target:DbxUser:fields\",\"toPort\":\"target:DbxUser:IDValue:\",\"visible\":true,\"common\":false,\"__gohashid\":7853},{\"from\":\"target:DbxUser:fields\",\"to\":\"target:DbxUser:IDType_id:\",\"fromPort\":\"target:DbxUser:fields\",\"toPort\":\"target:DbxUser:IDType_id:\",\"visible\":true,\"common\":false,\"__gohashid\":7854},{\"from\":\"target:DbxUser:fields\",\"to\":\"target:DbxUser:UserName:\",\"fromPort\":\"target:DbxUser:fields\",\"toPort\":\"target:DbxUser:UserName:\",\"visible\":true,\"common\":false,\"__gohashid\":7855},{\"from\":\"target:DbxUser:fields\",\"to\":\"target:DbxUser:Password:\",\"fromPort\":\"target:DbxUser:fields\",\"toPort\":\"target:DbxUser:Password:\",\"visible\":true,\"common\":false,\"__gohashid\":7856},{\"from\":\"target:DbxUser:fields\",\"to\":\"target:DbxUser:IsCoreIdentityScope:\",\"fromPort\":\"target:DbxUser:fields\",\"toPort\":\"target:DbxUser:IsCoreIdentityScope:\",\"visible\":true,\"common\":false,\"__gohashid\":7857},{\"from\":\"target:DbxUser:fields\",\"to\":\"target:DbxUser:Salutation:\",\"fromPort\":\"target:DbxUser:fields\",\"toPort\":\"target:DbxUser:Salutation:\",\"visible\":true,\"common\":false,\"__gohashid\":7858},{\"from\":\"target:DbxUser:fields\",\"to\":\"target:DbxUser:FirstName:\",\"fromPort\":\"target:DbxUser:fields\",\"toPort\":\"target:DbxUser:FirstName:\",\"visible\":true,\"common\":false,\"__gohashid\":7859},{\"from\":\"target:DbxUser:fields\",\"to\":\"target:DbxUser:MiddleName:\",\"fromPort\":\"target:DbxUser:fields\",\"toPort\":\"target:DbxUser:MiddleName:\",\"visible\":true,\"common\":false,\"__gohashid\":7860},{\"from\":\"target:DbxUser:fields\",\"to\":\"target:DbxUser:LastName:\",\"fromPort\":\"target:DbxUser:fields\",\"toPort\":\"target:DbxUser:LastName:\",\"visible\":true,\"common\":false,\"__gohashid\":7861},{\"from\":\"target:DbxUser:fields\",\"to\":\"target:DbxUser:FullName:\",\"fromPort\":\"target:DbxUser:fields\",\"toPort\":\"target:DbxUser:FullName:\",\"visible\":true,\"common\":false,\"__gohashid\":7862},{\"from\":\"target:DbxUser:fields\",\"to\":\"target:DbxUser:Gender:\",\"fromPort\":\"target:DbxUser:fields\",\"toPort\":\"target:DbxUser:Gender:\",\"visible\":true,\"common\":false,\"__gohashid\":7863},{\"from\":\"target:DbxUser:fields\",\"to\":\"target:DbxUser:DateOfBirth:\",\"fromPort\":\"target:DbxUser:fields\",\"toPort\":\"target:DbxUser:DateOfBirth:\",\"visible\":true,\"common\":false,\"__gohashid\":7864},{\"from\":\"target:DbxUser:fields\",\"to\":\"target:DbxUser:Ssn:\",\"fromPort\":\"target:DbxUser:fields\",\"toPort\":\"target:DbxUser:Ssn:\",\"visible\":true,\"common\":false,\"__gohashid\":7865},{\"from\":\"target:DbxUser:fields\",\"to\":\"target:DbxUser:CustomerType_id:\",\"fromPort\":\"target:DbxUser:fields\",\"toPort\":\"target:DbxUser:CustomerType_id:\",\"visible\":true,\"common\":false,\"__gohashid\":7866},{\"from\":\"target:DbxUser:fields\",\"to\":\"target:DbxUser:CustomerType:\",\"fromPort\":\"target:DbxUser:fields\",\"toPort\":\"target:DbxUser:CustomerType:\",\"visible\":true,\"common\":false,\"__gohashid\":7867},{\"from\":\"target:DbxUser:fields\",\"to\":\"target:DbxUser:Status_id:\",\"fromPort\":\"target:DbxUser:fields\",\"toPort\":\"target:DbxUser:Status_id:\",\"visible\":true,\"common\":false,\"__gohashid\":7868},{\"from\":\"target:DbxUser:fields\",\"to\":\"target:DbxUser:Status:\",\"fromPort\":\"target:DbxUser:fields\",\"toPort\":\"target:DbxUser:Status:\",\"visible\":true,\"common\":false,\"__gohashid\":7869},{\"from\":\"target:DbxUser:fields\",\"to\":\"target:DbxUser:success:\",\"fromPort\":\"target:DbxUser:fields\",\"toPort\":\"target:DbxUser:success:\",\"visible\":true,\"common\":false,\"__gohashid\":7870},{\"from\":\"target:DbxUser:fields\",\"to\":\"target:DbxUser:IsPhoneEnabled:\",\"fromPort\":\"target:DbxUser:fields\",\"toPort\":\"target:DbxUser:IsPhoneEnabled:\",\"visible\":true,\"common\":false,\"__gohashid\":7871},{\"from\":\"target:DbxUser:fields\",\"to\":\"target:DbxUser:IsEmailEnabled:\",\"fromPort\":\"target:DbxUser:fields\",\"toPort\":\"target:DbxUser:IsEmailEnabled:\",\"visible\":true,\"common\":false,\"__gohashid\":7872},{\"from\":\"target:DbxUser:fields\",\"to\":\"target:DbxUser:IsStaffMember:\",\"fromPort\":\"target:DbxUser:fields\",\"toPort\":\"target:DbxUser:IsStaffMember:\",\"visible\":true,\"common\":false,\"__gohashid\":7873},{\"from\":\"target:DbxUser:fields\",\"to\":\"target:DbxUser:isSuperAdmin:\",\"fromPort\":\"target:DbxUser:fields\",\"toPort\":\"target:DbxUser:isSuperAdmin:\",\"visible\":true,\"common\":false,\"__gohashid\":7874},{\"from\":\"target:DbxUser:fields\",\"to\":\"target:DbxUser:Role:\",\"fromPort\":\"target:DbxUser:fields\",\"toPort\":\"target:DbxUser:Role:\",\"visible\":true,\"common\":false,\"__gohashid\":7875},{\"from\":\"target:DbxUser:fields\",\"to\":\"target:DbxUser:SecurityImage_id:\",\"fromPort\":\"target:DbxUser:fields\",\"toPort\":\"target:DbxUser:SecurityImage_id:\",\"visible\":true,\"common\":false,\"__gohashid\":7876},{\"from\":\"target:DbxUser:fields\",\"to\":\"target:DbxUser:IsPinSet:\",\"fromPort\":\"target:DbxUser:fields\",\"toPort\":\"target:DbxUser:IsPinSet:\",\"visible\":true,\"common\":false,\"__gohashid\":7877},{\"from\":\"target:DbxUser:fields\",\"to\":\"target:DbxUser:Pin:\",\"fromPort\":\"target:DbxUser:fields\",\"toPort\":\"target:DbxUser:Pin:\",\"visible\":true,\"common\":false,\"__gohashid\":7878},{\"from\":\"target:DbxUser:fields\",\"to\":\"target:DbxUser:Token:\",\"fromPort\":\"target:DbxUser:fields\",\"toPort\":\"target:DbxUser:Token:\",\"visible\":true,\"common\":false,\"__gohashid\":7879},{\"from\":\"target:DbxUser:fields\",\"to\":\"target:DbxUser:Otp:\",\"fromPort\":\"target:DbxUser:fields\",\"toPort\":\"target:DbxUser:Otp:\",\"visible\":true,\"common\":false,\"__gohashid\":7880},{\"from\":\"target:DbxUser:fields\",\"to\":\"target:DbxUser:OtpGenaratedts:\",\"fromPort\":\"target:DbxUser:fields\",\"toPort\":\"target:DbxUser:OtpGenaratedts:\",\"visible\":true,\"common\":false,\"__gohashid\":7881},{\"from\":\"target:DbxUser:fields\",\"to\":\"target:DbxUser:ValidDate:\",\"fromPort\":\"target:DbxUser:fields\",\"toPort\":\"target:DbxUser:ValidDate:\",\"visible\":true,\"common\":false,\"__gohashid\":7882},{\"from\":\"target:DbxUser:fields\",\"to\":\"target:DbxUser:unsuccessfulLoginAttempts:\",\"fromPort\":\"target:DbxUser:fields\",\"toPort\":\"target:DbxUser:unsuccessfulLoginAttempts:\",\"visible\":true,\"common\":false,\"__gohashid\":7883},{\"from\":\"target:DbxUser:fields\",\"to\":\"target:DbxUser:isUserAccountLocked:\",\"fromPort\":\"target:DbxUser:fields\",\"toPort\":\"target:DbxUser:isUserAccountLocked:\",\"visible\":true,\"common\":false,\"__gohashid\":7884},{\"from\":\"target:DbxUser:fields\",\"to\":\"target:DbxUser:UserImage:\",\"fromPort\":\"target:DbxUser:fields\",\"toPort\":\"target:DbxUser:UserImage:\",\"visible\":true,\"common\":false,\"__gohashid\":7885},{\"from\":\"target:DbxUser:fields\",\"to\":\"target:DbxUser:UserImageURL:\",\"fromPort\":\"target:DbxUser:fields\",\"toPort\":\"target:DbxUser:UserImageURL:\",\"visible\":true,\"common\":false,\"__gohashid\":7886},{\"from\":\"target:DbxUser:fields\",\"to\":\"target:DbxUser:CountryCode:\",\"fromPort\":\"target:DbxUser:fields\",\"toPort\":\"target:DbxUser:CountryCode:\",\"visible\":true,\"common\":false,\"__gohashid\":7887},{\"from\":\"target:DbxUser:fields\",\"to\":\"target:DbxUser:Location_id:\",\"fromPort\":\"target:DbxUser:fields\",\"toPort\":\"target:DbxUser:Location_id:\",\"visible\":true,\"common\":false,\"__gohashid\":7888},{\"from\":\"target:DbxUser:fields\",\"to\":\"target:DbxUser:IsOlbAllowed:\",\"fromPort\":\"target:DbxUser:fields\",\"toPort\":\"target:DbxUser:IsOlbAllowed:\",\"visible\":true,\"common\":false,\"__gohashid\":7889},{\"from\":\"target:DbxUser:fields\",\"to\":\"target:DbxUser:OlbEnrolmentStatus_id:\",\"fromPort\":\"target:DbxUser:fields\",\"toPort\":\"target:DbxUser:OlbEnrolmentStatus_id:\",\"visible\":true,\"common\":false,\"__gohashid\":7890},{\"from\":\"target:DbxUser:fields\",\"to\":\"target:DbxUser:isEnrolled:\",\"fromPort\":\"target:DbxUser:fields\",\"toPort\":\"target:DbxUser:isEnrolled:\",\"visible\":true,\"common\":false,\"__gohashid\":7891},{\"from\":\"target:DbxUser:fields\",\"to\":\"target:DbxUser:Is_MemberEligibile:\",\"fromPort\":\"target:DbxUser:fields\",\"toPort\":\"target:DbxUser:Is_MemberEligibile:\",\"visible\":true,\"common\":false,\"__gohashid\":7892},{\"from\":\"target:DbxUser:fields\",\"to\":\"target:DbxUser:MemberEligibilityData:\",\"fromPort\":\"target:DbxUser:fields\",\"toPort\":\"target:DbxUser:MemberEligibilityData:\",\"visible\":true,\"common\":false,\"__gohashid\":7893},{\"from\":\"target:DbxUser:fields\",\"to\":\"target:DbxUser:Is_BBOA:\",\"fromPort\":\"target:DbxUser:fields\",\"toPort\":\"target:DbxUser:Is_BBOA:\",\"visible\":true,\"common\":false,\"__gohashid\":7894},{\"from\":\"target:DbxUser:fields\",\"to\":\"target:DbxUser:MaritalStatus_id:\",\"fromPort\":\"target:DbxUser:fields\",\"toPort\":\"target:DbxUser:MaritalStatus_id:\",\"visible\":true,\"common\":false,\"__gohashid\":7895},{\"from\":\"target:DbxUser:fields\",\"to\":\"target:DbxUser:SpouseName:\",\"fromPort\":\"target:DbxUser:fields\",\"toPort\":\"target:DbxUser:SpouseName:\",\"visible\":true,\"common\":false,\"__gohashid\":7896},{\"from\":\"target:DbxUser:fields\",\"to\":\"target:DbxUser:NoOfDependents:\",\"fromPort\":\"target:DbxUser:fields\",\"toPort\":\"target:DbxUser:NoOfDependents:\",\"visible\":true,\"common\":false,\"__gohashid\":7897},{\"from\":\"target:DbxUser:fields\",\"to\":\"target:DbxUser:EmployementStatus_id:\",\"fromPort\":\"target:DbxUser:fields\",\"toPort\":\"target:DbxUser:EmployementStatus_id:\",\"visible\":true,\"common\":false,\"__gohashid\":7898},{\"from\":\"target:DbxUser:fields\",\"to\":\"target:DbxUser:CurrentLoginTime:\",\"fromPort\":\"target:DbxUser:fields\",\"toPort\":\"target:DbxUser:CurrentLoginTime:\",\"visible\":true,\"common\":false,\"__gohashid\":7899},{\"from\":\"target:DbxUser:fields\",\"to\":\"target:DbxUser:Lastlogintime:\",\"fromPort\":\"target:DbxUser:fields\",\"toPort\":\"target:DbxUser:Lastlogintime:\",\"visible\":true,\"common\":false,\"__gohashid\":7900},{\"from\":\"target:DbxUser:fields\",\"to\":\"target:DbxUser:CreditUnionMemberSince:\",\"fromPort\":\"target:DbxUser:fields\",\"toPort\":\"target:DbxUser:CreditUnionMemberSince:\",\"visible\":true,\"common\":false,\"__gohashid\":7901},{\"from\":\"target:DbxUser:fields\",\"to\":\"target:DbxUser:AtionProfile_id:\",\"fromPort\":\"target:DbxUser:fields\",\"toPort\":\"target:DbxUser:AtionProfile_id:\",\"visible\":true,\"common\":false,\"__gohashid\":7902},{\"from\":\"target:DbxUser:fields\",\"to\":\"target:DbxUser:RegistrationLink:\",\"fromPort\":\"target:DbxUser:fields\",\"toPort\":\"target:DbxUser:RegistrationLink:\",\"visible\":true,\"common\":false,\"__gohashid\":7903},{\"from\":\"target:DbxUser:fields\",\"to\":\"target:DbxUser:RegLinkResendCount:\",\"fromPort\":\"target:DbxUser:fields\",\"toPort\":\"target:DbxUser:RegLinkResendCount:\",\"visible\":true,\"common\":false,\"__gohashid\":7904},{\"from\":\"target:DbxUser:fields\",\"to\":\"target:DbxUser:RegLinkValidity:\",\"fromPort\":\"target:DbxUser:fields\",\"toPort\":\"target:DbxUser:RegLinkValidity:\",\"visible\":true,\"common\":false,\"__gohashid\":7905},{\"from\":\"target:DbxUser:fields\",\"to\":\"target:DbxUser:IsAssistConsented:\",\"fromPort\":\"target:DbxUser:fields\",\"toPort\":\"target:DbxUser:IsAssistConsented:\",\"visible\":true,\"common\":false,\"__gohashid\":7906},{\"from\":\"target:DbxUser:fields\",\"to\":\"target:DbxUser:areDepositTermsAccepted:\",\"fromPort\":\"target:DbxUser:fields\",\"toPort\":\"target:DbxUser:areDepositTermsAccepted:\",\"visible\":true,\"common\":false,\"__gohashid\":7907},{\"from\":\"target:DbxUser:fields\",\"to\":\"target:DbxUser:areAccountStatementTermsAccepted:\",\"fromPort\":\"target:DbxUser:fields\",\"toPort\":\"target:DbxUser:areAccountStatementTermsAccepted:\",\"visible\":true,\"common\":false,\"__gohashid\":7908},{\"from\":\"target:DbxUser:fields\",\"to\":\"target:DbxUser:areUserAlertsTurnedOn:\",\"fromPort\":\"target:DbxUser:fields\",\"toPort\":\"target:DbxUser:areUserAlertsTurnedOn:\",\"visible\":true,\"common\":false,\"__gohashid\":7909},{\"from\":\"target:DbxUser:fields\",\"to\":\"target:DbxUser:isBillPaySupported:\",\"fromPort\":\"target:DbxUser:fields\",\"toPort\":\"target:DbxUser:isBillPaySupported:\",\"visible\":true,\"common\":false,\"__gohashid\":7910},{\"from\":\"target:DbxUser:fields\",\"to\":\"target:DbxUser:isBillPayActivated:\",\"fromPort\":\"target:DbxUser:fields\",\"toPort\":\"target:DbxUser:isBillPayActivated:\",\"visible\":true,\"common\":false,\"__gohashid\":7911},{\"from\":\"target:DbxUser:fields\",\"to\":\"target:DbxUser:isP2PSupported:\",\"fromPort\":\"target:DbxUser:fields\",\"toPort\":\"target:DbxUser:isP2PSupported:\",\"visible\":true,\"common\":false,\"__gohashid\":7912},{\"from\":\"target:DbxUser:fields\",\"to\":\"target:DbxUser:isP2PActivated:\",\"fromPort\":\"target:DbxUser:fields\",\"toPort\":\"target:DbxUser:isP2PActivated:\",\"visible\":true,\"common\":false,\"__gohashid\":7913},{\"from\":\"target:DbxUser:fields\",\"to\":\"target:DbxUser:isWireTransferEligible:\",\"fromPort\":\"target:DbxUser:fields\",\"toPort\":\"target:DbxUser:isWireTransferEligible:\",\"visible\":true,\"common\":false,\"__gohashid\":7914},{\"from\":\"target:DbxUser:fields\",\"to\":\"target:DbxUser:isWireTransferActivated:\",\"fromPort\":\"target:DbxUser:fields\",\"toPort\":\"target:DbxUser:isWireTransferActivated:\",\"visible\":true,\"common\":false,\"__gohashid\":7915},{\"from\":\"target:DbxUser:fields\",\"to\":\"target:DbxUser:createdby:\",\"fromPort\":\"target:DbxUser:fields\",\"toPort\":\"target:DbxUser:createdby:\",\"visible\":true,\"common\":false,\"__gohashid\":7916},{\"from\":\"target:DbxUser:fields\",\"to\":\"target:DbxUser:modifiedby:\",\"fromPort\":\"target:DbxUser:fields\",\"toPort\":\"target:DbxUser:modifiedby:\",\"visible\":true,\"common\":false,\"__gohashid\":7917},{\"from\":\"target:DbxUser:fields\",\"to\":\"target:DbxUser:createdts:\",\"fromPort\":\"target:DbxUser:fields\",\"toPort\":\"target:DbxUser:createdts:\",\"visible\":true,\"common\":false,\"__gohashid\":7918},{\"from\":\"target:DbxUser:fields\",\"to\":\"target:DbxUser:lastmodifiedts:\",\"fromPort\":\"target:DbxUser:fields\",\"toPort\":\"target:DbxUser:lastmodifiedts:\",\"visible\":true,\"common\":false,\"__gohashid\":7919},{\"from\":\"target:DbxUser:fields\",\"to\":\"target:DbxUser:synctimestamp:\",\"fromPort\":\"target:DbxUser:fields\",\"toPort\":\"target:DbxUser:synctimestamp:\",\"visible\":true,\"common\":false,\"__gohashid\":7920},{\"from\":\"target:DbxUser:fields\",\"to\":\"target:DbxUser:softdeleteflag:\",\"fromPort\":\"target:DbxUser:fields\",\"toPort\":\"target:DbxUser:softdeleteflag:\",\"visible\":true,\"common\":false,\"__gohashid\":7921},{\"from\":\"target:DbxUser:fields\",\"to\":\"target:DbxUser:securityKey:\",\"fromPort\":\"target:DbxUser:fields\",\"toPort\":\"target:DbxUser:securityKey:\",\"visible\":true,\"common\":false,\"__gohashid\":7922},{\"from\":\"target:DbxUser:fields\",\"to\":\"target:DbxUser:Phone:\",\"fromPort\":\"target:DbxUser:fields\",\"toPort\":\"target:DbxUser:Phone:\",\"visible\":true,\"common\":false,\"__gohashid\":7923},{\"from\":\"target:DbxUser:fields\",\"to\":\"target:DbxUser:Email:\",\"fromPort\":\"target:DbxUser:fields\",\"toPort\":\"target:DbxUser:Email:\",\"visible\":true,\"common\":false,\"__gohashid\":7924},{\"from\":\"target:DbxUser:fields\",\"to\":\"target:DbxUser:Result:\",\"fromPort\":\"target:DbxUser:fields\",\"toPort\":\"target:DbxUser:Result:\",\"visible\":true,\"common\":false,\"__gohashid\":7925},{\"from\":\"target:DbxUser:fields\",\"to\":\"target:DbxUser:errMessage:\",\"fromPort\":\"target:DbxUser:fields\",\"toPort\":\"target:DbxUser:errMessage:\",\"visible\":true,\"common\":false,\"__gohashid\":7926},{\"from\":\"target:DbxUser:fields\",\"to\":\"target:DbxUser:errCode:\",\"fromPort\":\"target:DbxUser:fields\",\"toPort\":\"target:DbxUser:errCode:\",\"visible\":true,\"common\":false,\"__gohashid\":7927},{\"from\":\"target:DbxUser:fields\",\"to\":\"target:DbxUser:message:\",\"fromPort\":\"target:DbxUser:fields\",\"toPort\":\"target:DbxUser:message:\",\"visible\":true,\"common\":false,\"__gohashid\":7928},{\"from\":\"target:DbxUser:fields\",\"to\":\"target:DbxUser:error:\",\"fromPort\":\"target:DbxUser:fields\",\"toPort\":\"target:DbxUser:error:\",\"visible\":true,\"common\":false,\"__gohashid\":7929},{\"from\":\"target:DbxUser:fields\",\"to\":\"target:DbxUser:errmsg:\",\"fromPort\":\"target:DbxUser:fields\",\"toPort\":\"target:DbxUser:errmsg:\",\"visible\":true,\"common\":false,\"__gohashid\":7930},{\"from\":\"target:DbxUser:fields\",\"to\":\"target:DbxUser:MemberId:\",\"fromPort\":\"target:DbxUser:fields\",\"toPort\":\"target:DbxUser:MemberId:\",\"visible\":true,\"common\":false,\"__gohashid\":7931},{\"from\":\"target:DbxUser:fields\",\"to\":\"target:DbxUser:IDMidentifier:\",\"fromPort\":\"target:DbxUser:fields\",\"toPort\":\"target:DbxUser:IDMidentifier:\",\"visible\":true,\"common\":false,\"__gohashid\":7932},{\"from\":\"target:DbxUser:fields\",\"to\":\"target:DbxUser:errorMessage:\",\"fromPort\":\"target:DbxUser:fields\",\"toPort\":\"target:DbxUser:errorMessage:\",\"visible\":true,\"common\":false,\"__gohashid\":7933},{\"from\":\"target:DbxUser:fields\",\"to\":\"target:DbxUser:errorCode:\",\"fromPort\":\"target:DbxUser:fields\",\"toPort\":\"target:DbxUser:errorCode:\",\"visible\":true,\"common\":false,\"__gohashid\":7934},{\"from\":\"target:DbxUser:fields\",\"to\":\"target:DbxUser:lockedOn:\",\"fromPort\":\"target:DbxUser:fields\",\"toPort\":\"target:DbxUser:lockedOn:\",\"visible\":true,\"common\":false,\"__gohashid\":7935},{\"from\":\"target:DbxUser:fields\",\"to\":\"target:DbxUser:Subscribe:\",\"fromPort\":\"target:DbxUser:fields\",\"toPort\":\"target:DbxUser:Subscribe:\",\"visible\":true,\"common\":false,\"__gohashid\":7936},{\"from\":\"target:DbxUser:fields\",\"to\":\"target:DbxUser:Membership_id:\",\"fromPort\":\"target:DbxUser:fields\",\"toPort\":\"target:DbxUser:Membership_id:\",\"visible\":true,\"common\":false,\"__gohashid\":7937},{\"from\":\"target:DbxUser:fields\",\"to\":\"target:DbxUser:Taxid:\",\"fromPort\":\"target:DbxUser:fields\",\"toPort\":\"target:DbxUser:Taxid:\",\"visible\":true,\"common\":false,\"__gohashid\":7938},{\"from\":\"target:DbxUser:fields\",\"to\":\"target:DbxUser:Customer_id:\",\"fromPort\":\"target:DbxUser:fields\",\"toPort\":\"target:DbxUser:Customer_id:\",\"visible\":true,\"common\":false,\"__gohashid\":7939},{\"from\":\"target:DbxUser:fields\",\"to\":\"target:DbxUser:accounts:\",\"fromPort\":\"target:DbxUser:fields\",\"toPort\":\"target:DbxUser:accounts:\",\"visible\":true,\"common\":false,\"__gohashid\":7940},{\"from\":\"target:DbxUser:fields\",\"to\":\"target:DbxUser:services:\",\"fromPort\":\"target:DbxUser:fields\",\"toPort\":\"target:DbxUser:services:\",\"visible\":true,\"common\":false,\"__gohashid\":7941},{\"from\":\"target:DbxUser:fields\",\"to\":\"target:DbxUser:Role_id:\",\"fromPort\":\"target:DbxUser:fields\",\"toPort\":\"target:DbxUser:Role_id:\",\"visible\":true,\"common\":false,\"__gohashid\":7942},{\"from\":\"target:DbxUser:fields\",\"to\":\"target:DbxUser:customeraccounts:\",\"fromPort\":\"target:DbxUser:fields\",\"toPort\":\"target:DbxUser:customeraccounts:\",\"visible\":true,\"common\":false,\"__gohashid\":7943},{\"from\":\"target:DbxUser:fields\",\"to\":\"target:DbxUser:DrivingLicenseNumber:\",\"fromPort\":\"target:DbxUser:fields\",\"toPort\":\"target:DbxUser:DrivingLicenseNumber:\",\"visible\":true,\"common\":false,\"__gohashid\":7944},{\"from\":\"target:DbxUser:fields\",\"to\":\"target:DbxUser:EAgreementRequired:\",\"fromPort\":\"target:DbxUser:fields\",\"toPort\":\"target:DbxUser:EAgreementRequired:\",\"visible\":true,\"common\":false,\"__gohashid\":7945},{\"from\":\"target:DbxUser:fields\",\"to\":\"target:DbxUser:doNotSendOTP:\",\"fromPort\":\"target:DbxUser:fields\",\"toPort\":\"target:DbxUser:doNotSendOTP:\",\"visible\":true,\"common\":false,\"__gohashid\":7946},{\"from\":\"target:DbxUser:fields\",\"to\":\"target:DbxUser:redirectLink:\",\"fromPort\":\"target:DbxUser:fields\",\"toPort\":\"target:DbxUser:redirectLink:\",\"visible\":true,\"common\":false,\"__gohashid\":7947},{\"from\":\"target:DbxUser:fields\",\"to\":\"target:DbxUser:Organization_id:\",\"fromPort\":\"target:DbxUser:fields\",\"toPort\":\"target:DbxUser:Organization_id:\",\"visible\":true,\"common\":false,\"__gohashid\":7948},{\"from\":\"target:DbxUser:fields\",\"to\":\"target:DbxUser:isEAgreementRequired:\",\"fromPort\":\"target:DbxUser:fields\",\"toPort\":\"target:DbxUser:isEAgreementRequired:\",\"visible\":true,\"common\":false,\"__gohashid\":7949},{\"from\":\"target:DbxUser:fields\",\"to\":\"target:DbxUser:isEagreementSigned:\",\"fromPort\":\"target:DbxUser:fields\",\"toPort\":\"target:DbxUser:isEagreementSigned:\",\"visible\":true,\"common\":false,\"__gohashid\":7950},{\"from\":\"target:DbxUser:fields\",\"to\":\"target:DbxUser:opCode:\",\"fromPort\":\"target:DbxUser:fields\",\"toPort\":\"target:DbxUser:opCode:\",\"visible\":true,\"common\":false,\"__gohashid\":7951},{\"from\":\"target:DbxUser:fields\",\"to\":\"target:DbxUser:opMessage:\",\"fromPort\":\"target:DbxUser:fields\",\"toPort\":\"target:DbxUser:opMessage:\",\"visible\":true,\"common\":false,\"__gohashid\":7952},{\"from\":\"target:DbxUser:fields\",\"to\":\"target:DbxUser:MessageType:\",\"fromPort\":\"target:DbxUser:fields\",\"toPort\":\"target:DbxUser:MessageType:\",\"visible\":true,\"common\":false,\"__gohashid\":7953},{\"from\":\"target:DbxUser:fields\",\"to\":\"target:DbxUser:SendToMobiles:\",\"fromPort\":\"target:DbxUser:fields\",\"toPort\":\"target:DbxUser:SendToMobiles:\",\"visible\":true,\"common\":false,\"__gohashid\":7954},{\"from\":\"target:DbxUser:fields\",\"to\":\"target:DbxUser:membershipID:\",\"fromPort\":\"target:DbxUser:fields\",\"toPort\":\"target:DbxUser:membershipID:\",\"visible\":true,\"common\":false,\"__gohashid\":7955},{\"from\":\"target:DbxUser:fields\",\"to\":\"target:DbxUser:isUserNameExists:\",\"fromPort\":\"target:DbxUser:fields\",\"toPort\":\"target:DbxUser:isUserNameExists:\",\"visible\":true,\"common\":false,\"__gohashid\":7956},{\"from\":\"target:DbxUser:fields\",\"to\":\"target:DbxUser:isUserExists:\",\"fromPort\":\"target:DbxUser:fields\",\"toPort\":\"target:DbxUser:isUserExists:\",\"visible\":true,\"common\":false,\"__gohashid\":7957},{\"from\":\"target:DbxUser:fields\",\"to\":\"target:DbxUser:dbpErrMsg:\",\"fromPort\":\"target:DbxUser:fields\",\"toPort\":\"target:DbxUser:dbpErrMsg:\",\"visible\":true,\"common\":false,\"__gohashid\":7958},{\"from\":\"target:DbxUser:fields\",\"to\":\"target:DbxUser:dbpErrCode:\",\"fromPort\":\"target:DbxUser:fields\",\"toPort\":\"target:DbxUser:dbpErrCode:\",\"visible\":true,\"common\":false,\"__gohashid\":7959},{\"from\":\"source\",\"to\":\"source:parameters\",\"fromPort\":\"source\",\"toPort\":\"source:parameters\",\"visible\":true,\"common\":false,\"__gohashid\":7960},{\"from\":\"source:parameters\",\"to\":\"source:dbpErrCode:\",\"fromPort\":\"source:parameters\",\"toPort\":\"source:dbpErrCode:\",\"visible\":true,\"common\":false,\"__gohashid\":7961},{\"from\":\"source:parameters\",\"to\":\"source:dbpErrMsg:\",\"fromPort\":\"source:parameters\",\"toPort\":\"source:dbpErrMsg:\",\"visible\":true,\"common\":false,\"__gohashid\":7962}],\"blockCount\":{\"variableCount\":0},\"variableMap\":{},\"xmlMappingOverride\":true}",
    "applyCommonMapping" : false,
    "applyRequestCommonMapping" : true,
    "applyResponseCommonMapping" : false,
    "backendMeta" : {
      "serviceName" : "dbpRbLocalServicesJava",
      "serviceVersion" : "1.0",
      "operationName" : "lockUnlockCustomer"
    },
    "relationshipHierarchyMapping" : {
      "children" : [ ],
      "name" : "DbxUser",
      "actions" : { },
      "selected" : true
    },
    "requestXmlMappingOverride" : false,
    "responseXmlMappingOverride" : true
  }
}