{
  "customCode" : {
    "requestProcessorName" : "com.kony.dbputilities.mfa.preprocessors.PasswordUpdateMFAPreProcessor",
    "responseProcessorName" : "com.kony.postprocessors.UpdateDbxUserPasswordObjectServicePostProcessor"
  },
  "operationConfig" : {
    "name" : "updateDBXUserPassword9683",
    "type" : "MappedToBackend",
    "cachable" : false,
    "smsEnabled" : false,
    "security" : "authorized_app_user",
    "responseEncoding" : "UTF-8",
    "httpMethod" : "GET",
    "decodeResponseBody" : false,
    "iMapping" : "<?xml version=\"1.0\" encoding=\"UTF-8\" standalone=\"yes\"?><mapper xmlns=\"http://www.kony.com/ns/mapper\"><map inputpath=\"request_in\" outputpath=\"request_out\"><set-param inputpath=\"MFAAttributes\" outputpath=\"MFAAttributes\"/><set-param inputpath=\"oldPassword\" outputpath=\"oldPassword\"/><set-param inputpath=\"newPassword\" outputpath=\"newPassword\"/></map></mapper>",
    "oMapping" : "<?xml version=\"1.0\" encoding=\"UTF-8\" standalone=\"yes\"?><mapper xmlns=\"http://www.kony.com/ns/mapper\"><map inputpath=\"response_in\" outputpath=\"response_out\"><set-param inputpath=\"MFAAttributes\" outputpath=\"MFAAttributes\"/><set-param inputpath=\"dbpErrCode\" outputpath=\"dbpErrCode\"/><set-param inputpath=\"success\" outputpath=\"success\"/><set-param inputpath=\"dbpErrMsg\" outputpath=\"dbpErrMsg\"/></map></mapper>",
    "applyCommonMapping" : true,
    "applyRequestCommonMapping" : true,
    "applyResponseCommonMapping" : true,
    "backendMeta" : {
      "serviceName" : "dbpRbLocalServicesJava",
      "serviceVersion" : "1.0",
      "operationName" : "updateDBXUserPassword"
    },
    "relationshipHierarchyMapping" : {
      "children" : [ ],
      "name" : "DbxUser",
      "actions" : { },
      "selected" : true
    },
    "requestXmlMappingOverride" : false,
    "responseXmlMappingOverride" : false
  }
}