{
  "operationConfig" : {
    "name" : "CreateCustomerRequest4302",
    "type" : "MappedToBackend",
    "cachable" : false,
    "smsEnabled" : false,
    "security" : "authorized_app_user",
    "responseEncoding" : "UTF-8",
    "httpMethod" : "GET",
    "decodeResponseBody" : false,
    "iMapping" : "<?xml version=\"1.0\" encoding=\"UTF-8\" standalone=\"yes\"?><mapper xmlns=\"http://www.kony.com/ns/mapper\">  <map inputpath=\"request_in\" outputpath=\"request_out\">    <set-param inputpath=\"requestsubject\" outputpath=\"requestsubject\"/>    <set-param inputpath=\"messagedescription\" outputpath=\"messagedescription\"/>    <set-param inputpath=\"username\" outputpath=\"username\"/>    <set-param inputpath=\"createdby\" outputpath=\"createdby\"/>    <set-param inputpath=\"priority\" outputpath=\"priority\"/>    <set-param inputpath=\"requestcategory_id\" outputpath=\"requestcategory_id\"/>  </map></mapper>",
    "iVisualMappingData" : "{\"nodeDataArray\":[{\"isGroup\":true,\"key\":\"request_in\",\"text\":\"TestCreateMessage\",\"xy\":\"150 100\",\"__gohashid\":19594},{\"isGroup\":true,\"key\":\"request_out\",\"text\":\"C360IntegrationService (1.0).CreateCustomerRequest\",\"xy\":\"770 100\",\"__gohashid\":19595}],\"linkDataArray\":[{\"from\":\"source\",\"to\":\"source:TestCreateMessage\",\"fromPort\":\"source\",\"toPort\":\"source:TestCreateMessage\",\"visible\":true,\"common\":false,\"__gohashid\":19607},{\"from\":\"source:TestCreateMessage\",\"to\":\"source:TestCreateMessage:fields\",\"fromPort\":\"source:TestCreateMessage\",\"toPort\":\"source:TestCreateMessage:fields\",\"visible\":true,\"common\":false,\"__gohashid\":19608},{\"from\":\"source:TestCreateMessage:fields\",\"to\":\"source:TestCreateMessage:requestsubject:\",\"fromPort\":\"source:TestCreateMessage:fields\",\"toPort\":\"source:TestCreateMessage:requestsubject:\",\"visible\":true,\"common\":false,\"__gohashid\":19609},{\"from\":\"source:TestCreateMessage:fields\",\"to\":\"source:TestCreateMessage:messagedescription:\",\"fromPort\":\"source:TestCreateMessage:fields\",\"toPort\":\"source:TestCreateMessage:messagedescription:\",\"visible\":true,\"common\":false,\"__gohashid\":19610},{\"from\":\"source:TestCreateMessage:fields\",\"to\":\"source:TestCreateMessage:username:\",\"fromPort\":\"source:TestCreateMessage:fields\",\"toPort\":\"source:TestCreateMessage:username:\",\"visible\":true,\"common\":false,\"__gohashid\":19611},{\"from\":\"source:TestCreateMessage:fields\",\"to\":\"source:TestCreateMessage:createdby:\",\"fromPort\":\"source:TestCreateMessage:fields\",\"toPort\":\"source:TestCreateMessage:createdby:\",\"visible\":true,\"common\":false,\"__gohashid\":19612},{\"from\":\"source:TestCreateMessage:fields\",\"to\":\"source:TestCreateMessage:priority:\",\"fromPort\":\"source:TestCreateMessage:fields\",\"toPort\":\"source:TestCreateMessage:priority:\",\"visible\":true,\"common\":false,\"__gohashid\":19613},{\"from\":\"source:TestCreateMessage:fields\",\"to\":\"source:TestCreateMessage:requestcategory_id:\",\"fromPort\":\"source:TestCreateMessage:fields\",\"toPort\":\"source:TestCreateMessage:requestcategory_id:\",\"visible\":true,\"common\":false,\"__gohashid\":19614}],\"blockCount\":{\"variableCount\":0},\"variableMap\":{},\"xmlMappingOverride\":true}",
    "applyCommonMapping" : false,
    "applyRequestCommonMapping" : false,
    "applyResponseCommonMapping" : true,
    "backendMeta" : {
      "serviceName" : "C360IntegrationService",
      "serviceVersion" : "1.0",
      "operationName" : "CreateCustomerRequest"
    },
    "relationshipHierarchyMapping" : {
      "children" : [ ],
      "name" : "TestCreateMessage",
      "actions" : { },
      "selected" : true
    },
    "requestXmlMappingOverride" : true,
    "responseXmlMappingOverride" : false
  }
}