{
  "operationConfig" : {
    "name" : "getCardsByUsername7853",
    "type" : "MappedToBackend",
    "cachable" : false,
    "smsEnabled" : false,
    "security" : "public",
    "responseEncoding" : "UTF-8",
    "httpMethod" : "GET",
    "decodeResponseBody" : false,
    "iMapping" : "<?xml version=\"1.0\" encoding=\"UTF-8\" standalone=\"yes\"?><mapper xmlns=\"http://www.kony.com/ns/mapper\">  <map inputpath=\"request_in\" outputpath=\"request_out\">    <set-param inputpath=\"userName\" outputpath=\"userName\"/>  </map></mapper>",
    "oMapping" : "<?xml version=\"1.0\" encoding=\"UTF-8\" standalone=\"yes\"?><mapper xmlns=\"http://www.kony.com/ns/mapper\">      <map inputpath=\"response_in\" outputpath=\"response_out\">          <set-param inputpath=\"success\" outputpath=\"success\"/>        <set-param inputpath=\"errmsg\" outputpath=\"errmsg\"/>        <map inputpath=\"card\" outputpath=\"Cards\">                  <set-param inputpath=\"cardHolderName\" outputpath=\"cardHolderName\"/>                  <set-param inputpath=\"cardNumber\" outputpath=\"cardNumber\"/>                  <set-param inputpath=\"cardType\" outputpath=\"cardType\"/>            </map>      </map></mapper>",
    "iVisualMappingData" : "{\"nodeDataArray\":[{\"isGroup\":true,\"key\":\"request_in\",\"text\":\"Cards\",\"xy\":\"150 100\",\"__gohashid\":25650},{\"isGroup\":true,\"key\":\"request_out\",\"text\":\"dbpRbLocalServicesJava.getCardsByUsername\",\"xy\":\"770 100\",\"__gohashid\":25651}],\"linkDataArray\":[{\"from\":\"source\",\"to\":\"source:Cards\",\"fromPort\":\"source\",\"toPort\":\"source:Cards\",\"visible\":true,\"common\":false,\"__gohashid\":25683},{\"from\":\"source:Cards\",\"to\":\"source:Cards:fields\",\"fromPort\":\"source:Cards\",\"toPort\":\"source:Cards:fields\",\"visible\":true,\"common\":false,\"__gohashid\":25684},{\"from\":\"source:Cards:fields\",\"to\":\"source:Cards:accountId:\",\"fromPort\":\"source:Cards:fields\",\"toPort\":\"source:Cards:accountId:\",\"visible\":true,\"common\":false,\"__gohashid\":25685},{\"from\":\"source:Cards:fields\",\"to\":\"source:Cards:Action:\",\"fromPort\":\"source:Cards:fields\",\"toPort\":\"source:Cards:Action:\",\"visible\":true,\"common\":false,\"__gohashid\":25686},{\"from\":\"source:Cards:fields\",\"to\":\"source:Cards:cardHolderName:\",\"fromPort\":\"source:Cards:fields\",\"toPort\":\"source:Cards:cardHolderName:\",\"visible\":true,\"common\":false,\"__gohashid\":25687},{\"from\":\"source:Cards:fields\",\"to\":\"source:Cards:cardId:\",\"fromPort\":\"source:Cards:fields\",\"toPort\":\"source:Cards:cardId:\",\"visible\":true,\"common\":false,\"__gohashid\":25688},{\"from\":\"source:Cards:fields\",\"to\":\"source:Cards:cardNumber:\",\"fromPort\":\"source:Cards:fields\",\"toPort\":\"source:Cards:cardNumber:\",\"visible\":true,\"common\":false,\"__gohashid\":25689},{\"from\":\"source:Cards:fields\",\"to\":\"source:Cards:cardStatus:\",\"fromPort\":\"source:Cards:fields\",\"toPort\":\"source:Cards:cardStatus:\",\"visible\":true,\"common\":false,\"__gohashid\":25690},{\"from\":\"source:Cards:fields\",\"to\":\"source:Cards:cardType:\",\"fromPort\":\"source:Cards:fields\",\"toPort\":\"source:Cards:cardType:\",\"visible\":true,\"common\":false,\"__gohashid\":25691},{\"from\":\"source:Cards:fields\",\"to\":\"source:Cards:errmsg:\",\"fromPort\":\"source:Cards:fields\",\"toPort\":\"source:Cards:errmsg:\",\"visible\":true,\"common\":false,\"__gohashid\":25692},{\"from\":\"source:Cards:fields\",\"to\":\"source:Cards:expiryDate:\",\"fromPort\":\"source:Cards:fields\",\"toPort\":\"source:Cards:expiryDate:\",\"visible\":true,\"common\":false,\"__gohashid\":25693},{\"from\":\"source:Cards:fields\",\"to\":\"source:Cards:Reason:\",\"fromPort\":\"source:Cards:fields\",\"toPort\":\"source:Cards:Reason:\",\"visible\":true,\"common\":false,\"__gohashid\":25694},{\"from\":\"source:Cards:fields\",\"to\":\"source:Cards:success:\",\"fromPort\":\"source:Cards:fields\",\"toPort\":\"source:Cards:success:\",\"visible\":true,\"common\":false,\"__gohashid\":25695},{\"from\":\"source:Cards:fields\",\"to\":\"source:Cards:userId:\",\"fromPort\":\"source:Cards:fields\",\"toPort\":\"source:Cards:userId:\",\"visible\":true,\"common\":false,\"__gohashid\":25696},{\"from\":\"source:Cards:fields\",\"to\":\"source:Cards:userName:\",\"fromPort\":\"source:Cards:fields\",\"toPort\":\"source:Cards:userName:\",\"visible\":true,\"common\":false,\"__gohashid\":25697},{\"from\":\"source:Cards:fields\",\"to\":\"source:Cards:creditLimit:\",\"fromPort\":\"source:Cards:fields\",\"toPort\":\"source:Cards:creditLimit:\",\"visible\":true,\"common\":false,\"__gohashid\":25698},{\"from\":\"source:Cards:fields\",\"to\":\"source:Cards:availableCredit:\",\"fromPort\":\"source:Cards:fields\",\"toPort\":\"source:Cards:availableCredit:\",\"visible\":true,\"common\":false,\"__gohashid\":25699},{\"from\":\"source:Cards:fields\",\"to\":\"source:Cards:serviceProvider:\",\"fromPort\":\"source:Cards:fields\",\"toPort\":\"source:Cards:serviceProvider:\",\"visible\":true,\"common\":false,\"__gohashid\":25700},{\"from\":\"source:Cards:fields\",\"to\":\"source:Cards:billingAddress:\",\"fromPort\":\"source:Cards:fields\",\"toPort\":\"source:Cards:billingAddress:\",\"visible\":true,\"common\":false,\"__gohashid\":25701},{\"from\":\"source:Cards:fields\",\"to\":\"source:Cards:cardProductName:\",\"fromPort\":\"source:Cards:fields\",\"toPort\":\"source:Cards:cardProductName:\",\"visible\":true,\"common\":false,\"__gohashid\":25702},{\"from\":\"source:Cards:fields\",\"to\":\"source:Cards:secondaryCardHolder:\",\"fromPort\":\"source:Cards:fields\",\"toPort\":\"source:Cards:secondaryCardHolder:\",\"visible\":true,\"common\":false,\"__gohashid\":25703},{\"from\":\"source:Cards:fields\",\"to\":\"source:Cards:withdrawlLimit:\",\"fromPort\":\"source:Cards:fields\",\"toPort\":\"source:Cards:withdrawlLimit:\",\"visible\":true,\"common\":false,\"__gohashid\":25704},{\"from\":\"source:Cards:fields\",\"to\":\"source:Cards:accountNumber:\",\"fromPort\":\"source:Cards:fields\",\"toPort\":\"source:Cards:accountNumber:\",\"visible\":true,\"common\":false,\"__gohashid\":25705},{\"from\":\"source:Cards:fields\",\"to\":\"source:Cards:accountName:\",\"fromPort\":\"source:Cards:fields\",\"toPort\":\"source:Cards:accountName:\",\"visible\":true,\"common\":false,\"__gohashid\":25706},{\"from\":\"source:Cards:fields\",\"to\":\"source:Cards:maskedAccountNumber:\",\"fromPort\":\"source:Cards:fields\",\"toPort\":\"source:Cards:maskedAccountNumber:\",\"visible\":true,\"common\":false,\"__gohashid\":25707},{\"from\":\"source:Cards:fields\",\"to\":\"source:Cards:maskedCardNumber:\",\"fromPort\":\"source:Cards:fields\",\"toPort\":\"source:Cards:maskedCardNumber:\",\"visible\":true,\"common\":false,\"__gohashid\":25708},{\"from\":\"target\",\"to\":\"target:parameters\",\"fromPort\":\"target\",\"toPort\":\"target:parameters\",\"visible\":true,\"common\":false,\"__gohashid\":25709},{\"from\":\"target:parameters\",\"to\":\"target:userName:\",\"fromPort\":\"target:parameters\",\"toPort\":\"target:userName:\",\"visible\":true,\"common\":false,\"__gohashid\":25710}],\"blockCount\":{\"variableCount\":0},\"variableMap\":{},\"xmlMappingOverride\":true}",
    "oVisualMappingData" : "{\"nodeDataArray\":[{\"isGroup\":true,\"key\":\"response_out\",\"text\":\"Cards\",\"xy\":\"770 100\",\"__gohashid\":37070},{\"isGroup\":true,\"key\":\"response_in\",\"text\":\"dbpRbLocalServicesJava.getCardsByUsername\",\"xy\":\"150 100\",\"__gohashid\":37071}],\"linkDataArray\":[{\"category\":\"Mapping\",\"from\":\"source:Cards:cardHolderName:\",\"to\":\"target:Cards:cardHolderName:\",\"fromPort\":\"source:Cards:cardHolderName:\",\"toPort\":\"target:Cards:cardHolderName:\",\"visible\":true,\"common\":true,\"__gohashid\":39864},{\"category\":\"Mapping\",\"from\":\"source:Cards:cardNumber:\",\"to\":\"target:Cards:cardNumber:\",\"fromPort\":\"source:Cards:cardNumber:\",\"toPort\":\"target:Cards:cardNumber:\",\"visible\":true,\"common\":true,\"__gohashid\":39871},{\"category\":\"Mapping\",\"from\":\"source:Cards:cardType:\",\"to\":\"target:Cards:cardType:\",\"fromPort\":\"source:Cards:cardType:\",\"toPort\":\"target:Cards:cardType:\",\"visible\":true,\"common\":true,\"__gohashid\":39878},{\"from\":\"target\",\"to\":\"target:Cards\",\"fromPort\":\"target\",\"toPort\":\"target:Cards\",\"visible\":true,\"common\":false,\"__gohashid\":3907},{\"from\":\"target:Cards\",\"to\":\"target:Cards:fields\",\"fromPort\":\"target:Cards\",\"toPort\":\"target:Cards:fields\",\"visible\":true,\"common\":false,\"__gohashid\":3908},{\"from\":\"target:Cards:fields\",\"to\":\"target:Cards:accountId:\",\"fromPort\":\"target:Cards:fields\",\"toPort\":\"target:Cards:accountId:\",\"visible\":true,\"common\":false,\"__gohashid\":3909},{\"from\":\"target:Cards:fields\",\"to\":\"target:Cards:Action:\",\"fromPort\":\"target:Cards:fields\",\"toPort\":\"target:Cards:Action:\",\"visible\":true,\"common\":false,\"__gohashid\":3910},{\"from\":\"target:Cards:fields\",\"to\":\"target:Cards:cardHolderName:\",\"fromPort\":\"target:Cards:fields\",\"toPort\":\"target:Cards:cardHolderName:\",\"visible\":true,\"common\":false,\"__gohashid\":3911},{\"from\":\"target:Cards:fields\",\"to\":\"target:Cards:cardId:\",\"fromPort\":\"target:Cards:fields\",\"toPort\":\"target:Cards:cardId:\",\"visible\":true,\"common\":false,\"__gohashid\":3912},{\"from\":\"target:Cards:fields\",\"to\":\"target:Cards:cardNumber:\",\"fromPort\":\"target:Cards:fields\",\"toPort\":\"target:Cards:cardNumber:\",\"visible\":true,\"common\":false,\"__gohashid\":3913},{\"from\":\"target:Cards:fields\",\"to\":\"target:Cards:cardStatus:\",\"fromPort\":\"target:Cards:fields\",\"toPort\":\"target:Cards:cardStatus:\",\"visible\":true,\"common\":false,\"__gohashid\":3914},{\"from\":\"target:Cards:fields\",\"to\":\"target:Cards:cardType:\",\"fromPort\":\"target:Cards:fields\",\"toPort\":\"target:Cards:cardType:\",\"visible\":true,\"common\":false,\"__gohashid\":3915},{\"from\":\"target:Cards:fields\",\"to\":\"target:Cards:errmsg:\",\"fromPort\":\"target:Cards:fields\",\"toPort\":\"target:Cards:errmsg:\",\"visible\":true,\"common\":false,\"__gohashid\":3916},{\"from\":\"target:Cards:fields\",\"to\":\"target:Cards:expiryDate:\",\"fromPort\":\"target:Cards:fields\",\"toPort\":\"target:Cards:expiryDate:\",\"visible\":true,\"common\":false,\"__gohashid\":3917},{\"from\":\"target:Cards:fields\",\"to\":\"target:Cards:Reason:\",\"fromPort\":\"target:Cards:fields\",\"toPort\":\"target:Cards:Reason:\",\"visible\":true,\"common\":false,\"__gohashid\":3918},{\"from\":\"target:Cards:fields\",\"to\":\"target:Cards:success:\",\"fromPort\":\"target:Cards:fields\",\"toPort\":\"target:Cards:success:\",\"visible\":true,\"common\":false,\"__gohashid\":3919},{\"from\":\"target:Cards:fields\",\"to\":\"target:Cards:userId:\",\"fromPort\":\"target:Cards:fields\",\"toPort\":\"target:Cards:userId:\",\"visible\":true,\"common\":false,\"__gohashid\":3920},{\"from\":\"target:Cards:fields\",\"to\":\"target:Cards:userName:\",\"fromPort\":\"target:Cards:fields\",\"toPort\":\"target:Cards:userName:\",\"visible\":true,\"common\":false,\"__gohashid\":3921},{\"from\":\"target:Cards:fields\",\"to\":\"target:Cards:creditLimit:\",\"fromPort\":\"target:Cards:fields\",\"toPort\":\"target:Cards:creditLimit:\",\"visible\":true,\"common\":false,\"__gohashid\":3922},{\"from\":\"target:Cards:fields\",\"to\":\"target:Cards:availableCredit:\",\"fromPort\":\"target:Cards:fields\",\"toPort\":\"target:Cards:availableCredit:\",\"visible\":true,\"common\":false,\"__gohashid\":3923},{\"from\":\"target:Cards:fields\",\"to\":\"target:Cards:serviceProvider:\",\"fromPort\":\"target:Cards:fields\",\"toPort\":\"target:Cards:serviceProvider:\",\"visible\":true,\"common\":false,\"__gohashid\":3924},{\"from\":\"target:Cards:fields\",\"to\":\"target:Cards:billingAddress:\",\"fromPort\":\"target:Cards:fields\",\"toPort\":\"target:Cards:billingAddress:\",\"visible\":true,\"common\":false,\"__gohashid\":3925},{\"from\":\"target:Cards:fields\",\"to\":\"target:Cards:cardProductName:\",\"fromPort\":\"target:Cards:fields\",\"toPort\":\"target:Cards:cardProductName:\",\"visible\":true,\"common\":false,\"__gohashid\":3926},{\"from\":\"target:Cards:fields\",\"to\":\"target:Cards:secondaryCardHolder:\",\"fromPort\":\"target:Cards:fields\",\"toPort\":\"target:Cards:secondaryCardHolder:\",\"visible\":true,\"common\":false,\"__gohashid\":3927},{\"from\":\"target:Cards:fields\",\"to\":\"target:Cards:withdrawlLimit:\",\"fromPort\":\"target:Cards:fields\",\"toPort\":\"target:Cards:withdrawlLimit:\",\"visible\":true,\"common\":false,\"__gohashid\":3928},{\"from\":\"target:Cards:fields\",\"to\":\"target:Cards:accountNumber:\",\"fromPort\":\"target:Cards:fields\",\"toPort\":\"target:Cards:accountNumber:\",\"visible\":true,\"common\":false,\"__gohashid\":3929},{\"from\":\"target:Cards:fields\",\"to\":\"target:Cards:accountName:\",\"fromPort\":\"target:Cards:fields\",\"toPort\":\"target:Cards:accountName:\",\"visible\":true,\"common\":false,\"__gohashid\":3930},{\"from\":\"target:Cards:fields\",\"to\":\"target:Cards:maskedAccountNumber:\",\"fromPort\":\"target:Cards:fields\",\"toPort\":\"target:Cards:maskedAccountNumber:\",\"visible\":true,\"common\":false,\"__gohashid\":3931},{\"from\":\"target:Cards:fields\",\"to\":\"target:Cards:maskedCardNumber:\",\"fromPort\":\"target:Cards:fields\",\"toPort\":\"target:Cards:maskedCardNumber:\",\"visible\":true,\"common\":false,\"__gohashid\":3932},{\"from\":\"source\",\"to\":\"source:parameters\",\"fromPort\":\"source\",\"toPort\":\"source:parameters\",\"visible\":true,\"common\":false,\"__gohashid\":3933},{\"from\":\"source:parameters\",\"to\":\"source:errmsg:\",\"fromPort\":\"source:parameters\",\"toPort\":\"source:errmsg:\",\"visible\":true,\"common\":false,\"__gohashid\":3934},{\"from\":\"source:parameters\",\"to\":\"source:success:\",\"fromPort\":\"source:parameters\",\"toPort\":\"source:success:\",\"visible\":true,\"common\":false,\"__gohashid\":3935},{\"from\":\"source\",\"to\":\"source:Cards\",\"fromPort\":\"source\",\"toPort\":\"source:Cards\",\"visible\":true,\"common\":false,\"__gohashid\":3936},{\"from\":\"source:Cards\",\"to\":\"source:Cards:parameters\",\"fromPort\":\"source:Cards\",\"toPort\":\"source:Cards:parameters\",\"visible\":true,\"common\":false,\"__gohashid\":3937},{\"from\":\"source:Cards:parameters\",\"to\":\"source:Cards:cardHolderName:\",\"fromPort\":\"source:Cards:parameters\",\"toPort\":\"source:Cards:cardHolderName:\",\"visible\":true,\"common\":false,\"__gohashid\":3938},{\"from\":\"source:Cards:parameters\",\"to\":\"source:Cards:cardNumber:\",\"fromPort\":\"source:Cards:parameters\",\"toPort\":\"source:Cards:cardNumber:\",\"visible\":true,\"common\":false,\"__gohashid\":3939},{\"from\":\"source:Cards:parameters\",\"to\":\"source:Cards:cardType:\",\"fromPort\":\"source:Cards:parameters\",\"toPort\":\"source:Cards:cardType:\",\"visible\":true,\"common\":false,\"__gohashid\":3940}],\"blockCount\":{\"variableCount\":0},\"variableMap\":{},\"xmlMappingOverride\":true}",
    "applyCommonMapping" : false,
    "applyRequestCommonMapping" : false,
    "applyResponseCommonMapping" : false,
    "backendMeta" : {
      "serviceName" : "dbpRbLocalServicesJava",
      "serviceVersion" : "1.0",
      "operationName" : "getCardsByUsername"
    },
    "relationshipHierarchyMapping" : {
      "children" : [ ],
      "name" : "Cards",
      "actions" : { },
      "selected" : true
    },
    "requestXmlMappingOverride" : true,
    "responseXmlMappingOverride" : true
  }
}