{
  "name" : "CustomLogin",
  "displayName" : "CustomLogin",
  "type" : "custom",
  "version" : "1.0",
  "metaPreference" : -1,
  "config" : "{\"header_params\":[],\"provider_params\":{},\"body_params\":{\"password\":\"kony1234\",\"username\":\"dbpolbuser\"},\"custom_idp_url\":\"https://konyportal-dev.umpquabank.com:443/services/dbpLocalServiceslogin/login\"}",
  "policyConfig" : "{\"def_user_status\":\"pending\",\"max_login_fail\":5}",
  "admissionPolicy" : "no_approval_needed",
  "identityMeta" : {
    "allow_sso" : false
  },
  "ssoenabled" : false
}