{
  "subType" : "customapp",
  "description" : "DbpLocalServices",
  "version" : "1.0",
  "intSvcs" : [ {
    "name" : "AccountRequests",
    "version" : "1.0",
    "etag" : "8d3668a6-9989-4876-bfcd-c2d3100ac2d1"
  }, {
    "name" : "APIDBPIdentity",
    "version" : "1.0",
    "etag" : "1ef6af97-fd92-4ab1-95e0-a9a5edd2ead0"
  }, {
    "name" : "Bank1",
    "version" : "1.0",
    "etag" : "279fddb3-f672-49fa-a3b2-b666e9de08dc"
  }, {
    "name" : "Bank2",
    "version" : "1.0",
    "etag" : "85b5ab7d-9561-49f7-9cc2-061d55f7fef3"
  }, {
    "name" : "Bank3",
    "version" : "1.0",
    "etag" : "185ca853-0a4c-4843-a327-13e656748393"
  }, {
    "name" : "Bank4",
    "version" : "1.0",
    "etag" : "d181c62a-b7d4-456c-9d60-2202ee419019"
  }, {
    "name" : "Bank5",
    "version" : "1.0",
    "etag" : "4c0a6790-9011-4ebd-84b8-c9a3c5f6de41"
  }, {
    "name" : "BankUmpquaAccountService",
    "version" : "1.0",
    "etag" : "e4c8015a-5aba-4162-8d5f-132d6f597499"
  }, {
    "name" : "BankUmpquaAPIService",
    "version" : "1.0",
    "etag" : "784b75ba-4fb7-49c0-a563-10a26fc81f20"
  }, {
    "name" : "BankUmpquaCustomerService",
    "version" : "1.0",
    "etag" : "938a9f25-e6c6-4a4f-a4d5-1aed4e124844"
  }, {
    "name" : "BankUmpquaMockDataService",
    "version" : "1.0",
    "etag" : "fb942761-e249-4d60-bda5-dec902b1f721"
  }, {
    "name" : "BankUmpquaServicesJava",
    "version" : "1.0",
    "etag" : "fc5d0403-a9ef-46ce-a325-a95d7622889b"
  }, {
    "name" : "BankUmpquaZelle",
    "version" : "1.0",
    "etag" : "3fd70f07-2ec6-42b9-a5f2-6a8dc8d38424"
  }, {
    "name" : "BBMockServices",
    "version" : "1.0",
    "etag" : "f37fabfc-aec2-434a-a06f-80d9dd68be25"
  }, {
    "name" : "C360APILogin",
    "version" : "1.0",
    "etag" : "373666fb-f6bf-472a-9194-ce2dcf92377d"
  }, {
    "name" : "C360IntegrationService",
    "version" : "1.0",
    "etag" : "b18a7de3-72c7-43f0-a478-acb00793a85b"
  }, {
    "name" : "CheckFreeNext",
    "version" : "1.1",
    "etag" : "f84d3875-e0db-4271-ae6d-6adb5424e46d"
  }, {
    "name" : "CheckFreeNextServicesJava",
    "version" : "1.0",
    "etag" : "56e635c0-abd7-4e5c-9d87-0ae71f0f33bd"
  }, {
    "name" : "CustomerEntilement",
    "version" : "1.0",
    "etag" : "6f2d2cfb-0941-414e-a358-ef48fcb03016"
  }, {
    "name" : "customerfeedbacklocalservices",
    "version" : "1.0",
    "etag" : "d78c673d-f70c-4b21-9508-db4ed93a8cd7"
  }, {
    "name" : "dbpAccountAggregationdb",
    "version" : "1.0",
    "etag" : "47292422-7b97-46f7-a3df-54a7e03a7848"
  }, {
    "name" : "dbpAccountAggregationjava",
    "version" : "1.0",
    "etag" : "c8003644-a667-4770-9ebf-7d32d46b0c5d"
  }, {
    "name" : "dbpAdminConsoleServices",
    "version" : "1.0",
    "etag" : "02e7b1a9-0d39-4ab3-a720-ca6a2d492732"
  }, {
    "name" : "dbpBBJavaServices",
    "version" : "1.0",
    "etag" : "5150e250-f5bc-4313-9b7a-a522e888453b"
  }, {
    "name" : "dbpDbxCustomerLogin",
    "version" : "1.0",
    "etag" : "f0b32bad-bef8-46c1-a3ea-90f82512ba33"
  }, {
    "name" : "dbpDbxExternalLogin",
    "version" : "1.0",
    "etag" : "8249c064-7463-4209-bc3c-2b84cf3783ec"
  }, {
    "name" : "dbpLibraryUtilitiesdb",
    "version" : "1.0",
    "etag" : "873fcc68-f97a-4e08-b3cd-53dc322479bf"
  }, {
    "name" : "dbpLibraryUtilitiesjava",
    "version" : "1.0",
    "etag" : "5dcd710b-596e-4150-b28b-4ce7256a73fb"
  }, {
    "name" : "dbpLocalServiceNUOLogin",
    "version" : "1.0",
    "etag" : "a3f7063e-77ec-4d47-b865-2bdc6b6017f2"
  }, {
    "name" : "dbpLocalServiceslogin",
    "version" : "1.0",
    "etag" : "b6c9f56d-aec3-4dfb-abc7-969a3caaf628"
  }, {
    "name" : "DBPMFAService",
    "version" : "1.0",
    "etag" : "dddf509d-4fea-4cea-9112-360e580a0921"
  }, {
    "name" : "dbpRbFeedbackServicesJava",
    "version" : "1.0",
    "etag" : "3ac33abe-efd1-4840-b645-d2ea34f4c713"
  }, {
    "name" : "dbpRbLocalServicesdb",
    "version" : "1.0",
    "etag" : "249e6290-a2ee-46cc-9481-14e65947554b"
  }, {
    "name" : "dbpRbLocalServicesJava",
    "version" : "1.0",
    "etag" : "7279810a-056a-4a12-9823-6bf0997ed807"
  }, {
    "name" : "dbpUserAttributes",
    "version" : "1.0",
    "etag" : "85f6a6a5-d0ec-4d0d-bf7d-6229ba7ec11f"
  }, {
    "name" : "DbxKMSLogin",
    "version" : "1.0",
    "etag" : "46ff049e-2d59-450e-888a-6af5f477f5fc"
  }, {
    "name" : "EngageService",
    "version" : "1.0",
    "etag" : "7db80ee1-0c5b-4b5e-a1e1-433c4d4e7a9d"
  }, {
    "name" : "GoogleAPIs",
    "version" : "1.0",
    "etag" : "1b4367d2-4b36-4ec9-96c5-1cf7b431c51d"
  }, {
    "name" : "IdologyIntServices",
    "version" : "1.0",
    "etag" : "4e865b8a-15fa-4026-b7fe-f6080ec944e3"
  }, {
    "name" : "IntegrationRegulator",
    "version" : "1.0",
    "etag" : "9170be27-5fb7-43fe-9091-36be2a97d0ec"
  }, {
    "name" : "LinkedInService",
    "version" : "1.0",
    "etag" : "1b02dbb9-6ab3-42b1-8687-f8254d48434f"
  }, {
    "name" : "MainBank",
    "version" : "1.0",
    "etag" : "39495b30-ad3b-45d7-b2c0-08631839d3a6"
  }, {
    "name" : "OktaAuthenticationIntService",
    "version" : "1.0",
    "etag" : "ae9343ee-a2dd-4330-8aa3-99df828b230a"
  }, {
    "name" : "OktaAuthService",
    "version" : "1.0",
    "etag" : "9d23b48a-c195-44a9-acc4-42785c6fd9a5"
  }, {
    "name" : "OktaExtra",
    "version" : "1.0",
    "etag" : "3799efb2-86f6-4bed-8558-1e358459852f"
  }, {
    "name" : "OktaStub",
    "version" : "1.0",
    "etag" : "ff62814c-3f50-4ace-b3b2-d044c6fd8ac9"
  }, {
    "name" : "SchedulingEngineAPI",
    "version" : "1.0",
    "etag" : "fdeba674-41c2-4abc-a7a9-5214e8646634"
  }, {
    "name" : "UserAttributes",
    "version" : "1.0",
    "etag" : "47a3b8d8-9d17-4dfa-a63a-550657bdee87"
  } ],
  "orchSvcs" : [ {
    "name" : "KmsEmailOrch",
    "version" : "1.0",
    "etag" : "b6e0ef1a-d9b1-4513-b7e3-bf569a2c8b3d"
  }, {
    "name" : "dbpDBX",
    "version" : "1.0",
    "etag" : "d625670b-eff9-4ce6-a3f1-d7f4618d73a7"
  }, {
    "name" : "dbpAccountsorch",
    "version" : "1.0",
    "etag" : "5ff235b7-a8f7-4d60-940d-c67f032c7c8d"
  }, {
    "name" : "dbpAllLocations",
    "version" : "1.0",
    "etag" : "897f2f7c-a08b-4d12-b106-5f3f66b1f11f"
  }, {
    "name" : "ATMLocator",
    "version" : "1.0",
    "etag" : "34469dba-5107-460b-bf4c-630b7ee0c2e1"
  }, {
    "name" : "OktaOrch",
    "version" : "1.0",
    "etag" : "81f789d8-b2e6-4482-822e-d0c59e73a63f"
  }, {
    "name" : "dbpPayeeorch",
    "version" : "1.0",
    "etag" : "5680d088-5ccb-4fdd-be1e-e3e0612eb1d5"
  }, {
    "name" : "dbpTransactionsorch",
    "version" : "1.0",
    "etag" : "ad8d582c-74af-4c5c-85b3-e371065541df"
  }, {
    "name" : "createMainUserIdentity",
    "version" : "1.0",
    "etag" : "71cbfecb-199b-442b-86a9-96c3ea8c061a"
  }, {
    "name" : "DbxCustomerLogin",
    "version" : "1.0",
    "etag" : "9c773301-211c-4849-9419-610c7607a9ac"
  }, {
    "name" : "backgroundVerificationOrch",
    "version" : "1.0",
    "etag" : "bb35fbd2-687e-490a-ab18-0a7f244e7bac"
  }, {
    "name" : "BankUmpquaOrch",
    "version" : "1.0",
    "etag" : "ba44dd70-79a0-422e-884b-1c19a711f9be"
  }, {
    "name" : "DashBoard",
    "version" : "1.0",
    "etag" : "cea2e450-41ae-42a7-95e8-5c0ab98e3757"
  }, {
    "name" : "CustomerEntitlementsOrch",
    "version" : "1.0",
    "etag" : "3b771673-97c0-497c-a626-2b91830a2612"
  }, {
    "name" : "dbpLibraryUtilitiesorch",
    "version" : "1.0",
    "etag" : "abd813e7-ba4c-4165-bcc9-84886ac05282"
  }, {
    "name" : "CheckFreeNextOrch",
    "version" : "1.0",
    "etag" : "b9a0f8ab-0671-46dc-b9f5-1b80d3e05162"
  }, {
    "name" : "OktaOrchSecurityQuestions",
    "version" : "1.0",
    "etag" : "1e99cb8c-3d98-4936-9099-17c4d06a39f8"
  } ],
  "objectSvcs" : [ {
    "name" : "AccountAggregation",
    "version" : "1.0",
    "etag" : "2190372f-4d74-40a7-8f15-f40c0d8a2549"
  }, {
    "name" : "ACHObjects",
    "version" : "1.0",
    "etag" : "ad45d869-3a21-4ab0-8efc-164269beb2b7"
  }, {
    "name" : "ApprovalRequestObjects",
    "version" : "1.0",
    "etag" : "4ceb3fad-e905-447b-b2b6-6071134fe6ba"
  }, {
    "name" : "BackgroundVerification",
    "version" : "1.0",
    "etag" : "aba60105-7571-4662-b988-481975f5d55d"
  }, {
    "name" : "CustomerFeedback",
    "version" : "1.0",
    "etag" : "20b5290b-c35e-46fc-ada0-8a6f08c872e7"
  }, {
    "name" : "DBXTest",
    "version" : "1.0",
    "etag" : "e26a5a78-2cd4-4f73-85f0-2a7b3a7a22ff"
  }, {
    "name" : "LibraryUtilities",
    "version" : "1.0",
    "etag" : "fc3662ff-3dd4-438d-88b7-8edecada31e8"
  }, {
    "name" : "RBObjects",
    "version" : "1.3",
    "etag" : "42413fb2-7b7a-4dd6-b6e8-d5b2751bf1e7"
  }, {
    "name" : "TransactionObjects",
    "version" : "1.0",
    "etag" : "598b0db1-c0a9-4861-bc74-714c6c666ccb"
  }, {
    "name" : "VerifyBackground",
    "version" : "1.0",
    "etag" : "c8dbd3e6-6a00-4e55-8996-fa403a740fea"
  } ],
  "identity" : [ "LinkedIn", "IdentityProviderBank1", "IdentityProviderBank2", "IdentityProviderBank3", "IdentityProviderBank4", "IdentityProviderBank5", "CustomLogin", "DbxUserLogin", "NUOApplicantLogin", "DbxAPIIdentityService", "SchedulingEngineIdentity", "DbxUserLogin360" ]
}