{
  "operationConfig" : {
    "name" : "getAccountDetails2342",
    "type" : "MappedToBackend",
    "cachable" : false,
    "smsEnabled" : false,
    "security" : "authorized_app_user",
    "responseEncoding" : "UTF-8",
    "httpMethod" : "GET",
    "decodeResponseBody" : false,
    "iMapping" : "<?xml version=\"1.0\" encoding=\"UTF-8\" standalone=\"yes\"?><mapper xmlns=\"http://www.kony.com/ns/mapper\">                  <map inputpath=\"request_in\" outputpath=\"request_out\">     \t                          <set-param inputpath=\"accountType\" outputpath=\"AccountType\"/> \t                          <set-param inputpath=\"coreType\" outputpath=\"CoreType\"/>                        <set-param inputpath=\"accountNumber\" outputpath=\"AccountNumber\"/> \t                          <set-param inputpath=\"noteNumber\" outputpath=\"NoteNumber\"/>            </map></mapper>",
    "oMapping" : "<?xml version=\"1.0\" encoding=\"UTF-8\" standalone=\"yes\"?><mapper xmlns=\"http://www.kony.com/ns/mapper\">                                                                            <map inputpath=\"response_in\" outputpath=\"response_out\">                                                                                                                                                        <map inputpath=\"AccountDetails\" outputpath=\"AccountDetails\">\t                                                                                                                                                  <set-param inputpath=\"AccountNumber\" outputpath=\"accountID\"/>\t                                                                                                                                                  <set-param inputpath=\"AccountType\" outputpath=\"accountType\"/>\t                                                                                                                                                  <set-param inputpath=\"CurrencyCode\" outputpath=\"currencyCode\"/>                                                                                                                                                      <set-param inputpath=\"CurrentBalance\" outputpath=\"currentBalance\"/>                                                                                                                                                                                                                                    <set-param inputpath=\"AvailableBalance\" outputpath=\"availableBalance\"/>                                                                                                                                                                                                        <set-param inputpath=\"AsOfDate\" outputpath=\"asOfDate\"/>                                                                                                                                                                                                      <set-param inputpath=\"TotalCreditAmountCTD\" outputpath=\"totalCreditMonths\"/>                                                                                                                                                                                                                                    <set-param inputpath=\"TotalDebitAmountCTD\" outputpath=\"totalDebitsMonth\"/>                                                                                                                               <set-param inputpath=\"TotalCreditAmountCTD\" outputpath=\"totalCreditsThisStatement\"/>                                                                                                                                                                                                                                    <set-param inputpath=\"TotalDebitAmountCTD\" outputpath=\"totalDebitsThisStatement\"/>                                                                                                                               <set-param inputpath=\"InterestRate\" outputpath=\"dividendRate\"/>                                                                                                                                                                                                                             <set-param inputpath=\"InterestPaidYTD\" outputpath=\"dividendPaidYTD\"/>                                                                                                                                                                                                      <set-param inputpath=\"InterestAccruedCTD\" outputpath=\"lastDividendPaidAmount\"/>                                                                                                                                                <set-param inputpath=\"InterestAccruedCTD\" outputpath=\"interestAccrued\"/>                                                                                                                               <set-param inputpath=\"InterestAccruedCTD\" outputpath=\"accruedInterestSinceLastStatement\"/>                                                                                                                               <set-param inputpath=\"AccountNumber\" outputpath=\"accountNumber\"/>                                                                                                                                                                                                                                    <set-param inputpath=\"SwiftCode\" outputpath=\"swiftCode\"/>                                                                                                                                                                                                                                    <set-param inputpath=\"RoutingNumber\" outputpath=\"routingNumber\"/>                                                                                                                                                                                                       <set-param inputpath=\"InterestAccruedCTD\" outputpath=\"interestEarned\"/>                                                                                                                                                                                                        <set-param inputpath=\"MaturityDate\" outputpath=\"maturityDate\"/>                                                                                                                                                                                                      <set-param inputpath=\"Term\" outputpath=\"term\"/>                                                                                                                                                                                                      <set-param inputpath=\"LastInterestPaymentAmount\" outputpath=\"dividendLastPaidAmount\"/>                                                                                                                                                                                                      <set-param inputpath=\"LastInterestPaymentDate\" outputpath=\"dividendLastPaidDate\"/>                                                                                                                                           <set-param inputpath=\"LastInterestPaymentAmount\" outputpath=\"lastInterestPaidAmount\"/>                                                                                                                                          <set-param inputpath=\"LastInterestPaymentDate\" outputpath=\"paidOnDate\"/>                                                                                                                                          <set-param inputpath=\"PrincipalBalance\" outputpath=\"principalBalance\"/>                                                                                                                                                                                                      <set-param inputpath=\"EscrowBalance\" outputpath=\"escrowBalance\"/>                                                                                                                                                                                                      <set-param inputpath=\"CurrentAmountDue\" outputpath=\"currentAmountDue\"/>                                                                                                                                                                                                      <set-param inputpath=\"NextPaymentDate\" outputpath=\"nextPaymentDate\"/>                                                                                                                                                                                            <set-param inputpath=\"NextPaymentDue\" outputpath=\"nextPaymentDue\"/>                                                                                                                                                                                             <set-param inputpath=\"InterestRate\" outputpath=\"interestRate\"/>                                                                                                                                                                                                      <set-param inputpath=\"InterestPaidYTD\" outputpath=\"interestPaidYTD\"/>                                                                                                                                                                                                      <set-param inputpath=\"InterestPaidLastYear\" outputpath=\"interestPaidLastYear\"/>                                                                                                                                                                                                 <set-param inputpath=\"LastPaymentAmount\" outputpath=\"lastPaymentAmount\"/>                                                                                                                                                                                                <set-param inputpath=\"LastPaymentDate\" outputpath=\"lastPaymentDate\"/>                                                                                                                                                                                                <set-param inputpath=\"OriginalAmount\" outputpath=\"originalAmount\"/>                                                                                                                                                                                                <set-param inputpath=\"OriginationDate\" outputpath=\"openingDate\"/>                                                                                                                                                                                                <set-param inputpath=\"NoteNumber\" outputpath=\"noteNumber\"/>                                                                                                                                                                                                <set-param inputpath=\"CurrentPrincipalBalance\" outputpath=\"currentPrincipalBalance\"/>                                                                                                                                                                                                <set-param inputpath=\"AvailableCredit\" outputpath=\"availableCredit\"/>                                                                                                                                                                                                <set-param inputpath=\"TotalCreditLimit\" outputpath=\"totalCreditLimit\"/>                                                                                                                                                                                                <set-param inputpath=\"OutstandingBalance\" outputpath=\"outstandingBalance\"/>                                                                                                                                                                                           <set-param inputpath=\"AccountName\" outputpath=\"accountName\"/>                                                                                                                        <set-param inputpath=\"nickName\" outputpath=\"nickName\"/>                                                                                                                     <set-param inputpath=\"accountHolder\" outputpath=\"accountHolder\"/>                                                                                                                 <set-param inputpath=\"NextPaymentAmount\" outputpath=\"nextPaymentAmount\"/>                                                                  <set-param inputpath=\"Status\" outputpath=\"status\"/>                   <set-param inputpath=\"ClosedDate\" outputpath=\"closedDate\"/>                  <set-param inputpath=\"Status2\" outputpath=\"status2\"/>             <set-param inputpath=\"CoreType\" outputpath=\"coreType\"/>            <set-param inputpath=\"NoteNumber\" outputpath=\"noteNumber\"/>       <set-param inputpath=\"TransferToInternal\" outputpath=\"transferToInternal\"/>                        <set-param inputpath=\"TransferToExternal\" outputpath=\"transferToExternal\"/>                        <set-param inputpath=\"TransferFromInternal\" outputpath=\"transferFromInternal\"/>                        <set-param inputpath=\"TransferFromExternal\" outputpath=\"transferFromExternal\"/>     </map>                                                                            </map>  </mapper>",
    "iVisualMappingData" : "{\"nodeDataArray\":[{\"isGroup\":true,\"key\":\"request_in\",\"text\":\"Accounts\",\"xy\":\"150 100\",\"__gohashid\":69715},{\"isGroup\":true,\"key\":\"request_out\",\"text\":\"BankUmpquaOrch (1.0).getAccountDetails\",\"xy\":\"770 100\",\"__gohashid\":69716}],\"linkDataArray\":[{\"from\":\"source\",\"to\":\"source:Accounts\",\"fromPort\":\"source\",\"toPort\":\"source:Accounts\",\"visible\":true,\"common\":false,\"__gohashid\":69858},{\"from\":\"source:Accounts\",\"to\":\"source:Accounts:fields\",\"fromPort\":\"source:Accounts\",\"toPort\":\"source:Accounts:fields\",\"visible\":true,\"common\":false,\"__gohashid\":69859},{\"from\":\"source:Accounts:fields\",\"to\":\"source:Accounts:accountHolder:\",\"fromPort\":\"source:Accounts:fields\",\"toPort\":\"source:Accounts:accountHolder:\",\"visible\":true,\"common\":false,\"__gohashid\":69860},{\"from\":\"source:Accounts:fields\",\"to\":\"source:Accounts:accountID:\",\"fromPort\":\"source:Accounts:fields\",\"toPort\":\"source:Accounts:accountID:\",\"visible\":true,\"common\":false,\"__gohashid\":69861},{\"from\":\"source:Accounts:fields\",\"to\":\"source:Accounts:accountli:\",\"fromPort\":\"source:Accounts:fields\",\"toPort\":\"source:Accounts:accountli:\",\"visible\":true,\"common\":false,\"__gohashid\":69862},{\"from\":\"source:Accounts:fields\",\"to\":\"source:Accounts:accountName:\",\"fromPort\":\"source:Accounts:fields\",\"toPort\":\"source:Accounts:accountName:\",\"visible\":true,\"common\":false,\"__gohashid\":69863},{\"from\":\"source:Accounts:fields\",\"to\":\"source:Accounts:accountPreference:\",\"fromPort\":\"source:Accounts:fields\",\"toPort\":\"source:Accounts:accountPreference:\",\"visible\":true,\"common\":false,\"__gohashid\":69864},{\"from\":\"source:Accounts:fields\",\"to\":\"source:Accounts:accountType:\",\"fromPort\":\"source:Accounts:fields\",\"toPort\":\"source:Accounts:accountType:\",\"visible\":true,\"common\":false,\"__gohashid\":69865},{\"from\":\"source:Accounts:fields\",\"to\":\"source:Accounts:availableBalance:\",\"fromPort\":\"source:Accounts:fields\",\"toPort\":\"source:Accounts:availableBalance:\",\"visible\":true,\"common\":false,\"__gohashid\":69866},{\"from\":\"source:Accounts:fields\",\"to\":\"source:Accounts:availableCredit:\",\"fromPort\":\"source:Accounts:fields\",\"toPort\":\"source:Accounts:availableCredit:\",\"visible\":true,\"common\":false,\"__gohashid\":69867},{\"from\":\"source:Accounts:fields\",\"to\":\"source:Accounts:availablePoints:\",\"fromPort\":\"source:Accounts:fields\",\"toPort\":\"source:Accounts:availablePoints:\",\"visible\":true,\"common\":false,\"__gohashid\":69868},{\"from\":\"source:Accounts:fields\",\"to\":\"source:Accounts:bankName:\",\"fromPort\":\"source:Accounts:fields\",\"toPort\":\"source:Accounts:bankName:\",\"visible\":true,\"common\":false,\"__gohashid\":69869},{\"from\":\"source:Accounts:fields\",\"to\":\"source:Accounts:bondInterest:\",\"fromPort\":\"source:Accounts:fields\",\"toPort\":\"source:Accounts:bondInterest:\",\"visible\":true,\"common\":false,\"__gohashid\":69870},{\"from\":\"source:Accounts:fields\",\"to\":\"source:Accounts:bondInterestLastYear:\",\"fromPort\":\"source:Accounts:fields\",\"toPort\":\"source:Accounts:bondInterestLastYear:\",\"visible\":true,\"common\":false,\"__gohashid\":69871},{\"from\":\"source:Accounts:fields\",\"to\":\"source:Accounts:bsbNum:\",\"fromPort\":\"source:Accounts:fields\",\"toPort\":\"source:Accounts:bsbNum:\",\"visible\":true,\"common\":false,\"__gohashid\":69872},{\"from\":\"source:Accounts:fields\",\"to\":\"source:Accounts:closingDate:\",\"fromPort\":\"source:Accounts:fields\",\"toPort\":\"source:Accounts:closingDate:\",\"visible\":true,\"common\":false,\"__gohashid\":69873},{\"from\":\"source:Accounts:fields\",\"to\":\"source:Accounts:creditCardNumber:\",\"fromPort\":\"source:Accounts:fields\",\"toPort\":\"source:Accounts:creditCardNumber:\",\"visible\":true,\"common\":false,\"__gohashid\":69874},{\"from\":\"source:Accounts:fields\",\"to\":\"source:Accounts:creditLimit:\",\"fromPort\":\"source:Accounts:fields\",\"toPort\":\"source:Accounts:creditLimit:\",\"visible\":true,\"common\":false,\"__gohashid\":69875},{\"from\":\"source:Accounts:fields\",\"to\":\"source:Accounts:currencyCode:\",\"fromPort\":\"source:Accounts:fields\",\"toPort\":\"source:Accounts:currencyCode:\",\"visible\":true,\"common\":false,\"__gohashid\":69876},{\"from\":\"source:Accounts:fields\",\"to\":\"source:Accounts:currentAmountDue:\",\"fromPort\":\"source:Accounts:fields\",\"toPort\":\"source:Accounts:currentAmountDue:\",\"visible\":true,\"common\":false,\"__gohashid\":69877},{\"from\":\"source:Accounts:fields\",\"to\":\"source:Accounts:currentBalance:\",\"fromPort\":\"source:Accounts:fields\",\"toPort\":\"source:Accounts:currentBalance:\",\"visible\":true,\"common\":false,\"__gohashid\":69878},{\"from\":\"source:Accounts:fields\",\"to\":\"source:Accounts:deviceID:\",\"fromPort\":\"source:Accounts:fields\",\"toPort\":\"source:Accounts:deviceID:\",\"visible\":true,\"common\":false,\"__gohashid\":69879},{\"from\":\"source:Accounts:fields\",\"to\":\"source:Accounts:dividendLastPaidAmount:\",\"fromPort\":\"source:Accounts:fields\",\"toPort\":\"source:Accounts:dividendLastPaidAmount:\",\"visible\":true,\"common\":false,\"__gohashid\":69880},{\"from\":\"source:Accounts:fields\",\"to\":\"source:Accounts:dividendLastPaidDate:\",\"fromPort\":\"source:Accounts:fields\",\"toPort\":\"source:Accounts:dividendLastPaidDate:\",\"visible\":true,\"common\":false,\"__gohashid\":69881},{\"from\":\"source:Accounts:fields\",\"to\":\"source:Accounts:dividendPaidYTD:\",\"fromPort\":\"source:Accounts:fields\",\"toPort\":\"source:Accounts:dividendPaidYTD:\",\"visible\":true,\"common\":false,\"__gohashid\":69882},{\"from\":\"source:Accounts:fields\",\"to\":\"source:Accounts:dividendRate:\",\"fromPort\":\"source:Accounts:fields\",\"toPort\":\"source:Accounts:dividendRate:\",\"visible\":true,\"common\":false,\"__gohashid\":69883},{\"from\":\"source:Accounts:fields\",\"to\":\"source:Accounts:dividendYTD:\",\"fromPort\":\"source:Accounts:fields\",\"toPort\":\"source:Accounts:dividendYTD:\",\"visible\":true,\"common\":false,\"__gohashid\":69884},{\"from\":\"source:Accounts:fields\",\"to\":\"source:Accounts:dueDate:\",\"fromPort\":\"source:Accounts:fields\",\"toPort\":\"source:Accounts:dueDate:\",\"visible\":true,\"common\":false,\"__gohashid\":69885},{\"from\":\"source:Accounts:fields\",\"to\":\"source:Accounts:errmsg:\",\"fromPort\":\"source:Accounts:fields\",\"toPort\":\"source:Accounts:errmsg:\",\"visible\":true,\"common\":false,\"__gohashid\":69886},{\"from\":\"source:Accounts:fields\",\"to\":\"source:Accounts:eStatementEnable:\",\"fromPort\":\"source:Accounts:fields\",\"toPort\":\"source:Accounts:eStatementEnable:\",\"visible\":true,\"common\":false,\"__gohashid\":69887},{\"from\":\"source:Accounts:fields\",\"to\":\"source:Accounts:favouriteStatus:\",\"fromPort\":\"source:Accounts:fields\",\"toPort\":\"source:Accounts:favouriteStatus:\",\"visible\":true,\"common\":false,\"__gohashid\":69888},{\"from\":\"source:Accounts:fields\",\"to\":\"source:Accounts:interestEarned:\",\"fromPort\":\"source:Accounts:fields\",\"toPort\":\"source:Accounts:interestEarned:\",\"visible\":true,\"common\":false,\"__gohashid\":69889},{\"from\":\"source:Accounts:fields\",\"to\":\"source:Accounts:interestPaidLastYear:\",\"fromPort\":\"source:Accounts:fields\",\"toPort\":\"source:Accounts:interestPaidLastYear:\",\"visible\":true,\"common\":false,\"__gohashid\":69890},{\"from\":\"source:Accounts:fields\",\"to\":\"source:Accounts:interestPaidPreviousYTD:\",\"fromPort\":\"source:Accounts:fields\",\"toPort\":\"source:Accounts:interestPaidPreviousYTD:\",\"visible\":true,\"common\":false,\"__gohashid\":69891},{\"from\":\"source:Accounts:fields\",\"to\":\"source:Accounts:interestPaidYTD:\",\"fromPort\":\"source:Accounts:fields\",\"toPort\":\"source:Accounts:interestPaidYTD:\",\"visible\":true,\"common\":false,\"__gohashid\":69892},{\"from\":\"source:Accounts:fields\",\"to\":\"source:Accounts:interestRate:\",\"fromPort\":\"source:Accounts:fields\",\"toPort\":\"source:Accounts:interestRate:\",\"visible\":true,\"common\":false,\"__gohashid\":69893},{\"from\":\"source:Accounts:fields\",\"to\":\"source:Accounts:isInternationalAccount:\",\"fromPort\":\"source:Accounts:fields\",\"toPort\":\"source:Accounts:isInternationalAccount:\",\"visible\":true,\"common\":false,\"__gohashid\":69894},{\"from\":\"source:Accounts:fields\",\"to\":\"source:Accounts:isPFM:\",\"fromPort\":\"source:Accounts:fields\",\"toPort\":\"source:Accounts:isPFM:\",\"visible\":true,\"common\":false,\"__gohashid\":69895},{\"from\":\"source:Accounts:fields\",\"to\":\"source:Accounts:jointHolders:\",\"fromPort\":\"source:Accounts:fields\",\"toPort\":\"source:Accounts:jointHolders:\",\"visible\":true,\"common\":false,\"__gohashid\":69896},{\"from\":\"source:Accounts:fields\",\"to\":\"source:Accounts:lastDividendPaidAmount:\",\"fromPort\":\"source:Accounts:fields\",\"toPort\":\"source:Accounts:lastDividendPaidAmount:\",\"visible\":true,\"common\":false,\"__gohashid\":69897},{\"from\":\"source:Accounts:fields\",\"to\":\"source:Accounts:lastDividendPaidDate:\",\"fromPort\":\"source:Accounts:fields\",\"toPort\":\"source:Accounts:lastDividendPaidDate:\",\"visible\":true,\"common\":false,\"__gohashid\":69898},{\"from\":\"source:Accounts:fields\",\"to\":\"source:Accounts:lastPaymentAmount:\",\"fromPort\":\"source:Accounts:fields\",\"toPort\":\"source:Accounts:lastPaymentAmount:\",\"visible\":true,\"common\":false,\"__gohashid\":69899},{\"from\":\"source:Accounts:fields\",\"to\":\"source:Accounts:lastPaymentDate:\",\"fromPort\":\"source:Accounts:fields\",\"toPort\":\"source:Accounts:lastPaymentDate:\",\"visible\":true,\"common\":false,\"__gohashid\":69900},{\"from\":\"source:Accounts:fields\",\"to\":\"source:Accounts:lastStatementBalance:\",\"fromPort\":\"source:Accounts:fields\",\"toPort\":\"source:Accounts:lastStatementBalance:\",\"visible\":true,\"common\":false,\"__gohashid\":69901},{\"from\":\"source:Accounts:fields\",\"to\":\"source:Accounts:lateFeesDue:\",\"fromPort\":\"source:Accounts:fields\",\"toPort\":\"source:Accounts:lateFeesDue:\",\"visible\":true,\"common\":false,\"__gohashid\":69902},{\"from\":\"source:Accounts:fields\",\"to\":\"source:Accounts:maturityAmount:\",\"fromPort\":\"source:Accounts:fields\",\"toPort\":\"source:Accounts:maturityAmount:\",\"visible\":true,\"common\":false,\"__gohashid\":69903},{\"from\":\"source:Accounts:fields\",\"to\":\"source:Accounts:maturityDate:\",\"fromPort\":\"source:Accounts:fields\",\"toPort\":\"source:Accounts:maturityDate:\",\"visible\":true,\"common\":false,\"__gohashid\":69904},{\"from\":\"source:Accounts:fields\",\"to\":\"source:Accounts:maturityOption:\",\"fromPort\":\"source:Accounts:fields\",\"toPort\":\"source:Accounts:maturityOption:\",\"visible\":true,\"common\":false,\"__gohashid\":69905},{\"from\":\"source:Accounts:fields\",\"to\":\"source:Accounts:minimumDue:\",\"fromPort\":\"source:Accounts:fields\",\"toPort\":\"source:Accounts:minimumDue:\",\"visible\":true,\"common\":false,\"__gohashid\":69906},{\"from\":\"source:Accounts:fields\",\"to\":\"source:Accounts:nickName:\",\"fromPort\":\"source:Accounts:fields\",\"toPort\":\"source:Accounts:nickName:\",\"visible\":true,\"common\":false,\"__gohashid\":69907},{\"from\":\"source:Accounts:fields\",\"to\":\"source:Accounts:openingDate:\",\"fromPort\":\"source:Accounts:fields\",\"toPort\":\"source:Accounts:openingDate:\",\"visible\":true,\"common\":false,\"__gohashid\":69908},{\"from\":\"source:Accounts:fields\",\"to\":\"source:Accounts:originalAmount:\",\"fromPort\":\"source:Accounts:fields\",\"toPort\":\"source:Accounts:originalAmount:\",\"visible\":true,\"common\":false,\"__gohashid\":69909},{\"from\":\"source:Accounts:fields\",\"to\":\"source:Accounts:outstandingBalance:\",\"fromPort\":\"source:Accounts:fields\",\"toPort\":\"source:Accounts:outstandingBalance:\",\"visible\":true,\"common\":false,\"__gohashid\":69910},{\"from\":\"source:Accounts:fields\",\"to\":\"source:Accounts:paymentDue:\",\"fromPort\":\"source:Accounts:fields\",\"toPort\":\"source:Accounts:paymentDue:\",\"visible\":true,\"common\":false,\"__gohashid\":69911},{\"from\":\"source:Accounts:fields\",\"to\":\"source:Accounts:paymentMethod:\",\"fromPort\":\"source:Accounts:fields\",\"toPort\":\"source:Accounts:paymentMethod:\",\"visible\":true,\"common\":false,\"__gohashid\":69912},{\"from\":\"source:Accounts:fields\",\"to\":\"source:Accounts:paymentTerm:\",\"fromPort\":\"source:Accounts:fields\",\"toPort\":\"source:Accounts:paymentTerm:\",\"visible\":true,\"common\":false,\"__gohashid\":69913},{\"from\":\"source:Accounts:fields\",\"to\":\"source:Accounts:payoffAmount:\",\"fromPort\":\"source:Accounts:fields\",\"toPort\":\"source:Accounts:payoffAmount:\",\"visible\":true,\"common\":false,\"__gohashid\":69914},{\"from\":\"source:Accounts:fields\",\"to\":\"source:Accounts:payOffCharge:\",\"fromPort\":\"source:Accounts:fields\",\"toPort\":\"source:Accounts:payOffCharge:\",\"visible\":true,\"common\":false,\"__gohashid\":69915},{\"from\":\"source:Accounts:fields\",\"to\":\"source:Accounts:pendingDeposit:\",\"fromPort\":\"source:Accounts:fields\",\"toPort\":\"source:Accounts:pendingDeposit:\",\"visible\":true,\"common\":false,\"__gohashid\":69916},{\"from\":\"source:Accounts:fields\",\"to\":\"source:Accounts:pendingWithdrawal:\",\"fromPort\":\"source:Accounts:fields\",\"toPort\":\"source:Accounts:pendingWithdrawal:\",\"visible\":true,\"common\":false,\"__gohashid\":69917},{\"from\":\"source:Accounts:fields\",\"to\":\"source:Accounts:phoneId:\",\"fromPort\":\"source:Accounts:fields\",\"toPort\":\"source:Accounts:phoneId:\",\"visible\":true,\"common\":false,\"__gohashid\":69918},{\"from\":\"source:Accounts:fields\",\"to\":\"source:Accounts:previousYearDividend:\",\"fromPort\":\"source:Accounts:fields\",\"toPort\":\"source:Accounts:previousYearDividend:\",\"visible\":true,\"common\":false,\"__gohashid\":69919},{\"from\":\"source:Accounts:fields\",\"to\":\"source:Accounts:previousYearsDividends:\",\"fromPort\":\"source:Accounts:fields\",\"toPort\":\"source:Accounts:previousYearsDividends:\",\"visible\":true,\"common\":false,\"__gohashid\":69920},{\"from\":\"source:Accounts:fields\",\"to\":\"source:Accounts:principalBalance:\",\"fromPort\":\"source:Accounts:fields\",\"toPort\":\"source:Accounts:principalBalance:\",\"visible\":true,\"common\":false,\"__gohashid\":69921},{\"from\":\"source:Accounts:fields\",\"to\":\"source:Accounts:principalValue:\",\"fromPort\":\"source:Accounts:fields\",\"toPort\":\"source:Accounts:principalValue:\",\"visible\":true,\"common\":false,\"__gohashid\":69922},{\"from\":\"source:Accounts:fields\",\"to\":\"source:Accounts:regularPaymentAmount:\",\"fromPort\":\"source:Accounts:fields\",\"toPort\":\"source:Accounts:regularPaymentAmount:\",\"visible\":true,\"common\":false,\"__gohashid\":69923},{\"from\":\"source:Accounts:fields\",\"to\":\"source:Accounts:routingNumber:\",\"fromPort\":\"source:Accounts:fields\",\"toPort\":\"source:Accounts:routingNumber:\",\"visible\":true,\"common\":false,\"__gohashid\":69924},{\"from\":\"source:Accounts:fields\",\"to\":\"source:Accounts:success:\",\"fromPort\":\"source:Accounts:fields\",\"toPort\":\"source:Accounts:success:\",\"visible\":true,\"common\":false,\"__gohashid\":69925},{\"from\":\"source:Accounts:fields\",\"to\":\"source:Accounts:supportBillPay:\",\"fromPort\":\"source:Accounts:fields\",\"toPort\":\"source:Accounts:supportBillPay:\",\"visible\":true,\"common\":false,\"__gohashid\":69926},{\"from\":\"source:Accounts:fields\",\"to\":\"source:Accounts:supportCardlessCash:\",\"fromPort\":\"source:Accounts:fields\",\"toPort\":\"source:Accounts:supportCardlessCash:\",\"visible\":true,\"common\":false,\"__gohashid\":69927},{\"from\":\"source:Accounts:fields\",\"to\":\"source:Accounts:supportDeposit:\",\"fromPort\":\"source:Accounts:fields\",\"toPort\":\"source:Accounts:supportDeposit:\",\"visible\":true,\"common\":false,\"__gohashid\":69928},{\"from\":\"source:Accounts:fields\",\"to\":\"source:Accounts:supportTransferFrom:\",\"fromPort\":\"source:Accounts:fields\",\"toPort\":\"source:Accounts:supportTransferFrom:\",\"visible\":true,\"common\":false,\"__gohashid\":69929},{\"from\":\"source:Accounts:fields\",\"to\":\"source:Accounts:supportTransferTo:\",\"fromPort\":\"source:Accounts:fields\",\"toPort\":\"source:Accounts:supportTransferTo:\",\"visible\":true,\"common\":false,\"__gohashid\":69930},{\"from\":\"source:Accounts:fields\",\"to\":\"source:Accounts:swiftCode:\",\"fromPort\":\"source:Accounts:fields\",\"toPort\":\"source:Accounts:swiftCode:\",\"visible\":true,\"common\":false,\"__gohashid\":69931},{\"from\":\"source:Accounts:fields\",\"to\":\"source:Accounts:totalCreditMonths:\",\"fromPort\":\"source:Accounts:fields\",\"toPort\":\"source:Accounts:totalCreditMonths:\",\"visible\":true,\"common\":false,\"__gohashid\":69932},{\"from\":\"source:Accounts:fields\",\"to\":\"source:Accounts:totalDebitsMonth:\",\"fromPort\":\"source:Accounts:fields\",\"toPort\":\"source:Accounts:totalDebitsMonth:\",\"visible\":true,\"common\":false,\"__gohashid\":69933},{\"from\":\"source:Accounts:fields\",\"to\":\"source:Accounts:transactionLimit:\",\"fromPort\":\"source:Accounts:fields\",\"toPort\":\"source:Accounts:transactionLimit:\",\"visible\":true,\"common\":false,\"__gohashid\":69934},{\"from\":\"source:Accounts:fields\",\"to\":\"source:Accounts:transferLimit:\",\"fromPort\":\"source:Accounts:fields\",\"toPort\":\"source:Accounts:transferLimit:\",\"visible\":true,\"common\":false,\"__gohashid\":69935},{\"from\":\"source:Accounts:fields\",\"to\":\"source:Accounts:unpaidInterest:\",\"fromPort\":\"source:Accounts:fields\",\"toPort\":\"source:Accounts:unpaidInterest:\",\"visible\":true,\"common\":false,\"__gohashid\":69936},{\"from\":\"source:Accounts:fields\",\"to\":\"source:Accounts:userName:\",\"fromPort\":\"source:Accounts:fields\",\"toPort\":\"source:Accounts:userName:\",\"visible\":true,\"common\":false,\"__gohashid\":69937},{\"from\":\"source:Accounts:fields\",\"to\":\"source:Accounts:email:\",\"fromPort\":\"source:Accounts:fields\",\"toPort\":\"source:Accounts:email:\",\"visible\":true,\"common\":false,\"__gohashid\":69938},{\"from\":\"source:Accounts:fields\",\"to\":\"source:Accounts:jointAccountHolder1:\",\"fromPort\":\"source:Accounts:fields\",\"toPort\":\"source:Accounts:jointAccountHolder1:\",\"visible\":true,\"common\":false,\"__gohashid\":69939},{\"from\":\"source:Accounts:fields\",\"to\":\"source:Accounts:jointAccountHolder2:\",\"fromPort\":\"source:Accounts:fields\",\"toPort\":\"source:Accounts:jointAccountHolder2:\",\"visible\":true,\"common\":false,\"__gohashid\":69940},{\"from\":\"source:Accounts:fields\",\"to\":\"source:Accounts:bankAddress:\",\"fromPort\":\"source:Accounts:fields\",\"toPort\":\"source:Accounts:bankAddress:\",\"visible\":true,\"common\":false,\"__gohashid\":69941},{\"from\":\"source:Accounts:fields\",\"to\":\"source:Accounts:intermediaryBankName:\",\"fromPort\":\"source:Accounts:fields\",\"toPort\":\"source:Accounts:intermediaryBankName:\",\"visible\":true,\"common\":false,\"__gohashid\":69942},{\"from\":\"source:Accounts:fields\",\"to\":\"source:Accounts:intermediaryBankAddress:\",\"fromPort\":\"source:Accounts:fields\",\"toPort\":\"source:Accounts:intermediaryBankAddress:\",\"visible\":true,\"common\":false,\"__gohashid\":69943},{\"from\":\"source:Accounts:fields\",\"to\":\"source:Accounts:intermediaryBankSwiftCode:\",\"fromPort\":\"source:Accounts:fields\",\"toPort\":\"source:Accounts:intermediaryBankSwiftCode:\",\"visible\":true,\"common\":false,\"__gohashid\":69944},{\"from\":\"source:Accounts:fields\",\"to\":\"source:Accounts:StatusDesc:\",\"fromPort\":\"source:Accounts:fields\",\"toPort\":\"source:Accounts:StatusDesc:\",\"visible\":true,\"common\":false,\"__gohashid\":69945},{\"from\":\"source:Accounts:fields\",\"to\":\"source:Accounts:supportChecks:\",\"fromPort\":\"source:Accounts:fields\",\"toPort\":\"source:Accounts:supportChecks:\",\"visible\":true,\"common\":false,\"__gohashid\":69946},{\"from\":\"source:Accounts:fields\",\"to\":\"source:Accounts:serviceName:\",\"fromPort\":\"source:Accounts:fields\",\"toPort\":\"source:Accounts:serviceName:\",\"visible\":true,\"common\":false,\"__gohashid\":69947},{\"from\":\"source:Accounts:fields\",\"to\":\"source:Accounts:productLi:\",\"fromPort\":\"source:Accounts:fields\",\"toPort\":\"source:Accounts:productLi:\",\"visible\":true,\"common\":false,\"__gohashid\":69948},{\"from\":\"source:Accounts:fields\",\"to\":\"source:Accounts:phone:\",\"fromPort\":\"source:Accounts:fields\",\"toPort\":\"source:Accounts:phone:\",\"visible\":true,\"common\":false,\"__gohashid\":69949},{\"from\":\"source:Accounts:fields\",\"to\":\"source:Accounts:accountSubType:\",\"fromPort\":\"source:Accounts:fields\",\"toPort\":\"source:Accounts:accountSubType:\",\"visible\":true,\"common\":false,\"__gohashid\":69950},{\"from\":\"source:Accounts:fields\",\"to\":\"source:Accounts:description:\",\"fromPort\":\"source:Accounts:fields\",\"toPort\":\"source:Accounts:description:\",\"visible\":true,\"common\":false,\"__gohashid\":69951},{\"from\":\"source:Accounts:fields\",\"to\":\"source:Accounts:schemeName:\",\"fromPort\":\"source:Accounts:fields\",\"toPort\":\"source:Accounts:schemeName:\",\"visible\":true,\"common\":false,\"__gohashid\":69952},{\"from\":\"source:Accounts:fields\",\"to\":\"source:Accounts:identification:\",\"fromPort\":\"source:Accounts:fields\",\"toPort\":\"source:Accounts:identification:\",\"visible\":true,\"common\":false,\"__gohashid\":69953},{\"from\":\"source:Accounts:fields\",\"to\":\"source:Accounts:secondaryIdentification:\",\"fromPort\":\"source:Accounts:fields\",\"toPort\":\"source:Accounts:secondaryIdentification:\",\"visible\":true,\"common\":false,\"__gohashid\":69954},{\"from\":\"source:Accounts:fields\",\"to\":\"source:Accounts:servicerSchemeName:\",\"fromPort\":\"source:Accounts:fields\",\"toPort\":\"source:Accounts:servicerSchemeName:\",\"visible\":true,\"common\":false,\"__gohashid\":69955},{\"from\":\"source:Accounts:fields\",\"to\":\"source:Accounts:servicerIdentification:\",\"fromPort\":\"source:Accounts:fields\",\"toPort\":\"source:Accounts:servicerIdentification:\",\"visible\":true,\"common\":false,\"__gohashid\":69956},{\"from\":\"source:Accounts:fields\",\"to\":\"source:Accounts:dataCreditDebitIndicator:\",\"fromPort\":\"source:Accounts:fields\",\"toPort\":\"source:Accounts:dataCreditDebitIndicator:\",\"visible\":true,\"common\":false,\"__gohashid\":69957},{\"from\":\"source:Accounts:fields\",\"to\":\"source:Accounts:dataType:\",\"fromPort\":\"source:Accounts:fields\",\"toPort\":\"source:Accounts:dataType:\",\"visible\":true,\"common\":false,\"__gohashid\":69958},{\"from\":\"source:Accounts:fields\",\"to\":\"source:Accounts:dataDateTime:\",\"fromPort\":\"source:Accounts:fields\",\"toPort\":\"source:Accounts:dataDateTime:\",\"visible\":true,\"common\":false,\"__gohashid\":69959},{\"from\":\"source:Accounts:fields\",\"to\":\"source:Accounts:dataCreditLineIncluded:\",\"fromPort\":\"source:Accounts:fields\",\"toPort\":\"source:Accounts:dataCreditLineIncluded:\",\"visible\":true,\"common\":false,\"__gohashid\":69960},{\"from\":\"source:Accounts:fields\",\"to\":\"source:Accounts:dataCreditLineType:\",\"fromPort\":\"source:Accounts:fields\",\"toPort\":\"source:Accounts:dataCreditLineType:\",\"visible\":true,\"common\":false,\"__gohashid\":69961},{\"from\":\"source:Accounts:fields\",\"to\":\"source:Accounts:dataCreditLineAmount:\",\"fromPort\":\"source:Accounts:fields\",\"toPort\":\"source:Accounts:dataCreditLineAmount:\",\"visible\":true,\"common\":false,\"__gohashid\":69962},{\"from\":\"source:Accounts:fields\",\"to\":\"source:Accounts:dataCreditLineCurrency:\",\"fromPort\":\"source:Accounts:fields\",\"toPort\":\"source:Accounts:dataCreditLineCurrency:\",\"visible\":true,\"common\":false,\"__gohashid\":69963},{\"from\":\"source:Accounts:fields\",\"to\":\"source:Accounts:IBAN:\",\"fromPort\":\"source:Accounts:fields\",\"toPort\":\"source:Accounts:IBAN:\",\"visible\":true,\"common\":false,\"__gohashid\":69964},{\"from\":\"source:Accounts:fields\",\"to\":\"source:Accounts:displayName:\",\"fromPort\":\"source:Accounts:fields\",\"toPort\":\"source:Accounts:displayName:\",\"visible\":true,\"common\":false,\"__gohashid\":69965},{\"from\":\"source:Accounts:fields\",\"to\":\"source:Accounts:Account_id:\",\"fromPort\":\"source:Accounts:fields\",\"toPort\":\"source:Accounts:Account_id:\",\"visible\":true,\"common\":false,\"__gohashid\":69966},{\"from\":\"source:Accounts:fields\",\"to\":\"source:Accounts:Organization_Id:\",\"fromPort\":\"source:Accounts:fields\",\"toPort\":\"source:Accounts:Organization_Id:\",\"visible\":true,\"common\":false,\"__gohashid\":69967},{\"from\":\"source:Accounts:fields\",\"to\":\"source:Accounts:Account_Type:\",\"fromPort\":\"source:Accounts:fields\",\"toPort\":\"source:Accounts:Account_Type:\",\"visible\":true,\"common\":false,\"__gohashid\":69968},{\"from\":\"source:Accounts:fields\",\"to\":\"source:Accounts:Customer_id:\",\"fromPort\":\"source:Accounts:fields\",\"toPort\":\"source:Accounts:Customer_id:\",\"visible\":true,\"common\":false,\"__gohashid\":69969},{\"from\":\"source:Accounts:fields\",\"to\":\"source:Accounts:Membership_id:\",\"fromPort\":\"source:Accounts:fields\",\"toPort\":\"source:Accounts:Membership_id:\",\"visible\":true,\"common\":false,\"__gohashid\":69970},{\"from\":\"source:Accounts:fields\",\"to\":\"source:Accounts:Taxid:\",\"fromPort\":\"source:Accounts:fields\",\"toPort\":\"source:Accounts:Taxid:\",\"visible\":true,\"common\":false,\"__gohashid\":69971},{\"from\":\"source:Accounts:fields\",\"to\":\"source:Accounts:CustomerType:\",\"fromPort\":\"source:Accounts:fields\",\"toPort\":\"source:Accounts:CustomerType:\",\"visible\":true,\"common\":false,\"__gohashid\":69972},{\"from\":\"source:Accounts:fields\",\"to\":\"source:Accounts:Ssn:\",\"fromPort\":\"source:Accounts:fields\",\"toPort\":\"source:Accounts:Ssn:\",\"visible\":true,\"common\":false,\"__gohashid\":69973},{\"from\":\"source:Accounts:fields\",\"to\":\"source:Accounts:Status:\",\"fromPort\":\"source:Accounts:fields\",\"toPort\":\"source:Accounts:Status:\",\"visible\":true,\"common\":false,\"__gohashid\":69974},{\"from\":\"source:Accounts:fields\",\"to\":\"source:Accounts:searchString:\",\"fromPort\":\"source:Accounts:fields\",\"toPort\":\"source:Accounts:searchString:\",\"visible\":true,\"common\":false,\"__gohashid\":69975},{\"from\":\"source:Accounts:fields\",\"to\":\"source:Accounts:Ownership:\",\"fromPort\":\"source:Accounts:fields\",\"toPort\":\"source:Accounts:Ownership:\",\"visible\":true,\"common\":false,\"__gohashid\":69976},{\"from\":\"source:Accounts:fields\",\"to\":\"source:Accounts:LastUpdated:\",\"fromPort\":\"source:Accounts:fields\",\"toPort\":\"source:Accounts:LastUpdated:\",\"visible\":true,\"common\":false,\"__gohashid\":69977},{\"from\":\"source:Accounts:fields\",\"to\":\"source:Accounts:ActualUpdatedBY:\",\"fromPort\":\"source:Accounts:fields\",\"toPort\":\"source:Accounts:ActualUpdatedBY:\",\"visible\":true,\"common\":false,\"__gohashid\":69978},{\"from\":\"source:Accounts:fields\",\"to\":\"source:Accounts:UpdatedBy:\",\"fromPort\":\"source:Accounts:fields\",\"toPort\":\"source:Accounts:UpdatedBy:\",\"visible\":true,\"common\":false,\"__gohashid\":69979},{\"from\":\"source:Accounts:fields\",\"to\":\"source:Accounts:userId:\",\"fromPort\":\"source:Accounts:fields\",\"toPort\":\"source:Accounts:userId:\",\"visible\":true,\"common\":false,\"__gohashid\":69980},{\"from\":\"source:Accounts:fields\",\"to\":\"source:Accounts:address:\",\"fromPort\":\"source:Accounts:fields\",\"toPort\":\"source:Accounts:address:\",\"visible\":true,\"common\":false,\"__gohashid\":69981},{\"from\":\"source:Accounts:fields\",\"to\":\"source:Accounts:dateOfBirth:\",\"fromPort\":\"source:Accounts:fields\",\"toPort\":\"source:Accounts:dateOfBirth:\",\"visible\":true,\"common\":false,\"__gohashid\":69982},{\"from\":\"source:Accounts:fields\",\"to\":\"source:Accounts:firstName:\",\"fromPort\":\"source:Accounts:fields\",\"toPort\":\"source:Accounts:firstName:\",\"visible\":true,\"common\":false,\"__gohashid\":69983},{\"from\":\"source:Accounts:fields\",\"to\":\"source:Accounts:lastName:\",\"fromPort\":\"source:Accounts:fields\",\"toPort\":\"source:Accounts:lastName:\",\"visible\":true,\"common\":false,\"__gohashid\":69984},{\"from\":\"source:Accounts:fields\",\"to\":\"source:Accounts:stateId:\",\"fromPort\":\"source:Accounts:fields\",\"toPort\":\"source:Accounts:stateId:\",\"visible\":true,\"common\":false,\"__gohashid\":69985},{\"from\":\"source:Accounts:fields\",\"to\":\"source:Accounts:productId:\",\"fromPort\":\"source:Accounts:fields\",\"toPort\":\"source:Accounts:productId:\",\"visible\":true,\"common\":false,\"__gohashid\":69986},{\"from\":\"source:Accounts:fields\",\"to\":\"source:Accounts:payingAccount:\",\"fromPort\":\"source:Accounts:fields\",\"toPort\":\"source:Accounts:payingAccount:\",\"visible\":true,\"common\":false,\"__gohashid\":69987},{\"from\":\"source:Accounts:fields\",\"to\":\"source:Accounts:payoutAccount:\",\"fromPort\":\"source:Accounts:fields\",\"toPort\":\"source:Accounts:payoutAccount:\",\"visible\":true,\"common\":false,\"__gohashid\":69988},{\"from\":\"source:Accounts:fields\",\"to\":\"source:Accounts:amount:\",\"fromPort\":\"source:Accounts:fields\",\"toPort\":\"source:Accounts:amount:\",\"visible\":true,\"common\":false,\"__gohashid\":69989},{\"from\":\"source:Accounts:fields\",\"to\":\"source:Accounts:duration:\",\"fromPort\":\"source:Accounts:fields\",\"toPort\":\"source:Accounts:duration:\",\"visible\":true,\"common\":false,\"__gohashid\":69990},{\"from\":\"target\",\"to\":\"target:parameters\",\"fromPort\":\"target\",\"toPort\":\"target:parameters\",\"visible\":true,\"common\":false,\"__gohashid\":69991},{\"from\":\"target:parameters\",\"to\":\"target:AccountNumber:\",\"fromPort\":\"target:parameters\",\"toPort\":\"target:AccountNumber:\",\"visible\":true,\"common\":false,\"__gohashid\":69992},{\"from\":\"target:parameters\",\"to\":\"target:AccountType:\",\"fromPort\":\"target:parameters\",\"toPort\":\"target:AccountType:\",\"visible\":true,\"common\":false,\"__gohashid\":69993},{\"from\":\"target:parameters\",\"to\":\"target:CoreType:\",\"fromPort\":\"target:parameters\",\"toPort\":\"target:CoreType:\",\"visible\":true,\"common\":false,\"__gohashid\":69994},{\"from\":\"target:parameters\",\"to\":\"target:NoteNumber:\",\"fromPort\":\"target:parameters\",\"toPort\":\"target:NoteNumber:\",\"visible\":true,\"common\":false,\"__gohashid\":69995}],\"blockCount\":{\"variableCount\":0},\"variableMap\":{},\"xmlMappingOverride\":true}",
    "oVisualMappingData" : "{\"nodeDataArray\":[{\"isGroup\":true,\"key\":\"response_out\",\"text\":\"Accounts\",\"xy\":\"770 100\",\"__gohashid\":82566},{\"isGroup\":true,\"key\":\"response_in\",\"text\":\"BankUmpquaOrch (1.0).getAccountDetails\",\"xy\":\"150 100\",\"__gohashid\":82567}],\"linkDataArray\":[{\"from\":\"target\",\"to\":\"target:Accounts\",\"fromPort\":\"target\",\"toPort\":\"target:Accounts\",\"visible\":true,\"common\":false,\"__gohashid\":1589},{\"from\":\"target:Accounts\",\"to\":\"target:Accounts:fields\",\"fromPort\":\"target:Accounts\",\"toPort\":\"target:Accounts:fields\",\"visible\":true,\"common\":false,\"__gohashid\":1590},{\"from\":\"target:Accounts:fields\",\"to\":\"target:Accounts:accountHolder:\",\"fromPort\":\"target:Accounts:fields\",\"toPort\":\"target:Accounts:accountHolder:\",\"visible\":true,\"common\":false,\"__gohashid\":1591},{\"from\":\"target:Accounts:fields\",\"to\":\"target:Accounts:accountID:\",\"fromPort\":\"target:Accounts:fields\",\"toPort\":\"target:Accounts:accountID:\",\"visible\":true,\"common\":false,\"__gohashid\":1592},{\"from\":\"target:Accounts:fields\",\"to\":\"target:Accounts:accountli:\",\"fromPort\":\"target:Accounts:fields\",\"toPort\":\"target:Accounts:accountli:\",\"visible\":true,\"common\":false,\"__gohashid\":1593},{\"from\":\"target:Accounts:fields\",\"to\":\"target:Accounts:accountName:\",\"fromPort\":\"target:Accounts:fields\",\"toPort\":\"target:Accounts:accountName:\",\"visible\":true,\"common\":false,\"__gohashid\":1594},{\"from\":\"target:Accounts:fields\",\"to\":\"target:Accounts:accountPreference:\",\"fromPort\":\"target:Accounts:fields\",\"toPort\":\"target:Accounts:accountPreference:\",\"visible\":true,\"common\":false,\"__gohashid\":1595},{\"from\":\"target:Accounts:fields\",\"to\":\"target:Accounts:accountType:\",\"fromPort\":\"target:Accounts:fields\",\"toPort\":\"target:Accounts:accountType:\",\"visible\":true,\"common\":false,\"__gohashid\":1596},{\"from\":\"target:Accounts:fields\",\"to\":\"target:Accounts:availableBalance:\",\"fromPort\":\"target:Accounts:fields\",\"toPort\":\"target:Accounts:availableBalance:\",\"visible\":true,\"common\":false,\"__gohashid\":1597},{\"from\":\"target:Accounts:fields\",\"to\":\"target:Accounts:availableCredit:\",\"fromPort\":\"target:Accounts:fields\",\"toPort\":\"target:Accounts:availableCredit:\",\"visible\":true,\"common\":false,\"__gohashid\":1598},{\"from\":\"target:Accounts:fields\",\"to\":\"target:Accounts:availablePoints:\",\"fromPort\":\"target:Accounts:fields\",\"toPort\":\"target:Accounts:availablePoints:\",\"visible\":true,\"common\":false,\"__gohashid\":1599},{\"from\":\"target:Accounts:fields\",\"to\":\"target:Accounts:bankName:\",\"fromPort\":\"target:Accounts:fields\",\"toPort\":\"target:Accounts:bankName:\",\"visible\":true,\"common\":false,\"__gohashid\":1600},{\"from\":\"target:Accounts:fields\",\"to\":\"target:Accounts:bondInterest:\",\"fromPort\":\"target:Accounts:fields\",\"toPort\":\"target:Accounts:bondInterest:\",\"visible\":true,\"common\":false,\"__gohashid\":1601},{\"from\":\"target:Accounts:fields\",\"to\":\"target:Accounts:bondInterestLastYear:\",\"fromPort\":\"target:Accounts:fields\",\"toPort\":\"target:Accounts:bondInterestLastYear:\",\"visible\":true,\"common\":false,\"__gohashid\":1602},{\"from\":\"target:Accounts:fields\",\"to\":\"target:Accounts:bsbNum:\",\"fromPort\":\"target:Accounts:fields\",\"toPort\":\"target:Accounts:bsbNum:\",\"visible\":true,\"common\":false,\"__gohashid\":1603},{\"from\":\"target:Accounts:fields\",\"to\":\"target:Accounts:closingDate:\",\"fromPort\":\"target:Accounts:fields\",\"toPort\":\"target:Accounts:closingDate:\",\"visible\":true,\"common\":false,\"__gohashid\":1604},{\"from\":\"target:Accounts:fields\",\"to\":\"target:Accounts:creditCardNumber:\",\"fromPort\":\"target:Accounts:fields\",\"toPort\":\"target:Accounts:creditCardNumber:\",\"visible\":true,\"common\":false,\"__gohashid\":1605},{\"from\":\"target:Accounts:fields\",\"to\":\"target:Accounts:creditLimit:\",\"fromPort\":\"target:Accounts:fields\",\"toPort\":\"target:Accounts:creditLimit:\",\"visible\":true,\"common\":false,\"__gohashid\":1606},{\"from\":\"target:Accounts:fields\",\"to\":\"target:Accounts:currencyCode:\",\"fromPort\":\"target:Accounts:fields\",\"toPort\":\"target:Accounts:currencyCode:\",\"visible\":true,\"common\":false,\"__gohashid\":1607},{\"from\":\"target:Accounts:fields\",\"to\":\"target:Accounts:currentAmountDue:\",\"fromPort\":\"target:Accounts:fields\",\"toPort\":\"target:Accounts:currentAmountDue:\",\"visible\":true,\"common\":false,\"__gohashid\":1608},{\"from\":\"target:Accounts:fields\",\"to\":\"target:Accounts:currentBalance:\",\"fromPort\":\"target:Accounts:fields\",\"toPort\":\"target:Accounts:currentBalance:\",\"visible\":true,\"common\":false,\"__gohashid\":1609},{\"from\":\"target:Accounts:fields\",\"to\":\"target:Accounts:deviceID:\",\"fromPort\":\"target:Accounts:fields\",\"toPort\":\"target:Accounts:deviceID:\",\"visible\":true,\"common\":false,\"__gohashid\":1610},{\"from\":\"target:Accounts:fields\",\"to\":\"target:Accounts:dividendLastPaidAmount:\",\"fromPort\":\"target:Accounts:fields\",\"toPort\":\"target:Accounts:dividendLastPaidAmount:\",\"visible\":true,\"common\":false,\"__gohashid\":1611},{\"from\":\"target:Accounts:fields\",\"to\":\"target:Accounts:dividendLastPaidDate:\",\"fromPort\":\"target:Accounts:fields\",\"toPort\":\"target:Accounts:dividendLastPaidDate:\",\"visible\":true,\"common\":false,\"__gohashid\":1612},{\"from\":\"target:Accounts:fields\",\"to\":\"target:Accounts:dividendPaidYTD:\",\"fromPort\":\"target:Accounts:fields\",\"toPort\":\"target:Accounts:dividendPaidYTD:\",\"visible\":true,\"common\":false,\"__gohashid\":1613},{\"from\":\"target:Accounts:fields\",\"to\":\"target:Accounts:dividendRate:\",\"fromPort\":\"target:Accounts:fields\",\"toPort\":\"target:Accounts:dividendRate:\",\"visible\":true,\"common\":false,\"__gohashid\":1614},{\"from\":\"target:Accounts:fields\",\"to\":\"target:Accounts:dividendYTD:\",\"fromPort\":\"target:Accounts:fields\",\"toPort\":\"target:Accounts:dividendYTD:\",\"visible\":true,\"common\":false,\"__gohashid\":1615},{\"from\":\"target:Accounts:fields\",\"to\":\"target:Accounts:dueDate:\",\"fromPort\":\"target:Accounts:fields\",\"toPort\":\"target:Accounts:dueDate:\",\"visible\":true,\"common\":false,\"__gohashid\":1616},{\"from\":\"target:Accounts:fields\",\"to\":\"target:Accounts:errmsg:\",\"fromPort\":\"target:Accounts:fields\",\"toPort\":\"target:Accounts:errmsg:\",\"visible\":true,\"common\":false,\"__gohashid\":1617},{\"from\":\"target:Accounts:fields\",\"to\":\"target:Accounts:eStatementEnable:\",\"fromPort\":\"target:Accounts:fields\",\"toPort\":\"target:Accounts:eStatementEnable:\",\"visible\":true,\"common\":false,\"__gohashid\":1618},{\"from\":\"target:Accounts:fields\",\"to\":\"target:Accounts:favouriteStatus:\",\"fromPort\":\"target:Accounts:fields\",\"toPort\":\"target:Accounts:favouriteStatus:\",\"visible\":true,\"common\":false,\"__gohashid\":1619},{\"from\":\"target:Accounts:fields\",\"to\":\"target:Accounts:interestEarned:\",\"fromPort\":\"target:Accounts:fields\",\"toPort\":\"target:Accounts:interestEarned:\",\"visible\":true,\"common\":false,\"__gohashid\":1620},{\"from\":\"target:Accounts:fields\",\"to\":\"target:Accounts:interestPaidLastYear:\",\"fromPort\":\"target:Accounts:fields\",\"toPort\":\"target:Accounts:interestPaidLastYear:\",\"visible\":true,\"common\":false,\"__gohashid\":1621},{\"from\":\"target:Accounts:fields\",\"to\":\"target:Accounts:interestPaidPreviousYTD:\",\"fromPort\":\"target:Accounts:fields\",\"toPort\":\"target:Accounts:interestPaidPreviousYTD:\",\"visible\":true,\"common\":false,\"__gohashid\":1622},{\"from\":\"target:Accounts:fields\",\"to\":\"target:Accounts:interestPaidYTD:\",\"fromPort\":\"target:Accounts:fields\",\"toPort\":\"target:Accounts:interestPaidYTD:\",\"visible\":true,\"common\":false,\"__gohashid\":1623},{\"from\":\"target:Accounts:fields\",\"to\":\"target:Accounts:interestRate:\",\"fromPort\":\"target:Accounts:fields\",\"toPort\":\"target:Accounts:interestRate:\",\"visible\":true,\"common\":false,\"__gohashid\":1624},{\"from\":\"target:Accounts:fields\",\"to\":\"target:Accounts:isInternationalAccount:\",\"fromPort\":\"target:Accounts:fields\",\"toPort\":\"target:Accounts:isInternationalAccount:\",\"visible\":true,\"common\":false,\"__gohashid\":1625},{\"from\":\"target:Accounts:fields\",\"to\":\"target:Accounts:isPFM:\",\"fromPort\":\"target:Accounts:fields\",\"toPort\":\"target:Accounts:isPFM:\",\"visible\":true,\"common\":false,\"__gohashid\":1626},{\"from\":\"target:Accounts:fields\",\"to\":\"target:Accounts:jointHolders:\",\"fromPort\":\"target:Accounts:fields\",\"toPort\":\"target:Accounts:jointHolders:\",\"visible\":true,\"common\":false,\"__gohashid\":1627},{\"from\":\"target:Accounts:fields\",\"to\":\"target:Accounts:lastDividendPaidAmount:\",\"fromPort\":\"target:Accounts:fields\",\"toPort\":\"target:Accounts:lastDividendPaidAmount:\",\"visible\":true,\"common\":false,\"__gohashid\":1628},{\"from\":\"target:Accounts:fields\",\"to\":\"target:Accounts:lastDividendPaidDate:\",\"fromPort\":\"target:Accounts:fields\",\"toPort\":\"target:Accounts:lastDividendPaidDate:\",\"visible\":true,\"common\":false,\"__gohashid\":1629},{\"from\":\"target:Accounts:fields\",\"to\":\"target:Accounts:lastPaymentAmount:\",\"fromPort\":\"target:Accounts:fields\",\"toPort\":\"target:Accounts:lastPaymentAmount:\",\"visible\":true,\"common\":false,\"__gohashid\":1630},{\"from\":\"target:Accounts:fields\",\"to\":\"target:Accounts:lastPaymentDate:\",\"fromPort\":\"target:Accounts:fields\",\"toPort\":\"target:Accounts:lastPaymentDate:\",\"visible\":true,\"common\":false,\"__gohashid\":1631},{\"from\":\"target:Accounts:fields\",\"to\":\"target:Accounts:lastStatementBalance:\",\"fromPort\":\"target:Accounts:fields\",\"toPort\":\"target:Accounts:lastStatementBalance:\",\"visible\":true,\"common\":false,\"__gohashid\":1632},{\"from\":\"target:Accounts:fields\",\"to\":\"target:Accounts:lateFeesDue:\",\"fromPort\":\"target:Accounts:fields\",\"toPort\":\"target:Accounts:lateFeesDue:\",\"visible\":true,\"common\":false,\"__gohashid\":1633},{\"from\":\"target:Accounts:fields\",\"to\":\"target:Accounts:maturityAmount:\",\"fromPort\":\"target:Accounts:fields\",\"toPort\":\"target:Accounts:maturityAmount:\",\"visible\":true,\"common\":false,\"__gohashid\":1634},{\"from\":\"target:Accounts:fields\",\"to\":\"target:Accounts:maturityDate:\",\"fromPort\":\"target:Accounts:fields\",\"toPort\":\"target:Accounts:maturityDate:\",\"visible\":true,\"common\":false,\"__gohashid\":1635},{\"from\":\"target:Accounts:fields\",\"to\":\"target:Accounts:maturityOption:\",\"fromPort\":\"target:Accounts:fields\",\"toPort\":\"target:Accounts:maturityOption:\",\"visible\":true,\"common\":false,\"__gohashid\":1636},{\"from\":\"target:Accounts:fields\",\"to\":\"target:Accounts:minimumDue:\",\"fromPort\":\"target:Accounts:fields\",\"toPort\":\"target:Accounts:minimumDue:\",\"visible\":true,\"common\":false,\"__gohashid\":1637},{\"from\":\"target:Accounts:fields\",\"to\":\"target:Accounts:nickName:\",\"fromPort\":\"target:Accounts:fields\",\"toPort\":\"target:Accounts:nickName:\",\"visible\":true,\"common\":false,\"__gohashid\":1638},{\"from\":\"target:Accounts:fields\",\"to\":\"target:Accounts:openingDate:\",\"fromPort\":\"target:Accounts:fields\",\"toPort\":\"target:Accounts:openingDate:\",\"visible\":true,\"common\":false,\"__gohashid\":1639},{\"from\":\"target:Accounts:fields\",\"to\":\"target:Accounts:originalAmount:\",\"fromPort\":\"target:Accounts:fields\",\"toPort\":\"target:Accounts:originalAmount:\",\"visible\":true,\"common\":false,\"__gohashid\":1640},{\"from\":\"target:Accounts:fields\",\"to\":\"target:Accounts:outstandingBalance:\",\"fromPort\":\"target:Accounts:fields\",\"toPort\":\"target:Accounts:outstandingBalance:\",\"visible\":true,\"common\":false,\"__gohashid\":1641},{\"from\":\"target:Accounts:fields\",\"to\":\"target:Accounts:paymentDue:\",\"fromPort\":\"target:Accounts:fields\",\"toPort\":\"target:Accounts:paymentDue:\",\"visible\":true,\"common\":false,\"__gohashid\":1642},{\"from\":\"target:Accounts:fields\",\"to\":\"target:Accounts:paymentMethod:\",\"fromPort\":\"target:Accounts:fields\",\"toPort\":\"target:Accounts:paymentMethod:\",\"visible\":true,\"common\":false,\"__gohashid\":1643},{\"from\":\"target:Accounts:fields\",\"to\":\"target:Accounts:paymentTerm:\",\"fromPort\":\"target:Accounts:fields\",\"toPort\":\"target:Accounts:paymentTerm:\",\"visible\":true,\"common\":false,\"__gohashid\":1644},{\"from\":\"target:Accounts:fields\",\"to\":\"target:Accounts:payoffAmount:\",\"fromPort\":\"target:Accounts:fields\",\"toPort\":\"target:Accounts:payoffAmount:\",\"visible\":true,\"common\":false,\"__gohashid\":1645},{\"from\":\"target:Accounts:fields\",\"to\":\"target:Accounts:payOffCharge:\",\"fromPort\":\"target:Accounts:fields\",\"toPort\":\"target:Accounts:payOffCharge:\",\"visible\":true,\"common\":false,\"__gohashid\":1646},{\"from\":\"target:Accounts:fields\",\"to\":\"target:Accounts:pendingDeposit:\",\"fromPort\":\"target:Accounts:fields\",\"toPort\":\"target:Accounts:pendingDeposit:\",\"visible\":true,\"common\":false,\"__gohashid\":1647},{\"from\":\"target:Accounts:fields\",\"to\":\"target:Accounts:pendingWithdrawal:\",\"fromPort\":\"target:Accounts:fields\",\"toPort\":\"target:Accounts:pendingWithdrawal:\",\"visible\":true,\"common\":false,\"__gohashid\":1648},{\"from\":\"target:Accounts:fields\",\"to\":\"target:Accounts:phoneId:\",\"fromPort\":\"target:Accounts:fields\",\"toPort\":\"target:Accounts:phoneId:\",\"visible\":true,\"common\":false,\"__gohashid\":1649},{\"from\":\"target:Accounts:fields\",\"to\":\"target:Accounts:previousYearDividend:\",\"fromPort\":\"target:Accounts:fields\",\"toPort\":\"target:Accounts:previousYearDividend:\",\"visible\":true,\"common\":false,\"__gohashid\":1650},{\"from\":\"target:Accounts:fields\",\"to\":\"target:Accounts:previousYearsDividends:\",\"fromPort\":\"target:Accounts:fields\",\"toPort\":\"target:Accounts:previousYearsDividends:\",\"visible\":true,\"common\":false,\"__gohashid\":1651},{\"from\":\"target:Accounts:fields\",\"to\":\"target:Accounts:principalBalance:\",\"fromPort\":\"target:Accounts:fields\",\"toPort\":\"target:Accounts:principalBalance:\",\"visible\":true,\"common\":false,\"__gohashid\":1652},{\"from\":\"target:Accounts:fields\",\"to\":\"target:Accounts:principalValue:\",\"fromPort\":\"target:Accounts:fields\",\"toPort\":\"target:Accounts:principalValue:\",\"visible\":true,\"common\":false,\"__gohashid\":1653},{\"from\":\"target:Accounts:fields\",\"to\":\"target:Accounts:regularPaymentAmount:\",\"fromPort\":\"target:Accounts:fields\",\"toPort\":\"target:Accounts:regularPaymentAmount:\",\"visible\":true,\"common\":false,\"__gohashid\":1654},{\"from\":\"target:Accounts:fields\",\"to\":\"target:Accounts:routingNumber:\",\"fromPort\":\"target:Accounts:fields\",\"toPort\":\"target:Accounts:routingNumber:\",\"visible\":true,\"common\":false,\"__gohashid\":1655},{\"from\":\"target:Accounts:fields\",\"to\":\"target:Accounts:success:\",\"fromPort\":\"target:Accounts:fields\",\"toPort\":\"target:Accounts:success:\",\"visible\":true,\"common\":false,\"__gohashid\":1656},{\"from\":\"target:Accounts:fields\",\"to\":\"target:Accounts:supportBillPay:\",\"fromPort\":\"target:Accounts:fields\",\"toPort\":\"target:Accounts:supportBillPay:\",\"visible\":true,\"common\":false,\"__gohashid\":1657},{\"from\":\"target:Accounts:fields\",\"to\":\"target:Accounts:supportCardlessCash:\",\"fromPort\":\"target:Accounts:fields\",\"toPort\":\"target:Accounts:supportCardlessCash:\",\"visible\":true,\"common\":false,\"__gohashid\":1658},{\"from\":\"target:Accounts:fields\",\"to\":\"target:Accounts:supportDeposit:\",\"fromPort\":\"target:Accounts:fields\",\"toPort\":\"target:Accounts:supportDeposit:\",\"visible\":true,\"common\":false,\"__gohashid\":1659},{\"from\":\"target:Accounts:fields\",\"to\":\"target:Accounts:supportTransferFrom:\",\"fromPort\":\"target:Accounts:fields\",\"toPort\":\"target:Accounts:supportTransferFrom:\",\"visible\":true,\"common\":false,\"__gohashid\":1660},{\"from\":\"target:Accounts:fields\",\"to\":\"target:Accounts:supportTransferTo:\",\"fromPort\":\"target:Accounts:fields\",\"toPort\":\"target:Accounts:supportTransferTo:\",\"visible\":true,\"common\":false,\"__gohashid\":1661},{\"from\":\"target:Accounts:fields\",\"to\":\"target:Accounts:swiftCode:\",\"fromPort\":\"target:Accounts:fields\",\"toPort\":\"target:Accounts:swiftCode:\",\"visible\":true,\"common\":false,\"__gohashid\":1662},{\"from\":\"target:Accounts:fields\",\"to\":\"target:Accounts:totalCreditMonths:\",\"fromPort\":\"target:Accounts:fields\",\"toPort\":\"target:Accounts:totalCreditMonths:\",\"visible\":true,\"common\":false,\"__gohashid\":1663},{\"from\":\"target:Accounts:fields\",\"to\":\"target:Accounts:totalDebitsMonth:\",\"fromPort\":\"target:Accounts:fields\",\"toPort\":\"target:Accounts:totalDebitsMonth:\",\"visible\":true,\"common\":false,\"__gohashid\":1664},{\"from\":\"target:Accounts:fields\",\"to\":\"target:Accounts:transactionLimit:\",\"fromPort\":\"target:Accounts:fields\",\"toPort\":\"target:Accounts:transactionLimit:\",\"visible\":true,\"common\":false,\"__gohashid\":1665},{\"from\":\"target:Accounts:fields\",\"to\":\"target:Accounts:transferLimit:\",\"fromPort\":\"target:Accounts:fields\",\"toPort\":\"target:Accounts:transferLimit:\",\"visible\":true,\"common\":false,\"__gohashid\":1666},{\"from\":\"target:Accounts:fields\",\"to\":\"target:Accounts:unpaidInterest:\",\"fromPort\":\"target:Accounts:fields\",\"toPort\":\"target:Accounts:unpaidInterest:\",\"visible\":true,\"common\":false,\"__gohashid\":1667},{\"from\":\"target:Accounts:fields\",\"to\":\"target:Accounts:userName:\",\"fromPort\":\"target:Accounts:fields\",\"toPort\":\"target:Accounts:userName:\",\"visible\":true,\"common\":false,\"__gohashid\":1668},{\"from\":\"target:Accounts:fields\",\"to\":\"target:Accounts:email:\",\"fromPort\":\"target:Accounts:fields\",\"toPort\":\"target:Accounts:email:\",\"visible\":true,\"common\":false,\"__gohashid\":1669},{\"from\":\"target:Accounts:fields\",\"to\":\"target:Accounts:jointAccountHolder1:\",\"fromPort\":\"target:Accounts:fields\",\"toPort\":\"target:Accounts:jointAccountHolder1:\",\"visible\":true,\"common\":false,\"__gohashid\":1670},{\"from\":\"target:Accounts:fields\",\"to\":\"target:Accounts:jointAccountHolder2:\",\"fromPort\":\"target:Accounts:fields\",\"toPort\":\"target:Accounts:jointAccountHolder2:\",\"visible\":true,\"common\":false,\"__gohashid\":1671},{\"from\":\"target:Accounts:fields\",\"to\":\"target:Accounts:bankAddress:\",\"fromPort\":\"target:Accounts:fields\",\"toPort\":\"target:Accounts:bankAddress:\",\"visible\":true,\"common\":false,\"__gohashid\":1672},{\"from\":\"target:Accounts:fields\",\"to\":\"target:Accounts:intermediaryBankName:\",\"fromPort\":\"target:Accounts:fields\",\"toPort\":\"target:Accounts:intermediaryBankName:\",\"visible\":true,\"common\":false,\"__gohashid\":1673},{\"from\":\"target:Accounts:fields\",\"to\":\"target:Accounts:intermediaryBankAddress:\",\"fromPort\":\"target:Accounts:fields\",\"toPort\":\"target:Accounts:intermediaryBankAddress:\",\"visible\":true,\"common\":false,\"__gohashid\":1674},{\"from\":\"target:Accounts:fields\",\"to\":\"target:Accounts:intermediaryBankSwiftCode:\",\"fromPort\":\"target:Accounts:fields\",\"toPort\":\"target:Accounts:intermediaryBankSwiftCode:\",\"visible\":true,\"common\":false,\"__gohashid\":1675},{\"from\":\"target:Accounts:fields\",\"to\":\"target:Accounts:statusDesc:\",\"fromPort\":\"target:Accounts:fields\",\"toPort\":\"target:Accounts:statusDesc:\",\"visible\":true,\"common\":false,\"__gohashid\":1676},{\"from\":\"target:Accounts:fields\",\"to\":\"target:Accounts:supportChecks:\",\"fromPort\":\"target:Accounts:fields\",\"toPort\":\"target:Accounts:supportChecks:\",\"visible\":true,\"common\":false,\"__gohashid\":1677},{\"from\":\"target:Accounts:fields\",\"to\":\"target:Accounts:serviceName:\",\"fromPort\":\"target:Accounts:fields\",\"toPort\":\"target:Accounts:serviceName:\",\"visible\":true,\"common\":false,\"__gohashid\":1678},{\"from\":\"target:Accounts:fields\",\"to\":\"target:Accounts:productLi:\",\"fromPort\":\"target:Accounts:fields\",\"toPort\":\"target:Accounts:productLi:\",\"visible\":true,\"common\":false,\"__gohashid\":1679},{\"from\":\"target:Accounts:fields\",\"to\":\"target:Accounts:phone:\",\"fromPort\":\"target:Accounts:fields\",\"toPort\":\"target:Accounts:phone:\",\"visible\":true,\"common\":false,\"__gohashid\":1680},{\"from\":\"target:Accounts:fields\",\"to\":\"target:Accounts:accountSubType:\",\"fromPort\":\"target:Accounts:fields\",\"toPort\":\"target:Accounts:accountSubType:\",\"visible\":true,\"common\":false,\"__gohashid\":1681},{\"from\":\"target:Accounts:fields\",\"to\":\"target:Accounts:description:\",\"fromPort\":\"target:Accounts:fields\",\"toPort\":\"target:Accounts:description:\",\"visible\":true,\"common\":false,\"__gohashid\":1682},{\"from\":\"target:Accounts:fields\",\"to\":\"target:Accounts:schemeName:\",\"fromPort\":\"target:Accounts:fields\",\"toPort\":\"target:Accounts:schemeName:\",\"visible\":true,\"common\":false,\"__gohashid\":1683},{\"from\":\"target:Accounts:fields\",\"to\":\"target:Accounts:identification:\",\"fromPort\":\"target:Accounts:fields\",\"toPort\":\"target:Accounts:identification:\",\"visible\":true,\"common\":false,\"__gohashid\":1684},{\"from\":\"target:Accounts:fields\",\"to\":\"target:Accounts:secondaryIdentification:\",\"fromPort\":\"target:Accounts:fields\",\"toPort\":\"target:Accounts:secondaryIdentification:\",\"visible\":true,\"common\":false,\"__gohashid\":1685},{\"from\":\"target:Accounts:fields\",\"to\":\"target:Accounts:servicerSchemeName:\",\"fromPort\":\"target:Accounts:fields\",\"toPort\":\"target:Accounts:servicerSchemeName:\",\"visible\":true,\"common\":false,\"__gohashid\":1686},{\"from\":\"target:Accounts:fields\",\"to\":\"target:Accounts:servicerIdentification:\",\"fromPort\":\"target:Accounts:fields\",\"toPort\":\"target:Accounts:servicerIdentification:\",\"visible\":true,\"common\":false,\"__gohashid\":1687},{\"from\":\"target:Accounts:fields\",\"to\":\"target:Accounts:dataCreditDebitIndicator:\",\"fromPort\":\"target:Accounts:fields\",\"toPort\":\"target:Accounts:dataCreditDebitIndicator:\",\"visible\":true,\"common\":false,\"__gohashid\":1688},{\"from\":\"target:Accounts:fields\",\"to\":\"target:Accounts:dataType:\",\"fromPort\":\"target:Accounts:fields\",\"toPort\":\"target:Accounts:dataType:\",\"visible\":true,\"common\":false,\"__gohashid\":1689},{\"from\":\"target:Accounts:fields\",\"to\":\"target:Accounts:dataDateTime:\",\"fromPort\":\"target:Accounts:fields\",\"toPort\":\"target:Accounts:dataDateTime:\",\"visible\":true,\"common\":false,\"__gohashid\":1690},{\"from\":\"target:Accounts:fields\",\"to\":\"target:Accounts:dataCreditLineIncluded:\",\"fromPort\":\"target:Accounts:fields\",\"toPort\":\"target:Accounts:dataCreditLineIncluded:\",\"visible\":true,\"common\":false,\"__gohashid\":1691},{\"from\":\"target:Accounts:fields\",\"to\":\"target:Accounts:dataCreditLineType:\",\"fromPort\":\"target:Accounts:fields\",\"toPort\":\"target:Accounts:dataCreditLineType:\",\"visible\":true,\"common\":false,\"__gohashid\":1692},{\"from\":\"target:Accounts:fields\",\"to\":\"target:Accounts:dataCreditLineAmount:\",\"fromPort\":\"target:Accounts:fields\",\"toPort\":\"target:Accounts:dataCreditLineAmount:\",\"visible\":true,\"common\":false,\"__gohashid\":1693},{\"from\":\"target:Accounts:fields\",\"to\":\"target:Accounts:dataCreditLineCurrency:\",\"fromPort\":\"target:Accounts:fields\",\"toPort\":\"target:Accounts:dataCreditLineCurrency:\",\"visible\":true,\"common\":false,\"__gohashid\":1694},{\"from\":\"target:Accounts:fields\",\"to\":\"target:Accounts:IBAN:\",\"fromPort\":\"target:Accounts:fields\",\"toPort\":\"target:Accounts:IBAN:\",\"visible\":true,\"common\":false,\"__gohashid\":1695},{\"from\":\"target:Accounts:fields\",\"to\":\"target:Accounts:displayName:\",\"fromPort\":\"target:Accounts:fields\",\"toPort\":\"target:Accounts:displayName:\",\"visible\":true,\"common\":false,\"__gohashid\":1696},{\"from\":\"target:Accounts:fields\",\"to\":\"target:Accounts:Account_id:\",\"fromPort\":\"target:Accounts:fields\",\"toPort\":\"target:Accounts:Account_id:\",\"visible\":true,\"common\":false,\"__gohashid\":1697},{\"from\":\"target:Accounts:fields\",\"to\":\"target:Accounts:Organization_Id:\",\"fromPort\":\"target:Accounts:fields\",\"toPort\":\"target:Accounts:Organization_Id:\",\"visible\":true,\"common\":false,\"__gohashid\":1698},{\"from\":\"target:Accounts:fields\",\"to\":\"target:Accounts:Account_Type:\",\"fromPort\":\"target:Accounts:fields\",\"toPort\":\"target:Accounts:Account_Type:\",\"visible\":true,\"common\":false,\"__gohashid\":1699},{\"from\":\"target:Accounts:fields\",\"to\":\"target:Accounts:Customer_id:\",\"fromPort\":\"target:Accounts:fields\",\"toPort\":\"target:Accounts:Customer_id:\",\"visible\":true,\"common\":false,\"__gohashid\":1700},{\"from\":\"target:Accounts:fields\",\"to\":\"target:Accounts:Membership_id:\",\"fromPort\":\"target:Accounts:fields\",\"toPort\":\"target:Accounts:Membership_id:\",\"visible\":true,\"common\":false,\"__gohashid\":1701},{\"from\":\"target:Accounts:fields\",\"to\":\"target:Accounts:Taxid:\",\"fromPort\":\"target:Accounts:fields\",\"toPort\":\"target:Accounts:Taxid:\",\"visible\":true,\"common\":false,\"__gohashid\":1702},{\"from\":\"target:Accounts:fields\",\"to\":\"target:Accounts:CustomerType:\",\"fromPort\":\"target:Accounts:fields\",\"toPort\":\"target:Accounts:CustomerType:\",\"visible\":true,\"common\":false,\"__gohashid\":1703},{\"from\":\"target:Accounts:fields\",\"to\":\"target:Accounts:Ssn:\",\"fromPort\":\"target:Accounts:fields\",\"toPort\":\"target:Accounts:Ssn:\",\"visible\":true,\"common\":false,\"__gohashid\":1704},{\"from\":\"target:Accounts:fields\",\"to\":\"target:Accounts:status:\",\"fromPort\":\"target:Accounts:fields\",\"toPort\":\"target:Accounts:status:\",\"visible\":true,\"common\":false,\"__gohashid\":1705},{\"from\":\"target:Accounts:fields\",\"to\":\"target:Accounts:searchString:\",\"fromPort\":\"target:Accounts:fields\",\"toPort\":\"target:Accounts:searchString:\",\"visible\":true,\"common\":false,\"__gohashid\":1706},{\"from\":\"target:Accounts:fields\",\"to\":\"target:Accounts:Ownership:\",\"fromPort\":\"target:Accounts:fields\",\"toPort\":\"target:Accounts:Ownership:\",\"visible\":true,\"common\":false,\"__gohashid\":1707},{\"from\":\"target:Accounts:fields\",\"to\":\"target:Accounts:LastUpdated:\",\"fromPort\":\"target:Accounts:fields\",\"toPort\":\"target:Accounts:LastUpdated:\",\"visible\":true,\"common\":false,\"__gohashid\":1708},{\"from\":\"target:Accounts:fields\",\"to\":\"target:Accounts:ActualUpdatedBY:\",\"fromPort\":\"target:Accounts:fields\",\"toPort\":\"target:Accounts:ActualUpdatedBY:\",\"visible\":true,\"common\":false,\"__gohashid\":1709},{\"from\":\"target:Accounts:fields\",\"to\":\"target:Accounts:UpdatedBy:\",\"fromPort\":\"target:Accounts:fields\",\"toPort\":\"target:Accounts:UpdatedBy:\",\"visible\":true,\"common\":false,\"__gohashid\":1710},{\"from\":\"target:Accounts:fields\",\"to\":\"target:Accounts:userId:\",\"fromPort\":\"target:Accounts:fields\",\"toPort\":\"target:Accounts:userId:\",\"visible\":true,\"common\":false,\"__gohashid\":1711},{\"from\":\"target:Accounts:fields\",\"to\":\"target:Accounts:address:\",\"fromPort\":\"target:Accounts:fields\",\"toPort\":\"target:Accounts:address:\",\"visible\":true,\"common\":false,\"__gohashid\":1712},{\"from\":\"target:Accounts:fields\",\"to\":\"target:Accounts:dateOfBirth:\",\"fromPort\":\"target:Accounts:fields\",\"toPort\":\"target:Accounts:dateOfBirth:\",\"visible\":true,\"common\":false,\"__gohashid\":1713},{\"from\":\"target:Accounts:fields\",\"to\":\"target:Accounts:firstName:\",\"fromPort\":\"target:Accounts:fields\",\"toPort\":\"target:Accounts:firstName:\",\"visible\":true,\"common\":false,\"__gohashid\":1714},{\"from\":\"target:Accounts:fields\",\"to\":\"target:Accounts:lastName:\",\"fromPort\":\"target:Accounts:fields\",\"toPort\":\"target:Accounts:lastName:\",\"visible\":true,\"common\":false,\"__gohashid\":1715},{\"from\":\"target:Accounts:fields\",\"to\":\"target:Accounts:stateId:\",\"fromPort\":\"target:Accounts:fields\",\"toPort\":\"target:Accounts:stateId:\",\"visible\":true,\"common\":false,\"__gohashid\":1716},{\"from\":\"target:Accounts:fields\",\"to\":\"target:Accounts:productId:\",\"fromPort\":\"target:Accounts:fields\",\"toPort\":\"target:Accounts:productId:\",\"visible\":true,\"common\":false,\"__gohashid\":1717},{\"from\":\"target:Accounts:fields\",\"to\":\"target:Accounts:payingAccount:\",\"fromPort\":\"target:Accounts:fields\",\"toPort\":\"target:Accounts:payingAccount:\",\"visible\":true,\"common\":false,\"__gohashid\":1718},{\"from\":\"target:Accounts:fields\",\"to\":\"target:Accounts:payoutAccount:\",\"fromPort\":\"target:Accounts:fields\",\"toPort\":\"target:Accounts:payoutAccount:\",\"visible\":true,\"common\":false,\"__gohashid\":1719},{\"from\":\"target:Accounts:fields\",\"to\":\"target:Accounts:amount:\",\"fromPort\":\"target:Accounts:fields\",\"toPort\":\"target:Accounts:amount:\",\"visible\":true,\"common\":false,\"__gohashid\":1720},{\"from\":\"target:Accounts:fields\",\"to\":\"target:Accounts:duration:\",\"fromPort\":\"target:Accounts:fields\",\"toPort\":\"target:Accounts:duration:\",\"visible\":true,\"common\":false,\"__gohashid\":1721},{\"from\":\"target:Accounts:fields\",\"to\":\"target:Accounts:dbxAccountId:\",\"fromPort\":\"target:Accounts:fields\",\"toPort\":\"target:Accounts:dbxAccountId:\",\"visible\":true,\"common\":false,\"__gohashid\":1722},{\"from\":\"target:Accounts:fields\",\"to\":\"target:Accounts:accountNumber:\",\"fromPort\":\"target:Accounts:fields\",\"toPort\":\"target:Accounts:accountNumber:\",\"visible\":true,\"common\":false,\"__gohashid\":1723},{\"from\":\"target:Accounts:fields\",\"to\":\"target:Accounts:closedDate:\",\"fromPort\":\"target:Accounts:fields\",\"toPort\":\"target:Accounts:closedDate:\",\"visible\":true,\"common\":false,\"__gohashid\":1724},{\"from\":\"target:Accounts:fields\",\"to\":\"target:Accounts:accountCategory:\",\"fromPort\":\"target:Accounts:fields\",\"toPort\":\"target:Accounts:accountCategory:\",\"visible\":true,\"common\":false,\"__gohashid\":1725},{\"from\":\"target:Accounts:fields\",\"to\":\"target:Accounts:allowBillPay:\",\"fromPort\":\"target:Accounts:fields\",\"toPort\":\"target:Accounts:allowBillPay:\",\"visible\":true,\"common\":false,\"__gohashid\":1726},{\"from\":\"target:Accounts:fields\",\"to\":\"target:Accounts:allowOrderChecks:\",\"fromPort\":\"target:Accounts:fields\",\"toPort\":\"target:Accounts:allowOrderChecks:\",\"visible\":true,\"common\":false,\"__gohashid\":1727},{\"from\":\"target:Accounts:fields\",\"to\":\"target:Accounts:allowDepositCheck:\",\"fromPort\":\"target:Accounts:fields\",\"toPort\":\"target:Accounts:allowDepositCheck:\",\"visible\":true,\"common\":false,\"__gohashid\":1728},{\"from\":\"target:Accounts:fields\",\"to\":\"target:Accounts:allowSendMoneyToZelle:\",\"fromPort\":\"target:Accounts:fields\",\"toPort\":\"target:Accounts:allowSendMoneyToZelle:\",\"visible\":true,\"common\":false,\"__gohashid\":1729},{\"from\":\"target:Accounts:fields\",\"to\":\"target:Accounts:coreType:\",\"fromPort\":\"target:Accounts:fields\",\"toPort\":\"target:Accounts:coreType:\",\"visible\":true,\"common\":false,\"__gohashid\":1730},{\"from\":\"target:Accounts:fields\",\"to\":\"target:Accounts:noteNumber:\",\"fromPort\":\"target:Accounts:fields\",\"toPort\":\"target:Accounts:noteNumber:\",\"visible\":true,\"common\":false,\"__gohashid\":1731},{\"from\":\"target:Accounts:fields\",\"to\":\"target:Accounts:allowStopCheckPayment:\",\"fromPort\":\"target:Accounts:fields\",\"toPort\":\"target:Accounts:allowStopCheckPayment:\",\"visible\":true,\"common\":false,\"__gohashid\":1732},{\"from\":\"target:Accounts:fields\",\"to\":\"target:Accounts:referenceId:\",\"fromPort\":\"target:Accounts:fields\",\"toPort\":\"target:Accounts:referenceId:\",\"visible\":true,\"common\":false,\"__gohashid\":1733},{\"from\":\"target:Accounts:fields\",\"to\":\"target:Accounts:message:\",\"fromPort\":\"target:Accounts:fields\",\"toPort\":\"target:Accounts:message:\",\"visible\":true,\"common\":false,\"__gohashid\":1734},{\"from\":\"target:Accounts:fields\",\"to\":\"target:Accounts:transferToInternal:\",\"fromPort\":\"target:Accounts:fields\",\"toPort\":\"target:Accounts:transferToInternal:\",\"visible\":true,\"common\":false,\"__gohashid\":1735},{\"from\":\"target:Accounts:fields\",\"to\":\"target:Accounts:transferToExternal:\",\"fromPort\":\"target:Accounts:fields\",\"toPort\":\"target:Accounts:transferToExternal:\",\"visible\":true,\"common\":false,\"__gohashid\":1736},{\"from\":\"target:Accounts:fields\",\"to\":\"target:Accounts:transferFromInternal:\",\"fromPort\":\"target:Accounts:fields\",\"toPort\":\"target:Accounts:transferFromInternal:\",\"visible\":true,\"common\":false,\"__gohashid\":1737},{\"from\":\"target:Accounts:fields\",\"to\":\"target:Accounts:transferFromExternal:\",\"fromPort\":\"target:Accounts:fields\",\"toPort\":\"target:Accounts:transferFromExternal:\",\"visible\":true,\"common\":false,\"__gohashid\":1738},{\"from\":\"target:Accounts:fields\",\"to\":\"target:Accounts:principalOnly:\",\"fromPort\":\"target:Accounts:fields\",\"toPort\":\"target:Accounts:principalOnly:\",\"visible\":true,\"common\":false,\"__gohashid\":1739},{\"from\":\"target:Accounts:fields\",\"to\":\"target:Accounts:principalOnlyIgnoreDueDate:\",\"fromPort\":\"target:Accounts:fields\",\"toPort\":\"target:Accounts:principalOnlyIgnoreDueDate:\",\"visible\":true,\"common\":false,\"__gohashid\":1740},{\"from\":\"target:Accounts:fields\",\"to\":\"target:Accounts:interestOnly:\",\"fromPort\":\"target:Accounts:fields\",\"toPort\":\"target:Accounts:interestOnly:\",\"visible\":true,\"common\":false,\"__gohashid\":1741},{\"from\":\"target:Accounts:fields\",\"to\":\"target:Accounts:system:\",\"fromPort\":\"target:Accounts:fields\",\"toPort\":\"target:Accounts:system:\",\"visible\":true,\"common\":false,\"__gohashid\":1742}],\"blockCount\":{\"variableCount\":0},\"variableMap\":{},\"xmlMappingOverride\":true}",
    "applyCommonMapping" : false,
    "applyRequestCommonMapping" : false,
    "applyResponseCommonMapping" : false,
    "backendMeta" : {
      "serviceName" : "BankUmpquaOrch",
      "serviceVersion" : "1.0",
      "operationName" : "getAccountDetails"
    },
    "relationshipHierarchyMapping" : {
      "children" : [ ],
      "name" : "Accounts",
      "actions" : { },
      "selected" : true
    },
    "requestXmlMappingOverride" : true,
    "responseXmlMappingOverride" : true
  }
}