{
  "type" : "svcdriven",
  "custom" : false,
  "junction" : false,
  "customizable" : false,
  "verbs" : {
    "processACHFileWithVendor" : "processACHFileWithVendorMapping",
    "RejectedFiles" : "RejectedFilesMapping",
    "get" : "getMapping",
    "getFileDetailsByID" : "getFileDetailsByIDMapping"
  },
  "entityProperties" : {
    "BatchMode" : "buffer",
    "backendMeta" : { },
    "designTimeBackendMeta" : { }
  }
}