{
  "operationConfig" : {
    "name" : "getUnverifiedExternalAccounts4261",
    "type" : "MappedToBackend",
    "cachable" : false,
    "smsEnabled" : false,
    "security" : "authorized_app_user",
    "responseEncoding" : "UTF-8",
    "httpMethod" : "GET",
    "decodeResponseBody" : false,
    "oMapping" : "<?xml version=\"1.0\" encoding=\"UTF-8\" standalone=\"yes\"?><mapper xmlns=\"http://www.kony.com/ns/mapper\">          <map inputpath=\"response_in\" outputpath=\"response_out\">                    <set-param inputpath=\"success\" outputpath=\"success\"/>                <map inputpath=\"externalaccount\" outputpath=\"ExternalAccounts\">                              <set-param inputpath=\"accountNumber\" outputpath=\"accountNumber\"/>                              <set-param inputpath=\"accountType\" outputpath=\"accountType\"/>                              <set-param inputpath=\"bankName\" outputpath=\"bankName\"/>                              <set-param inputpath=\"beneficiaryName\" outputpath=\"beneficiaryName\"/>                              <set-param inputpath=\"countryName\" outputpath=\"countryName\"/>                              <set-param inputpath=\"createdOn\" outputpath=\"createdOn\"/>                              <set-param inputpath=\"firstName\" outputpath=\"firstName\"/>                              <set-param inputpath=\"isInternationalAccount\" outputpath=\"isInternationalAccount\"/>                              <set-param inputpath=\"isSameBankAccount\" outputpath=\"isSameBankAccount\"/>                              <set-param inputpath=\"isVerified\" outputpath=\"isVerified\"/>                              <set-param inputpath=\"lastName\" outputpath=\"lastName\"/>                              <set-param inputpath=\"nickName\" outputpath=\"nickName\"/>                              <set-param inputpath=\"notes\" outputpath=\"notes\"/>                              <set-param inputpath=\"routingNumber\" outputpath=\"routingNumber\"/>                              <set-param inputpath=\"swiftCode\" outputpath=\"swiftCode\"/>            <set-param inputpath=\"IBAN\" outputpath=\"IBAN\"/>                        <set-param inputpath=\"sortCode\" outputpath=\"sortCode\"/>              <set-param inputpath=\"phoneCountryCode\" outputpath=\"phoneCountryCode\"/>              <set-param inputpath=\"phoneNumber\" outputpath=\"phoneNumber\"/>              <set-param inputpath=\"phoneExtension\" outputpath=\"phoneExtension\"/>     </map>      \t              <set-param inputpath=\"errmsg\" outputpath=\"errmsg\"/>\t              <set-param inputpath=\"Id\" outputpath=\"Id\"/>        </map></mapper>",
    "oVisualMappingData" : "{\"nodeDataArray\":[{\"isGroup\":true,\"key\":\"response_out\",\"text\":\"ExternalAccounts\",\"xy\":\"770 100\",\"__gohashid\":35579},{\"isGroup\":true,\"key\":\"response_in\",\"text\":\"dbpRbLocalServicesJava (1.0).getUnverifiedExternalAccounts\",\"xy\":\"150 100\",\"__gohashid\":35580}],\"linkDataArray\":[{\"category\":\"Mapping\",\"from\":\"source:ExternalAccounts:accountNumber:\",\"to\":\"target:ExternalAccounts:accountNumber:\",\"fromPort\":\"source:ExternalAccounts:accountNumber:\",\"toPort\":\"target:ExternalAccounts:accountNumber:\",\"visible\":true,\"common\":true,\"__gohashid\":38577},{\"category\":\"Mapping\",\"from\":\"source:ExternalAccounts:accountType:\",\"to\":\"target:ExternalAccounts:accountType:\",\"fromPort\":\"source:ExternalAccounts:accountType:\",\"toPort\":\"target:ExternalAccounts:accountType:\",\"visible\":true,\"common\":true,\"__gohashid\":38584},{\"category\":\"Mapping\",\"from\":\"source:ExternalAccounts:bankName:\",\"to\":\"target:ExternalAccounts:bankName:\",\"fromPort\":\"source:ExternalAccounts:bankName:\",\"toPort\":\"target:ExternalAccounts:bankName:\",\"visible\":true,\"common\":true,\"__gohashid\":38591},{\"category\":\"Mapping\",\"from\":\"source:ExternalAccounts:beneficiaryName:\",\"to\":\"target:ExternalAccounts:beneficiaryName:\",\"fromPort\":\"source:ExternalAccounts:beneficiaryName:\",\"toPort\":\"target:ExternalAccounts:beneficiaryName:\",\"visible\":true,\"common\":true,\"__gohashid\":38598},{\"category\":\"Mapping\",\"from\":\"source:ExternalAccounts:countryName:\",\"to\":\"target:ExternalAccounts:countryName:\",\"fromPort\":\"source:ExternalAccounts:countryName:\",\"toPort\":\"target:ExternalAccounts:countryName:\",\"visible\":true,\"common\":true,\"__gohashid\":38605},{\"category\":\"Mapping\",\"from\":\"source:ExternalAccounts:createdOn:\",\"to\":\"target:ExternalAccounts:createdOn:\",\"fromPort\":\"source:ExternalAccounts:createdOn:\",\"toPort\":\"target:ExternalAccounts:createdOn:\",\"visible\":true,\"common\":true,\"__gohashid\":38612},{\"category\":\"Mapping\",\"from\":\"source:ExternalAccounts:firstName:\",\"to\":\"target:ExternalAccounts:firstName:\",\"fromPort\":\"source:ExternalAccounts:firstName:\",\"toPort\":\"target:ExternalAccounts:firstName:\",\"visible\":true,\"common\":true,\"__gohashid\":38619},{\"category\":\"Mapping\",\"from\":\"source:ExternalAccounts:isInternationalAccount:\",\"to\":\"target:ExternalAccounts:isInternationalAccount:\",\"fromPort\":\"source:ExternalAccounts:isInternationalAccount:\",\"toPort\":\"target:ExternalAccounts:isInternationalAccount:\",\"visible\":true,\"common\":true,\"__gohashid\":38626},{\"category\":\"Mapping\",\"from\":\"source:ExternalAccounts:isSameBankAccount:\",\"to\":\"target:ExternalAccounts:isSameBankAccount:\",\"fromPort\":\"source:ExternalAccounts:isSameBankAccount:\",\"toPort\":\"target:ExternalAccounts:isSameBankAccount:\",\"visible\":true,\"common\":true,\"__gohashid\":38633},{\"category\":\"Mapping\",\"from\":\"source:ExternalAccounts:isVerified:\",\"to\":\"target:ExternalAccounts:isVerified:\",\"fromPort\":\"source:ExternalAccounts:isVerified:\",\"toPort\":\"target:ExternalAccounts:isVerified:\",\"visible\":true,\"common\":true,\"__gohashid\":38640},{\"category\":\"Mapping\",\"from\":\"source:ExternalAccounts:lastName:\",\"to\":\"target:ExternalAccounts:lastName:\",\"fromPort\":\"source:ExternalAccounts:lastName:\",\"toPort\":\"target:ExternalAccounts:lastName:\",\"visible\":true,\"common\":true,\"__gohashid\":38647},{\"category\":\"Mapping\",\"from\":\"source:ExternalAccounts:nickName:\",\"to\":\"target:ExternalAccounts:nickName:\",\"fromPort\":\"source:ExternalAccounts:nickName:\",\"toPort\":\"target:ExternalAccounts:nickName:\",\"visible\":true,\"common\":true,\"__gohashid\":38654},{\"category\":\"Mapping\",\"from\":\"source:ExternalAccounts:notes:\",\"to\":\"target:ExternalAccounts:notes:\",\"fromPort\":\"source:ExternalAccounts:notes:\",\"toPort\":\"target:ExternalAccounts:notes:\",\"visible\":true,\"common\":true,\"__gohashid\":38661},{\"category\":\"Mapping\",\"from\":\"source:ExternalAccounts:routingNumber:\",\"to\":\"target:ExternalAccounts:routingNumber:\",\"fromPort\":\"source:ExternalAccounts:routingNumber:\",\"toPort\":\"target:ExternalAccounts:routingNumber:\",\"visible\":true,\"common\":true,\"__gohashid\":38668},{\"category\":\"Mapping\",\"from\":\"source:ExternalAccounts:swiftCode:\",\"to\":\"target:ExternalAccounts:swiftCode:\",\"fromPort\":\"source:ExternalAccounts:swiftCode:\",\"toPort\":\"target:ExternalAccounts:swiftCode:\",\"visible\":true,\"common\":true,\"__gohashid\":38675},{\"from\":\"target\",\"to\":\"target:ExternalAccounts\",\"fromPort\":\"target\",\"toPort\":\"target:ExternalAccounts\",\"visible\":true,\"common\":false,\"__gohashid\":58329},{\"from\":\"target:ExternalAccounts\",\"to\":\"target:ExternalAccounts:fields\",\"fromPort\":\"target:ExternalAccounts\",\"toPort\":\"target:ExternalAccounts:fields\",\"visible\":true,\"common\":false,\"__gohashid\":58330},{\"from\":\"target:ExternalAccounts:fields\",\"to\":\"target:ExternalAccounts:accountNumber:\",\"fromPort\":\"target:ExternalAccounts:fields\",\"toPort\":\"target:ExternalAccounts:accountNumber:\",\"visible\":true,\"common\":false,\"__gohashid\":58331},{\"from\":\"target:ExternalAccounts:fields\",\"to\":\"target:ExternalAccounts:accountType:\",\"fromPort\":\"target:ExternalAccounts:fields\",\"toPort\":\"target:ExternalAccounts:accountType:\",\"visible\":true,\"common\":false,\"__gohashid\":58332},{\"from\":\"target:ExternalAccounts:fields\",\"to\":\"target:ExternalAccounts:bankName:\",\"fromPort\":\"target:ExternalAccounts:fields\",\"toPort\":\"target:ExternalAccounts:bankName:\",\"visible\":true,\"common\":false,\"__gohashid\":58333},{\"from\":\"target:ExternalAccounts:fields\",\"to\":\"target:ExternalAccounts:beneficiaryName:\",\"fromPort\":\"target:ExternalAccounts:fields\",\"toPort\":\"target:ExternalAccounts:beneficiaryName:\",\"visible\":true,\"common\":false,\"__gohashid\":58334},{\"from\":\"target:ExternalAccounts:fields\",\"to\":\"target:ExternalAccounts:countryName:\",\"fromPort\":\"target:ExternalAccounts:fields\",\"toPort\":\"target:ExternalAccounts:countryName:\",\"visible\":true,\"common\":false,\"__gohashid\":58335},{\"from\":\"target:ExternalAccounts:fields\",\"to\":\"target:ExternalAccounts:createdOn:\",\"fromPort\":\"target:ExternalAccounts:fields\",\"toPort\":\"target:ExternalAccounts:createdOn:\",\"visible\":true,\"common\":false,\"__gohashid\":58336},{\"from\":\"target:ExternalAccounts:fields\",\"to\":\"target:ExternalAccounts:errmsg:\",\"fromPort\":\"target:ExternalAccounts:fields\",\"toPort\":\"target:ExternalAccounts:errmsg:\",\"visible\":true,\"common\":false,\"__gohashid\":58337},{\"from\":\"target:ExternalAccounts:fields\",\"to\":\"target:ExternalAccounts:firstName:\",\"fromPort\":\"target:ExternalAccounts:fields\",\"toPort\":\"target:ExternalAccounts:firstName:\",\"visible\":true,\"common\":false,\"__gohashid\":58338},{\"from\":\"target:ExternalAccounts:fields\",\"to\":\"target:ExternalAccounts:Id:\",\"fromPort\":\"target:ExternalAccounts:fields\",\"toPort\":\"target:ExternalAccounts:Id:\",\"visible\":true,\"common\":false,\"__gohashid\":58339},{\"from\":\"target:ExternalAccounts:fields\",\"to\":\"target:ExternalAccounts:isInternationalAccount:\",\"fromPort\":\"target:ExternalAccounts:fields\",\"toPort\":\"target:ExternalAccounts:isInternationalAccount:\",\"visible\":true,\"common\":false,\"__gohashid\":58340},{\"from\":\"target:ExternalAccounts:fields\",\"to\":\"target:ExternalAccounts:isSameBankAccount:\",\"fromPort\":\"target:ExternalAccounts:fields\",\"toPort\":\"target:ExternalAccounts:isSameBankAccount:\",\"visible\":true,\"common\":false,\"__gohashid\":58341},{\"from\":\"target:ExternalAccounts:fields\",\"to\":\"target:ExternalAccounts:isVerified:\",\"fromPort\":\"target:ExternalAccounts:fields\",\"toPort\":\"target:ExternalAccounts:isVerified:\",\"visible\":true,\"common\":false,\"__gohashid\":58342},{\"from\":\"target:ExternalAccounts:fields\",\"to\":\"target:ExternalAccounts:lastName:\",\"fromPort\":\"target:ExternalAccounts:fields\",\"toPort\":\"target:ExternalAccounts:lastName:\",\"visible\":true,\"common\":false,\"__gohashid\":58343},{\"from\":\"target:ExternalAccounts:fields\",\"to\":\"target:ExternalAccounts:limit:\",\"fromPort\":\"target:ExternalAccounts:fields\",\"toPort\":\"target:ExternalAccounts:limit:\",\"visible\":true,\"common\":false,\"__gohashid\":58344},{\"from\":\"target:ExternalAccounts:fields\",\"to\":\"target:ExternalAccounts:nickName:\",\"fromPort\":\"target:ExternalAccounts:fields\",\"toPort\":\"target:ExternalAccounts:nickName:\",\"visible\":true,\"common\":false,\"__gohashid\":58345},{\"from\":\"target:ExternalAccounts:fields\",\"to\":\"target:ExternalAccounts:notes:\",\"fromPort\":\"target:ExternalAccounts:fields\",\"toPort\":\"target:ExternalAccounts:notes:\",\"visible\":true,\"common\":false,\"__gohashid\":58346},{\"from\":\"target:ExternalAccounts:fields\",\"to\":\"target:ExternalAccounts:offset:\",\"fromPort\":\"target:ExternalAccounts:fields\",\"toPort\":\"target:ExternalAccounts:offset:\",\"visible\":true,\"common\":false,\"__gohashid\":58347},{\"from\":\"target:ExternalAccounts:fields\",\"to\":\"target:ExternalAccounts:order:\",\"fromPort\":\"target:ExternalAccounts:fields\",\"toPort\":\"target:ExternalAccounts:order:\",\"visible\":true,\"common\":false,\"__gohashid\":58348},{\"from\":\"target:ExternalAccounts:fields\",\"to\":\"target:ExternalAccounts:routingNumber:\",\"fromPort\":\"target:ExternalAccounts:fields\",\"toPort\":\"target:ExternalAccounts:routingNumber:\",\"visible\":true,\"common\":false,\"__gohashid\":58349},{\"from\":\"target:ExternalAccounts:fields\",\"to\":\"target:ExternalAccounts:searchString:\",\"fromPort\":\"target:ExternalAccounts:fields\",\"toPort\":\"target:ExternalAccounts:searchString:\",\"visible\":true,\"common\":false,\"__gohashid\":58350},{\"from\":\"target:ExternalAccounts:fields\",\"to\":\"target:ExternalAccounts:sortBy:\",\"fromPort\":\"target:ExternalAccounts:fields\",\"toPort\":\"target:ExternalAccounts:sortBy:\",\"visible\":true,\"common\":false,\"__gohashid\":58351},{\"from\":\"target:ExternalAccounts:fields\",\"to\":\"target:ExternalAccounts:success:\",\"fromPort\":\"target:ExternalAccounts:fields\",\"toPort\":\"target:ExternalAccounts:success:\",\"visible\":true,\"common\":false,\"__gohashid\":58352},{\"from\":\"target:ExternalAccounts:fields\",\"to\":\"target:ExternalAccounts:swiftCode:\",\"fromPort\":\"target:ExternalAccounts:fields\",\"toPort\":\"target:ExternalAccounts:swiftCode:\",\"visible\":true,\"common\":false,\"__gohashid\":58353},{\"from\":\"target:ExternalAccounts:fields\",\"to\":\"target:ExternalAccounts:IBAN:\",\"fromPort\":\"target:ExternalAccounts:fields\",\"toPort\":\"target:ExternalAccounts:IBAN:\",\"visible\":true,\"common\":false,\"__gohashid\":58354},{\"from\":\"target:ExternalAccounts:fields\",\"to\":\"target:ExternalAccounts:sortCode:\",\"fromPort\":\"target:ExternalAccounts:fields\",\"toPort\":\"target:ExternalAccounts:sortCode:\",\"visible\":true,\"common\":false,\"__gohashid\":58355},{\"from\":\"target:ExternalAccounts:fields\",\"to\":\"target:ExternalAccounts:phoneExtension:\",\"fromPort\":\"target:ExternalAccounts:fields\",\"toPort\":\"target:ExternalAccounts:phoneExtension:\",\"visible\":true,\"common\":false,\"__gohashid\":58356},{\"from\":\"target:ExternalAccounts:fields\",\"to\":\"target:ExternalAccounts:phoneNumber:\",\"fromPort\":\"target:ExternalAccounts:fields\",\"toPort\":\"target:ExternalAccounts:phoneNumber:\",\"visible\":true,\"common\":false,\"__gohashid\":58357},{\"from\":\"target:ExternalAccounts:fields\",\"to\":\"target:ExternalAccounts:phoneCountryCode:\",\"fromPort\":\"target:ExternalAccounts:fields\",\"toPort\":\"target:ExternalAccounts:phoneCountryCode:\",\"visible\":true,\"common\":false,\"__gohashid\":58358},{\"from\":\"source\",\"to\":\"source:parameters\",\"fromPort\":\"source\",\"toPort\":\"source:parameters\",\"visible\":true,\"common\":false,\"__gohashid\":58359},{\"from\":\"source:parameters\",\"to\":\"source:errmsg:\",\"fromPort\":\"source:parameters\",\"toPort\":\"source:errmsg:\",\"visible\":true,\"common\":false,\"__gohashid\":58360},{\"from\":\"source:parameters\",\"to\":\"source:Id:\",\"fromPort\":\"source:parameters\",\"toPort\":\"source:Id:\",\"visible\":true,\"common\":false,\"__gohashid\":58361},{\"from\":\"source:parameters\",\"to\":\"source:success:\",\"fromPort\":\"source:parameters\",\"toPort\":\"source:success:\",\"visible\":true,\"common\":false,\"__gohashid\":58362},{\"from\":\"source\",\"to\":\"source:ExternalAccounts\",\"fromPort\":\"source\",\"toPort\":\"source:ExternalAccounts\",\"visible\":true,\"common\":false,\"__gohashid\":58363},{\"from\":\"source:ExternalAccounts\",\"to\":\"source:ExternalAccounts:parameters\",\"fromPort\":\"source:ExternalAccounts\",\"toPort\":\"source:ExternalAccounts:parameters\",\"visible\":true,\"common\":false,\"__gohashid\":58364},{\"from\":\"source:ExternalAccounts:parameters\",\"to\":\"source:ExternalAccounts:accountNumber:\",\"fromPort\":\"source:ExternalAccounts:parameters\",\"toPort\":\"source:ExternalAccounts:accountNumber:\",\"visible\":true,\"common\":false,\"__gohashid\":58365},{\"from\":\"source:ExternalAccounts:parameters\",\"to\":\"source:ExternalAccounts:accountType:\",\"fromPort\":\"source:ExternalAccounts:parameters\",\"toPort\":\"source:ExternalAccounts:accountType:\",\"visible\":true,\"common\":false,\"__gohashid\":58366},{\"from\":\"source:ExternalAccounts:parameters\",\"to\":\"source:ExternalAccounts:bankName:\",\"fromPort\":\"source:ExternalAccounts:parameters\",\"toPort\":\"source:ExternalAccounts:bankName:\",\"visible\":true,\"common\":false,\"__gohashid\":58367},{\"from\":\"source:ExternalAccounts:parameters\",\"to\":\"source:ExternalAccounts:beneficiaryName:\",\"fromPort\":\"source:ExternalAccounts:parameters\",\"toPort\":\"source:ExternalAccounts:beneficiaryName:\",\"visible\":true,\"common\":false,\"__gohashid\":58368},{\"from\":\"source:ExternalAccounts:parameters\",\"to\":\"source:ExternalAccounts:countryName:\",\"fromPort\":\"source:ExternalAccounts:parameters\",\"toPort\":\"source:ExternalAccounts:countryName:\",\"visible\":true,\"common\":false,\"__gohashid\":58369},{\"from\":\"source:ExternalAccounts:parameters\",\"to\":\"source:ExternalAccounts:createdOn:\",\"fromPort\":\"source:ExternalAccounts:parameters\",\"toPort\":\"source:ExternalAccounts:createdOn:\",\"visible\":true,\"common\":false,\"__gohashid\":58370},{\"from\":\"source:ExternalAccounts:parameters\",\"to\":\"source:ExternalAccounts:firstName:\",\"fromPort\":\"source:ExternalAccounts:parameters\",\"toPort\":\"source:ExternalAccounts:firstName:\",\"visible\":true,\"common\":false,\"__gohashid\":58371},{\"from\":\"source:ExternalAccounts:parameters\",\"to\":\"source:ExternalAccounts:isInternationalAccount:\",\"fromPort\":\"source:ExternalAccounts:parameters\",\"toPort\":\"source:ExternalAccounts:isInternationalAccount:\",\"visible\":true,\"common\":false,\"__gohashid\":58372},{\"from\":\"source:ExternalAccounts:parameters\",\"to\":\"source:ExternalAccounts:isSameBankAccount:\",\"fromPort\":\"source:ExternalAccounts:parameters\",\"toPort\":\"source:ExternalAccounts:isSameBankAccount:\",\"visible\":true,\"common\":false,\"__gohashid\":58373},{\"from\":\"source:ExternalAccounts:parameters\",\"to\":\"source:ExternalAccounts:isVerified:\",\"fromPort\":\"source:ExternalAccounts:parameters\",\"toPort\":\"source:ExternalAccounts:isVerified:\",\"visible\":true,\"common\":false,\"__gohashid\":58374},{\"from\":\"source:ExternalAccounts:parameters\",\"to\":\"source:ExternalAccounts:lastName:\",\"fromPort\":\"source:ExternalAccounts:parameters\",\"toPort\":\"source:ExternalAccounts:lastName:\",\"visible\":true,\"common\":false,\"__gohashid\":58375},{\"from\":\"source:ExternalAccounts:parameters\",\"to\":\"source:ExternalAccounts:nickName:\",\"fromPort\":\"source:ExternalAccounts:parameters\",\"toPort\":\"source:ExternalAccounts:nickName:\",\"visible\":true,\"common\":false,\"__gohashid\":58376},{\"from\":\"source:ExternalAccounts:parameters\",\"to\":\"source:ExternalAccounts:notes:\",\"fromPort\":\"source:ExternalAccounts:parameters\",\"toPort\":\"source:ExternalAccounts:notes:\",\"visible\":true,\"common\":false,\"__gohashid\":58377},{\"from\":\"source:ExternalAccounts:parameters\",\"to\":\"source:ExternalAccounts:routingNumber:\",\"fromPort\":\"source:ExternalAccounts:parameters\",\"toPort\":\"source:ExternalAccounts:routingNumber:\",\"visible\":true,\"common\":false,\"__gohashid\":58378},{\"from\":\"source:ExternalAccounts:parameters\",\"to\":\"source:ExternalAccounts:swiftCode:\",\"fromPort\":\"source:ExternalAccounts:parameters\",\"toPort\":\"source:ExternalAccounts:swiftCode:\",\"visible\":true,\"common\":false,\"__gohashid\":58379}],\"blockCount\":{\"variableCount\":0},\"variableMap\":{},\"xmlMappingOverride\":true}",
    "applyCommonMapping" : false,
    "applyRequestCommonMapping" : true,
    "applyResponseCommonMapping" : false,
    "backendMeta" : {
      "serviceName" : "dbpRbLocalServicesJava",
      "serviceVersion" : "1.0",
      "operationName" : "getUnverifiedExternalAccounts"
    },
    "relationshipHierarchyMapping" : {
      "children" : [ ],
      "name" : "ExternalAccounts",
      "actions" : { },
      "selected" : true
    },
    "requestXmlMappingOverride" : false,
    "responseXmlMappingOverride" : true
  }
}