{
  "operationConfig" : {
    "name" : "FetchAllTemplateRecords3222",
    "type" : "MappedToBackend",
    "cachable" : false,
    "smsEnabled" : false,
    "security" : "authorized_app_user",
    "responseEncoding" : "UTF-8",
    "httpMethod" : "GET",
    "decodeResponseBody" : false,
    "iMapping" : "<?xml version=\"1.0\" encoding=\"UTF-8\" standalone=\"yes\"?>\n<mapper xmlns=\"http://www.kony.com/ns/mapper\">\n    <map inputpath=\"request_in\" outputpath=\"request_out\">\n        <set-param inputpath=\"Template_id\" outputpath=\"Template_id\"/>\n    </map>\n</mapper>\n",
    "oMapping" : "<?xml version=\"1.0\" encoding=\"UTF-8\" standalone=\"yes\"?><mapper xmlns=\"http://www.kony.com/ns/mapper\">                  <map inputpath=\"response_in\" outputpath=\"response_out\">                                    <map inputpath=\"fetch_templaterecord_details_view\" outputpath=\"TemplateRecords\">                                               <set-param inputpath=\"ToAccountTypeValue\" outputpath=\"ToAccountTypeValue\"/>                                          <set-param inputpath=\"Template_id\" outputpath=\"Template_id\"/>                                          <set-param inputpath=\"ABATRCNumber\" outputpath=\"ABATRCNumber\"/>                                          <set-param inputpath=\"softDelete\" outputpath=\"softDelete\"/>                                          <set-param inputpath=\"TemplateRecord_id\" outputpath=\"TemplateRecord_id\"/>                                          <set-param inputpath=\"Amount\" outputpath=\"Amount\"/>                                          <set-param inputpath=\"Record_Name\" outputpath=\"Record_Name\"/>                                          <set-param inputpath=\"ToAccountNumber\" outputpath=\"ToAccountNumber\"/>                                          <set-param inputpath=\"Detail_id\" outputpath=\"Detail_id\"/>                                      <set-param inputpath=\"IsZeroTaxDue\" outputpath=\"IsZeroTaxDue\"/>                                      <set-param inputpath=\"TaxType\" outputpath=\"TaxType\"/>                                     <set-param inputpath=\"EIN\" outputpath=\"EIN\"/>                                       <set-param inputpath=\"SubTaxCategory\" outputpath=\"SubTaxCategory\"/>                                       <set-param inputpath=\"AdditionalInfo\" outputpath=\"AdditionalInfo\"/>                                       <set-param inputpath=\"EffectiveDate\" outputpath=\"EffectiveDate\"/>             <set-param inputpath=\"ToAccountType\" outputpath=\"ToAccountType_id\"/>            <set-param inputpath=\"TaxType_id\" outputpath=\"TaxType_id\"/>            <set-param inputpath=\"TemplateRequestTypeValue\" outputpath=\"TemplateRequestTypeValue\"/>                  </map>     <set-param outputpath=\"dbpErrCode\" inputpath=\"dbpErrCode\" />                <set-param outputpath=\"dbpErrMsg\" inputpath=\"dbpErrMsg\" />        <set-param outputpath=\"opstatus\" inputpath=\"opstatus\" />        <set-param outputpath=\"httpStatusCode\" inputpath=\"httpStatusCode\" />    </map></mapper>",
    "iVisualMappingData" : "{\"nodeDataArray\":[{\"isGroup\":true,\"key\":\"request_in\",\"text\":\"TemplateRecords\",\"xy\":\"150 100\",\"__gohashid\":7128},{\"isGroup\":true,\"key\":\"request_out\",\"text\":\"dbpBBJavaServices (1.0).FetchAllTemplateRecords\",\"xy\":\"770 100\",\"__gohashid\":7129}],\"linkDataArray\":[{\"category\":\"Mapping\",\"visible\":true,\"__gohashid\":9307,\"from\":\"source:TemplateRecords:Template_id:\",\"to\":\"target:Template_id:\",\"fromPort\":\"source:TemplateRecords:Template_id:\",\"toPort\":\"target:Template_id:\"}],\"blockCount\":{\"variableCount\":0},\"variableMap\":{},\"xmlMappingOverride\":false}",
    "oVisualMappingData" : "{\"nodeDataArray\":[{\"isGroup\":true,\"key\":\"response_out\",\"text\":\"TemplateRecords\",\"xy\":\"770 100\",\"__gohashid\":9930},{\"isGroup\":true,\"key\":\"response_in\",\"text\":\"dbpBBJavaServices (1.0).FetchAllTemplateRecords\",\"xy\":\"150 100\",\"__gohashid\":9931}],\"linkDataArray\":[{\"from\":\"target\",\"to\":\"target:TemplateRecords\",\"fromPort\":\"target\",\"toPort\":\"target:TemplateRecords\",\"visible\":true,\"common\":false,\"__gohashid\":40932},{\"from\":\"target:TemplateRecords\",\"to\":\"target:TemplateRecords:fields\",\"fromPort\":\"target:TemplateRecords\",\"toPort\":\"target:TemplateRecords:fields\",\"visible\":true,\"common\":false,\"__gohashid\":40933},{\"from\":\"target:TemplateRecords:fields\",\"to\":\"target:TemplateRecords:AdditionalInfo:\",\"fromPort\":\"target:TemplateRecords:fields\",\"toPort\":\"target:TemplateRecords:AdditionalInfo:\",\"visible\":true,\"common\":false,\"__gohashid\":40934},{\"from\":\"target:TemplateRecords:fields\",\"to\":\"target:TemplateRecords:ToAccountType:\",\"fromPort\":\"target:TemplateRecords:fields\",\"toPort\":\"target:TemplateRecords:ToAccountType:\",\"visible\":true,\"common\":false,\"__gohashid\":40935},{\"from\":\"target:TemplateRecords:fields\",\"to\":\"target:TemplateRecords:Template_id:\",\"fromPort\":\"target:TemplateRecords:fields\",\"toPort\":\"target:TemplateRecords:Template_id:\",\"visible\":true,\"common\":false,\"__gohashid\":40936},{\"from\":\"target:TemplateRecords:fields\",\"to\":\"target:TemplateRecords:ABATRCNumber:\",\"fromPort\":\"target:TemplateRecords:fields\",\"toPort\":\"target:TemplateRecords:ABATRCNumber:\",\"visible\":true,\"common\":false,\"__gohashid\":40937},{\"from\":\"target:TemplateRecords:fields\",\"to\":\"target:TemplateRecords:softDelete:\",\"fromPort\":\"target:TemplateRecords:fields\",\"toPort\":\"target:TemplateRecords:softDelete:\",\"visible\":true,\"common\":false,\"__gohashid\":40938},{\"from\":\"target:TemplateRecords:fields\",\"to\":\"target:TemplateRecords:TemplateRecord_id:\",\"fromPort\":\"target:TemplateRecords:fields\",\"toPort\":\"target:TemplateRecords:TemplateRecord_id:\",\"visible\":true,\"common\":false,\"__gohashid\":40939},{\"from\":\"target:TemplateRecords:fields\",\"to\":\"target:TemplateRecords:Amount:\",\"fromPort\":\"target:TemplateRecords:fields\",\"toPort\":\"target:TemplateRecords:Amount:\",\"visible\":true,\"common\":false,\"__gohashid\":40940},{\"from\":\"target:TemplateRecords:fields\",\"to\":\"target:TemplateRecords:Record_Name:\",\"fromPort\":\"target:TemplateRecords:fields\",\"toPort\":\"target:TemplateRecords:Record_Name:\",\"visible\":true,\"common\":false,\"__gohashid\":40941},{\"from\":\"target:TemplateRecords:fields\",\"to\":\"target:TemplateRecords:ToAccountNumber:\",\"fromPort\":\"target:TemplateRecords:fields\",\"toPort\":\"target:TemplateRecords:ToAccountNumber:\",\"visible\":true,\"common\":false,\"__gohashid\":40942},{\"from\":\"target:TemplateRecords:fields\",\"to\":\"target:TemplateRecords:Detail_id:\",\"fromPort\":\"target:TemplateRecords:fields\",\"toPort\":\"target:TemplateRecords:Detail_id:\",\"visible\":true,\"common\":false,\"__gohashid\":40943},{\"from\":\"target:TemplateRecords:fields\",\"to\":\"target:TemplateRecords:IsZeroTaxDue:\",\"fromPort\":\"target:TemplateRecords:fields\",\"toPort\":\"target:TemplateRecords:IsZeroTaxDue:\",\"visible\":true,\"common\":false,\"__gohashid\":40944},{\"from\":\"target:TemplateRecords:fields\",\"to\":\"target:TemplateRecords:TaxType:\",\"fromPort\":\"target:TemplateRecords:fields\",\"toPort\":\"target:TemplateRecords:TaxType:\",\"visible\":true,\"common\":false,\"__gohashid\":40945},{\"from\":\"target:TemplateRecords:fields\",\"to\":\"target:TemplateRecords:EIN:\",\"fromPort\":\"target:TemplateRecords:fields\",\"toPort\":\"target:TemplateRecords:EIN:\",\"visible\":true,\"common\":false,\"__gohashid\":40946},{\"from\":\"target:TemplateRecords:fields\",\"to\":\"target:TemplateRecords:SubTaxCategory:\",\"fromPort\":\"target:TemplateRecords:fields\",\"toPort\":\"target:TemplateRecords:SubTaxCategory:\",\"visible\":true,\"common\":false,\"__gohashid\":40947},{\"from\":\"target:TemplateRecords:fields\",\"to\":\"target:TemplateRecords:EffectiveDate:\",\"fromPort\":\"target:TemplateRecords:fields\",\"toPort\":\"target:TemplateRecords:EffectiveDate:\",\"visible\":true,\"common\":false,\"__gohashid\":40948},{\"from\":\"target:TemplateRecords:fields\",\"to\":\"target:TemplateRecords:TemplateRequestTypeValue:\",\"fromPort\":\"target:TemplateRecords:fields\",\"toPort\":\"target:TemplateRecords:TemplateRequestTypeValue:\",\"visible\":true,\"common\":false,\"__gohashid\":40949},{\"from\":\"target:TemplateRecords:fields\",\"to\":\"target:TemplateRecords:ToAccountTypeValue:\",\"fromPort\":\"target:TemplateRecords:fields\",\"toPort\":\"target:TemplateRecords:ToAccountTypeValue:\",\"visible\":true,\"common\":false,\"__gohashid\":40950},{\"from\":\"target:TemplateRecords:fields\",\"to\":\"target:TemplateRecords:TaxType_id:\",\"fromPort\":\"target:TemplateRecords:fields\",\"toPort\":\"target:TemplateRecords:TaxType_id:\",\"visible\":true,\"common\":false,\"__gohashid\":40951},{\"from\":\"target:TemplateRecords:fields\",\"to\":\"target:TemplateRecords:ToAccountType_id:\",\"fromPort\":\"target:TemplateRecords:fields\",\"toPort\":\"target:TemplateRecords:ToAccountType_id:\",\"visible\":true,\"common\":false,\"__gohashid\":40952},{\"from\":\"target:TemplateRecords:fields\",\"to\":\"target:TemplateRecords:dbpErrCode:\",\"fromPort\":\"target:TemplateRecords:fields\",\"toPort\":\"target:TemplateRecords:dbpErrCode:\",\"visible\":true,\"common\":false,\"__gohashid\":40953},{\"from\":\"target:TemplateRecords:fields\",\"to\":\"target:TemplateRecords:dbpErrMsg:\",\"fromPort\":\"target:TemplateRecords:fields\",\"toPort\":\"target:TemplateRecords:dbpErrMsg:\",\"visible\":true,\"common\":false,\"__gohashid\":40954},{\"from\":\"target:TemplateRecords:fields\",\"to\":\"target:TemplateRecords:opstatus:\",\"fromPort\":\"target:TemplateRecords:fields\",\"toPort\":\"target:TemplateRecords:opstatus:\",\"visible\":true,\"common\":false,\"__gohashid\":40955},{\"from\":\"target:TemplateRecords:fields\",\"to\":\"target:TemplateRecords:httpStatusCode:\",\"fromPort\":\"target:TemplateRecords:fields\",\"toPort\":\"target:TemplateRecords:httpStatusCode:\",\"visible\":true,\"common\":false,\"__gohashid\":40956}],\"blockCount\":{\"variableCount\":0},\"variableMap\":{},\"xmlMappingOverride\":true}",
    "applyCommonMapping" : false,
    "applyRequestCommonMapping" : false,
    "applyResponseCommonMapping" : false,
    "backendMeta" : {
      "serviceName" : "dbpBBJavaServices",
      "serviceVersion" : "1.0",
      "operationName" : "FetchAllTemplateRecords"
    },
    "relationshipHierarchyMapping" : {
      "children" : [ ],
      "name" : "TemplateRecords",
      "actions" : { },
      "selected" : true
    },
    "requestXmlMappingOverride" : false,
    "responseXmlMappingOverride" : true
  }
}