{
  "customCode" : {
    "requestProcessorName" : "com.kony.accounts.preprocessors.GetAccountPreProcessor",
    "responseProcessorName" : "com.kony.postprocessors.ShowDownloadStatementObjectServicePostProcessor"
  },
  "operationConfig" : {
    "name" : "showDownloadStatements5684",
    "type" : "MappedToBackend",
    "cachable" : false,
    "smsEnabled" : false,
    "security" : "authorized_app_user",
    "responseEncoding" : "UTF-8",
    "httpMethod" : "GET",
    "decodeResponseBody" : false,
    "iMapping" : "<?xml version=\"1.0\" encoding=\"UTF-8\" standalone=\"yes\"?><mapper xmlns=\"http://www.kony.com/ns/mapper\">    <map inputpath=\"request_in\" outputpath=\"request_out\">    <set-param inputpath=\"accountID\" outputpath=\"Account_id\"/>                      <set-param inputpath=\"year\" outputpath=\"year\"/>                      <set-param inputpath=\"format\" outputpath=\"format\"/>                      <set-param inputpath=\"StatementMonth\" outputpath=\"month\"/>    </map></mapper>",
    "oMapping" : "<?xml version=\"1.0\" encoding=\"UTF-8\" standalone=\"yes\"?><mapper xmlns=\"http://www.kony.com/ns/mapper\">      <map inputpath=\"response_in\" outputpath=\"response_out\">            <map inputpath=\"accountstatement\" outputpath=\"AccountStatement\">                  <set-param inputpath=\"statementLink\" outputpath=\"StatementLink\"/>            </map>    <set-param inputpath=\"errmsg\" outputpath=\"errmsg\"/>  </map></mapper>",
    "iVisualMappingData" : "{\"nodeDataArray\":[{\"isGroup\":true,\"key\":\"request_in\",\"text\":\"AccountStatement\",\"xy\":\"150 100\",\"__gohashid\":23109},{\"isGroup\":true,\"key\":\"request_out\",\"text\":\"dbpRbLocalServicesJava.showDownloadStatements\",\"xy\":\"770 100\",\"__gohashid\":23110}],\"linkDataArray\":[{\"from\":\"source\",\"to\":\"source:AccountStatement\",\"fromPort\":\"source\",\"toPort\":\"source:AccountStatement\",\"visible\":true,\"common\":false,\"__gohashid\":23127},{\"from\":\"source:AccountStatement\",\"to\":\"source:AccountStatement:fields\",\"fromPort\":\"source:AccountStatement\",\"toPort\":\"source:AccountStatement:fields\",\"visible\":true,\"common\":false,\"__gohashid\":23128},{\"from\":\"source:AccountStatement:fields\",\"to\":\"source:AccountStatement:StatementDescription:\",\"fromPort\":\"source:AccountStatement:fields\",\"toPort\":\"source:AccountStatement:StatementDescription:\",\"visible\":true,\"common\":false,\"__gohashid\":23129},{\"from\":\"source:AccountStatement:fields\",\"to\":\"source:AccountStatement:StatementLink:\",\"fromPort\":\"source:AccountStatement:fields\",\"toPort\":\"source:AccountStatement:StatementLink:\",\"visible\":true,\"common\":false,\"__gohashid\":23130},{\"from\":\"source:AccountStatement:fields\",\"to\":\"source:AccountStatement:StatementMonth:\",\"fromPort\":\"source:AccountStatement:fields\",\"toPort\":\"source:AccountStatement:StatementMonth:\",\"visible\":true,\"common\":false,\"__gohashid\":23131},{\"from\":\"source:AccountStatement:fields\",\"to\":\"source:AccountStatement:accountID:\",\"fromPort\":\"source:AccountStatement:fields\",\"toPort\":\"source:AccountStatement:accountID:\",\"visible\":true,\"common\":false,\"__gohashid\":23132},{\"from\":\"source:AccountStatement:fields\",\"to\":\"source:AccountStatement:format:\",\"fromPort\":\"source:AccountStatement:fields\",\"toPort\":\"source:AccountStatement:format:\",\"visible\":true,\"common\":false,\"__gohashid\":23133},{\"from\":\"source:AccountStatement:fields\",\"to\":\"source:AccountStatement:year:\",\"fromPort\":\"source:AccountStatement:fields\",\"toPort\":\"source:AccountStatement:year:\",\"visible\":true,\"common\":false,\"__gohashid\":23134},{\"from\":\"target\",\"to\":\"target:parameters\",\"fromPort\":\"target\",\"toPort\":\"target:parameters\",\"visible\":true,\"common\":false,\"__gohashid\":23135},{\"from\":\"target:parameters\",\"to\":\"target:accountID:\",\"fromPort\":\"target:parameters\",\"toPort\":\"target:accountID:\",\"visible\":true,\"common\":false,\"__gohashid\":23136},{\"from\":\"target:parameters\",\"to\":\"target:format:\",\"fromPort\":\"target:parameters\",\"toPort\":\"target:format:\",\"visible\":true,\"common\":false,\"__gohashid\":23137},{\"from\":\"target:parameters\",\"to\":\"target:StatementMonth:\",\"fromPort\":\"target:parameters\",\"toPort\":\"target:StatementMonth:\",\"visible\":true,\"common\":false,\"__gohashid\":23138},{\"from\":\"target:parameters\",\"to\":\"target:year:\",\"fromPort\":\"target:parameters\",\"toPort\":\"target:year:\",\"visible\":true,\"common\":false,\"__gohashid\":23139}],\"blockCount\":{\"variableCount\":0},\"variableMap\":{},\"xmlMappingOverride\":true}",
    "oVisualMappingData" : "{\"nodeDataArray\":[{\"isGroup\":true,\"key\":\"response_out\",\"text\":\"AccountStatement\",\"xy\":\"770 100\",\"__gohashid\":10919},{\"isGroup\":true,\"key\":\"response_in\",\"text\":\"dbpRbLocalServicesJava (1.0).showDownloadStatements\",\"xy\":\"150 100\",\"__gohashid\":10920}],\"linkDataArray\":[{\"category\":\"Mapping\",\"from\":\"source:AccountStatement:StatementLink:\",\"to\":\"target:AccountStatement:StatementLink:\",\"fromPort\":\"source:AccountStatement:StatementLink:\",\"toPort\":\"target:AccountStatement:StatementLink:\",\"visible\":true,\"common\":true,\"__gohashid\":13590},{\"from\":\"target\",\"to\":\"target:AccountStatement\",\"fromPort\":\"target\",\"toPort\":\"target:AccountStatement\",\"visible\":true,\"common\":false,\"__gohashid\":28608},{\"from\":\"target:AccountStatement\",\"to\":\"target:AccountStatement:fields\",\"fromPort\":\"target:AccountStatement\",\"toPort\":\"target:AccountStatement:fields\",\"visible\":true,\"common\":false,\"__gohashid\":28609},{\"from\":\"target:AccountStatement:fields\",\"to\":\"target:AccountStatement:StatementDescription:\",\"fromPort\":\"target:AccountStatement:fields\",\"toPort\":\"target:AccountStatement:StatementDescription:\",\"visible\":true,\"common\":false,\"__gohashid\":28610},{\"from\":\"target:AccountStatement:fields\",\"to\":\"target:AccountStatement:StatementLink:\",\"fromPort\":\"target:AccountStatement:fields\",\"toPort\":\"target:AccountStatement:StatementLink:\",\"visible\":true,\"common\":false,\"__gohashid\":28611},{\"from\":\"target:AccountStatement:fields\",\"to\":\"target:AccountStatement:StatementMonth:\",\"fromPort\":\"target:AccountStatement:fields\",\"toPort\":\"target:AccountStatement:StatementMonth:\",\"visible\":true,\"common\":false,\"__gohashid\":28612},{\"from\":\"target:AccountStatement:fields\",\"to\":\"target:AccountStatement:accountID:\",\"fromPort\":\"target:AccountStatement:fields\",\"toPort\":\"target:AccountStatement:accountID:\",\"visible\":true,\"common\":false,\"__gohashid\":28613},{\"from\":\"target:AccountStatement:fields\",\"to\":\"target:AccountStatement:format:\",\"fromPort\":\"target:AccountStatement:fields\",\"toPort\":\"target:AccountStatement:format:\",\"visible\":true,\"common\":false,\"__gohashid\":28614},{\"from\":\"target:AccountStatement:fields\",\"to\":\"target:AccountStatement:year:\",\"fromPort\":\"target:AccountStatement:fields\",\"toPort\":\"target:AccountStatement:year:\",\"visible\":true,\"common\":false,\"__gohashid\":28615},{\"from\":\"source\",\"to\":\"source:parameters\",\"fromPort\":\"source\",\"toPort\":\"source:parameters\",\"visible\":true,\"common\":false,\"__gohashid\":28616},{\"from\":\"source:parameters\",\"to\":\"source:errmsg:\",\"fromPort\":\"source:parameters\",\"toPort\":\"source:errmsg:\",\"visible\":true,\"common\":false,\"__gohashid\":28617},{\"from\":\"source\",\"to\":\"source:AccountStatement\",\"fromPort\":\"source\",\"toPort\":\"source:AccountStatement\",\"visible\":true,\"common\":false,\"__gohashid\":28618},{\"from\":\"source:AccountStatement\",\"to\":\"source:AccountStatement:parameters\",\"fromPort\":\"source:AccountStatement\",\"toPort\":\"source:AccountStatement:parameters\",\"visible\":true,\"common\":false,\"__gohashid\":28619},{\"from\":\"source:AccountStatement:parameters\",\"to\":\"source:AccountStatement:StatementLink:\",\"fromPort\":\"source:AccountStatement:parameters\",\"toPort\":\"source:AccountStatement:StatementLink:\",\"visible\":true,\"common\":false,\"__gohashid\":28620}],\"blockCount\":{\"variableCount\":0},\"variableMap\":{},\"xmlMappingOverride\":true}",
    "applyCommonMapping" : false,
    "applyRequestCommonMapping" : false,
    "applyResponseCommonMapping" : false,
    "backendMeta" : {
      "serviceName" : "dbpRbLocalServicesJava",
      "serviceVersion" : "1.0",
      "operationName" : "showDownloadStatements"
    },
    "relationshipHierarchyMapping" : {
      "children" : [ ],
      "name" : "AccountStatement",
      "actions" : { },
      "selected" : true
    },
    "requestXmlMappingOverride" : true,
    "responseXmlMappingOverride" : true
  }
}