{
  "operationConfig" : {
    "name" : "FetchAllACHTransactionsPendingForMyApproval7518",
    "type" : "MappedToBackend",
    "cachable" : false,
    "smsEnabled" : false,
    "security" : "authorized_app_user",
    "responseEncoding" : "UTF-8",
    "httpMethod" : "GET",
    "decodeResponseBody" : false,
    "oMapping" : "<?xml version=\"1.0\" encoding=\"UTF-8\" standalone=\"yes\"?><mapper xmlns=\"http://www.kony.com/ns/mapper\">                  <map inputpath=\"response_in\" outputpath=\"response_out\">                                    <map inputpath=\"fetch_achtransaction_details_view\" outputpath=\"MyApprovals\">                                                                                    <set-param outputpath=\"TransmittedDate\" inputpath=\"EffectiveDate\"/>                                                                                    <set-param outputpath=\"DebitOrCreditAccount\" inputpath=\"DebitAccount\"/>                                                                                    <set-param outputpath=\"RequestType\" inputpath=\"TemplateRequestTypeValue\"/>                                                                                    <set-param outputpath=\"Amount\" inputpath=\"MaxAmount\"/>                   <set-param inputpath=\"TotalAmount\" outputpath=\"TotalAmount\" />                  <set-param outputpath=\"CreatedOn\" inputpath=\"createdts\"/>                                                                                    <set-param outputpath=\"CreatedBy\" inputpath=\"userName\"/>                                                                                    <set-param outputpath=\"BBGeneralTransactionType_id\" inputpath=\"BBGeneralTransactionType_id\"/>                                                                                    <set-param outputpath=\"Status\" inputpath=\"Status\"/>                                                                                    <set-param outputpath=\"TemplateRequestType_id\" inputpath=\"TemplateRequestType_id\"/>                                                                                    <set-param outputpath=\"Request_id\" inputpath=\"Request_id\"/>                                                                                    <set-param outputpath=\"TemplateType_id\" inputpath=\"TemplateType_id\"/>                                                                                    <set-param outputpath=\"CompanyName\" inputpath=\"CompanyName\"/>                                                                                    <set-param outputpath=\"TemplateTypeValue\" inputpath=\"TemplateTypeValue\"/>                                                                                    <set-param outputpath=\"softDelete\" inputpath=\"softDelete\"/>                                                                                    <set-param outputpath=\"TransactionType_id\" inputpath=\"TransactionType_id\"/>                                                                                    <set-param outputpath=\"createdby\" inputpath=\"createdby\"/>                                                                                    <set-param outputpath=\"Company_id\" inputpath=\"Company_id\"/>                                                                                    <set-param outputpath=\"RequestCreatedby\" inputpath=\"RequestCreatedby\"/>                                                                                    <set-param outputpath=\"StatusValue\" inputpath=\"StatusValue\"/>                                                                                    <set-param outputpath=\"TransactionTypeValue\" inputpath=\"TransactionTypeValue\"/>                                                                                    <set-param outputpath=\"Transaction_id\" inputpath=\"Transaction_id\"/>                                                              <set-param outputpath=\"TemplateName\" inputpath=\"TemplateName\"/>                                <set-param inputpath=\"ActedBy\" outputpath=\"ActedBy\" />                          <set-param outputpath=\"userName\" inputpath=\"userName\" />                </map>            <set-param outputpath=\"dbpErrCode\" inputpath=\"dbpErrCode\" />                <set-param outputpath=\"dbpErrMsg\" inputpath=\"dbpErrMsg\" />        <set-param outputpath=\"opstatus\" inputpath=\"opstatus\" />        <set-param outputpath=\"httpStatusCode\" inputpath=\"httpStatusCode\" />       </map></mapper>",
    "oVisualMappingData" : "{\"nodeDataArray\":[{\"isGroup\":true,\"key\":\"response_out\",\"text\":\"MyApprovals\",\"xy\":\"770 100\",\"__gohashid\":331},{\"isGroup\":true,\"key\":\"response_in\",\"text\":\"dbpBBJavaServices (1.0).FetchAllACHTransactionsPendingForMyApproval\",\"xy\":\"150 100\",\"__gohashid\":332}],\"linkDataArray\":[{\"from\":\"target\",\"to\":\"target:MyApprovals\",\"fromPort\":\"target\",\"toPort\":\"target:MyApprovals\",\"visible\":true,\"common\":false,\"__gohashid\":2918},{\"from\":\"target:MyApprovals\",\"to\":\"target:MyApprovals:fields\",\"fromPort\":\"target:MyApprovals\",\"toPort\":\"target:MyApprovals:fields\",\"visible\":true,\"common\":false,\"__gohashid\":2919},{\"from\":\"target:MyApprovals:fields\",\"to\":\"target:MyApprovals:TransactionType:\",\"fromPort\":\"target:MyApprovals:fields\",\"toPort\":\"target:MyApprovals:TransactionType:\",\"visible\":true,\"common\":false,\"__gohashid\":2920},{\"from\":\"target:MyApprovals:fields\",\"to\":\"target:MyApprovals:Status:\",\"fromPort\":\"target:MyApprovals:fields\",\"toPort\":\"target:MyApprovals:Status:\",\"visible\":true,\"common\":false,\"__gohashid\":2921},{\"from\":\"target:MyApprovals:fields\",\"to\":\"target:MyApprovals:Request_id:\",\"fromPort\":\"target:MyApprovals:fields\",\"toPort\":\"target:MyApprovals:Request_id:\",\"visible\":true,\"common\":false,\"__gohashid\":2922},{\"from\":\"target:MyApprovals:fields\",\"to\":\"target:MyApprovals:CompanyName:\",\"fromPort\":\"target:MyApprovals:fields\",\"toPort\":\"target:MyApprovals:CompanyName:\",\"visible\":true,\"common\":false,\"__gohashid\":2923},{\"from\":\"target:MyApprovals:fields\",\"to\":\"target:MyApprovals:DebitAccount:\",\"fromPort\":\"target:MyApprovals:fields\",\"toPort\":\"target:MyApprovals:DebitAccount:\",\"visible\":true,\"common\":false,\"__gohashid\":2924},{\"from\":\"target:MyApprovals:fields\",\"to\":\"target:MyApprovals:Amount:\",\"fromPort\":\"target:MyApprovals:fields\",\"toPort\":\"target:MyApprovals:Amount:\",\"visible\":true,\"common\":false,\"__gohashid\":2925},{\"from\":\"target:MyApprovals:fields\",\"to\":\"target:MyApprovals:CreatedOn:\",\"fromPort\":\"target:MyApprovals:fields\",\"toPort\":\"target:MyApprovals:CreatedOn:\",\"visible\":true,\"common\":false,\"__gohashid\":2926},{\"from\":\"target:MyApprovals:fields\",\"to\":\"target:MyApprovals:CreatedBy:\",\"fromPort\":\"target:MyApprovals:fields\",\"toPort\":\"target:MyApprovals:CreatedBy:\",\"visible\":true,\"common\":false,\"__gohashid\":2927},{\"from\":\"target:MyApprovals:fields\",\"to\":\"target:MyApprovals:Company_id:\",\"fromPort\":\"target:MyApprovals:fields\",\"toPort\":\"target:MyApprovals:Company_id:\",\"visible\":true,\"common\":false,\"__gohashid\":2928},{\"from\":\"target:MyApprovals:fields\",\"to\":\"target:MyApprovals:RequestCreatedby:\",\"fromPort\":\"target:MyApprovals:fields\",\"toPort\":\"target:MyApprovals:RequestCreatedby:\",\"visible\":true,\"common\":false,\"__gohashid\":2929},{\"from\":\"target:MyApprovals:fields\",\"to\":\"target:MyApprovals:Payee:\",\"fromPort\":\"target:MyApprovals:fields\",\"toPort\":\"target:MyApprovals:Payee:\",\"visible\":true,\"common\":false,\"__gohashid\":2930},{\"from\":\"target:MyApprovals:fields\",\"to\":\"target:MyApprovals:Date:\",\"fromPort\":\"target:MyApprovals:fields\",\"toPort\":\"target:MyApprovals:Date:\",\"visible\":true,\"common\":false,\"__gohashid\":2931},{\"from\":\"target:MyApprovals:fields\",\"to\":\"target:MyApprovals:Transaction_id:\",\"fromPort\":\"target:MyApprovals:fields\",\"toPort\":\"target:MyApprovals:Transaction_id:\",\"visible\":true,\"common\":false,\"__gohashid\":2932},{\"from\":\"target:MyApprovals:fields\",\"to\":\"target:MyApprovals:Frequency:\",\"fromPort\":\"target:MyApprovals:fields\",\"toPort\":\"target:MyApprovals:Frequency:\",\"visible\":true,\"common\":false,\"__gohashid\":2933},{\"from\":\"target:MyApprovals:fields\",\"to\":\"target:MyApprovals:Reccurence:\",\"fromPort\":\"target:MyApprovals:fields\",\"toPort\":\"target:MyApprovals:Reccurence:\",\"visible\":true,\"common\":false,\"__gohashid\":2934},{\"from\":\"target:MyApprovals:fields\",\"to\":\"target:MyApprovals:BBGeneralTransactionType_id:\",\"fromPort\":\"target:MyApprovals:fields\",\"toPort\":\"target:MyApprovals:BBGeneralTransactionType_id:\",\"visible\":true,\"common\":false,\"__gohashid\":2935},{\"from\":\"target:MyApprovals:fields\",\"to\":\"target:MyApprovals:StatusId:\",\"fromPort\":\"target:MyApprovals:fields\",\"toPort\":\"target:MyApprovals:StatusId:\",\"visible\":true,\"common\":false,\"__gohashid\":2936},{\"from\":\"target:MyApprovals:fields\",\"to\":\"target:MyApprovals:TemplateRequestTypeId:\",\"fromPort\":\"target:MyApprovals:fields\",\"toPort\":\"target:MyApprovals:TemplateRequestTypeId:\",\"visible\":true,\"common\":false,\"__gohashid\":2937},{\"from\":\"target:MyApprovals:fields\",\"to\":\"target:MyApprovals:userName:\",\"fromPort\":\"target:MyApprovals:fields\",\"toPort\":\"target:MyApprovals:userName:\",\"visible\":true,\"common\":false,\"__gohashid\":2938},{\"from\":\"target:MyApprovals:fields\",\"to\":\"target:MyApprovals:TemplateTypeId:\",\"fromPort\":\"target:MyApprovals:fields\",\"toPort\":\"target:MyApprovals:TemplateTypeId:\",\"visible\":true,\"common\":false,\"__gohashid\":2939},{\"from\":\"target:MyApprovals:fields\",\"to\":\"target:MyApprovals:RequestType:\",\"fromPort\":\"target:MyApprovals:fields\",\"toPort\":\"target:MyApprovals:RequestType:\",\"visible\":true,\"common\":false,\"__gohashid\":2940},{\"from\":\"target:MyApprovals:fields\",\"to\":\"target:MyApprovals:TemplateTypeValue:\",\"fromPort\":\"target:MyApprovals:fields\",\"toPort\":\"target:MyApprovals:TemplateTypeValue:\",\"visible\":true,\"common\":false,\"__gohashid\":2941},{\"from\":\"target:MyApprovals:fields\",\"to\":\"target:MyApprovals:softDelete:\",\"fromPort\":\"target:MyApprovals:fields\",\"toPort\":\"target:MyApprovals:softDelete:\",\"visible\":true,\"common\":false,\"__gohashid\":2942},{\"from\":\"target:MyApprovals:fields\",\"to\":\"target:MyApprovals:TransactionType_id:\",\"fromPort\":\"target:MyApprovals:fields\",\"toPort\":\"target:MyApprovals:TransactionType_id:\",\"visible\":true,\"common\":false,\"__gohashid\":2943},{\"from\":\"target:MyApprovals:fields\",\"to\":\"target:MyApprovals:TemplateType:\",\"fromPort\":\"target:MyApprovals:fields\",\"toPort\":\"target:MyApprovals:TemplateType:\",\"visible\":true,\"common\":false,\"__gohashid\":2944},{\"from\":\"target:MyApprovals:fields\",\"to\":\"target:MyApprovals:TransmittedDate:\",\"fromPort\":\"target:MyApprovals:fields\",\"toPort\":\"target:MyApprovals:TransmittedDate:\",\"visible\":true,\"common\":false,\"__gohashid\":2945},{\"from\":\"target:MyApprovals:fields\",\"to\":\"target:MyApprovals:TransactionId:\",\"fromPort\":\"target:MyApprovals:fields\",\"toPort\":\"target:MyApprovals:TransactionId:\",\"visible\":true,\"common\":false,\"__gohashid\":2946},{\"from\":\"target:MyApprovals:fields\",\"to\":\"target:MyApprovals:UpdatedDateAndTime:\",\"fromPort\":\"target:MyApprovals:fields\",\"toPort\":\"target:MyApprovals:UpdatedDateAndTime:\",\"visible\":true,\"common\":false,\"__gohashid\":2947},{\"from\":\"target:MyApprovals:fields\",\"to\":\"target:MyApprovals:MaxAmount:\",\"fromPort\":\"target:MyApprovals:fields\",\"toPort\":\"target:MyApprovals:MaxAmount:\",\"visible\":true,\"common\":false,\"__gohashid\":2948},{\"from\":\"target:MyApprovals:fields\",\"to\":\"target:MyApprovals:FileName:\",\"fromPort\":\"target:MyApprovals:fields\",\"toPort\":\"target:MyApprovals:FileName:\",\"visible\":true,\"common\":false,\"__gohashid\":2949},{\"from\":\"target:MyApprovals:fields\",\"to\":\"target:MyApprovals:NumberOfDebits:\",\"fromPort\":\"target:MyApprovals:fields\",\"toPort\":\"target:MyApprovals:NumberOfDebits:\",\"visible\":true,\"common\":false,\"__gohashid\":2950},{\"from\":\"target:MyApprovals:fields\",\"to\":\"target:MyApprovals:NumberOfPrenotes:\",\"fromPort\":\"target:MyApprovals:fields\",\"toPort\":\"target:MyApprovals:NumberOfPrenotes:\",\"visible\":true,\"common\":false,\"__gohashid\":2951},{\"from\":\"target:MyApprovals:fields\",\"to\":\"target:MyApprovals:NumberOfCredits:\",\"fromPort\":\"target:MyApprovals:fields\",\"toPort\":\"target:MyApprovals:NumberOfCredits:\",\"visible\":true,\"common\":false,\"__gohashid\":2952},{\"from\":\"target:MyApprovals:fields\",\"to\":\"target:MyApprovals:formatType:\",\"fromPort\":\"target:MyApprovals:fields\",\"toPort\":\"target:MyApprovals:formatType:\",\"visible\":true,\"common\":false,\"__gohashid\":2953},{\"from\":\"target:MyApprovals:fields\",\"to\":\"target:MyApprovals:ACHFileFormatType_id:\",\"fromPort\":\"target:MyApprovals:fields\",\"toPort\":\"target:MyApprovals:ACHFileFormatType_id:\",\"visible\":true,\"common\":false,\"__gohashid\":2954},{\"from\":\"target:MyApprovals:fields\",\"to\":\"target:MyApprovals:ACHFile_id:\",\"fromPort\":\"target:MyApprovals:fields\",\"toPort\":\"target:MyApprovals:ACHFile_id:\",\"visible\":true,\"common\":false,\"__gohashid\":2955},{\"from\":\"target:MyApprovals:fields\",\"to\":\"target:MyApprovals:FileSize:\",\"fromPort\":\"target:MyApprovals:fields\",\"toPort\":\"target:MyApprovals:FileSize:\",\"visible\":true,\"common\":false,\"__gohashid\":2956},{\"from\":\"target:MyApprovals:fields\",\"to\":\"target:MyApprovals:TotalDebitAmount:\",\"fromPort\":\"target:MyApprovals:fields\",\"toPort\":\"target:MyApprovals:TotalDebitAmount:\",\"visible\":true,\"common\":false,\"__gohashid\":2957},{\"from\":\"target:MyApprovals:fields\",\"to\":\"target:MyApprovals:TotalCreditAmount:\",\"fromPort\":\"target:MyApprovals:fields\",\"toPort\":\"target:MyApprovals:TotalCreditAmount:\",\"visible\":true,\"common\":false,\"__gohashid\":2958},{\"from\":\"target:MyApprovals:fields\",\"to\":\"target:MyApprovals:FileRequestType:\",\"fromPort\":\"target:MyApprovals:fields\",\"toPort\":\"target:MyApprovals:FileRequestType:\",\"visible\":true,\"common\":false,\"__gohashid\":2959},{\"from\":\"target:MyApprovals:fields\",\"to\":\"target:MyApprovals:DebitOrCreditAccount:\",\"fromPort\":\"target:MyApprovals:fields\",\"toPort\":\"target:MyApprovals:DebitOrCreditAccount:\",\"visible\":true,\"common\":false,\"__gohashid\":2960},{\"from\":\"target:MyApprovals:fields\",\"to\":\"target:MyApprovals:TemplateType_id:\",\"fromPort\":\"target:MyApprovals:fields\",\"toPort\":\"target:MyApprovals:TemplateType_id:\",\"visible\":true,\"common\":false,\"__gohashid\":2961},{\"from\":\"target:MyApprovals:fields\",\"to\":\"target:MyApprovals:TransactionTypeValue:\",\"fromPort\":\"target:MyApprovals:fields\",\"toPort\":\"target:MyApprovals:TransactionTypeValue:\",\"visible\":true,\"common\":false,\"__gohashid\":2962},{\"from\":\"target:MyApprovals:fields\",\"to\":\"target:MyApprovals:TemplateName:\",\"fromPort\":\"target:MyApprovals:fields\",\"toPort\":\"target:MyApprovals:TemplateName:\",\"visible\":true,\"common\":false,\"__gohashid\":2963},{\"from\":\"target:MyApprovals:fields\",\"to\":\"target:MyApprovals:createdts:\",\"fromPort\":\"target:MyApprovals:fields\",\"toPort\":\"target:MyApprovals:createdts:\",\"visible\":true,\"common\":false,\"__gohashid\":2964},{\"from\":\"target:MyApprovals:fields\",\"to\":\"target:MyApprovals:ActedBy:\",\"fromPort\":\"target:MyApprovals:fields\",\"toPort\":\"target:MyApprovals:ActedBy:\",\"visible\":true,\"common\":false,\"__gohashid\":2965},{\"from\":\"target:MyApprovals:fields\",\"to\":\"target:MyApprovals:Action:\",\"fromPort\":\"target:MyApprovals:fields\",\"toPort\":\"target:MyApprovals:Action:\",\"visible\":true,\"common\":false,\"__gohashid\":2966},{\"from\":\"target:MyApprovals:fields\",\"to\":\"target:MyApprovals:Comments:\",\"fromPort\":\"target:MyApprovals:fields\",\"toPort\":\"target:MyApprovals:Comments:\",\"visible\":true,\"common\":false,\"__gohashid\":2967},{\"from\":\"target:MyApprovals:fields\",\"to\":\"target:MyApprovals:FileStatus:\",\"fromPort\":\"target:MyApprovals:fields\",\"toPort\":\"target:MyApprovals:FileStatus:\",\"visible\":true,\"common\":false,\"__gohashid\":2968},{\"from\":\"target:MyApprovals:fields\",\"to\":\"target:MyApprovals:TotalAmount:\",\"fromPort\":\"target:MyApprovals:fields\",\"toPort\":\"target:MyApprovals:TotalAmount:\",\"visible\":true,\"common\":false,\"__gohashid\":2969},{\"from\":\"target:MyApprovals:fields\",\"to\":\"target:MyApprovals:dbpErrCode:\",\"fromPort\":\"target:MyApprovals:fields\",\"toPort\":\"target:MyApprovals:dbpErrCode:\",\"visible\":true,\"common\":false,\"__gohashid\":2970},{\"from\":\"target:MyApprovals:fields\",\"to\":\"target:MyApprovals:dbpErrMsg:\",\"fromPort\":\"target:MyApprovals:fields\",\"toPort\":\"target:MyApprovals:dbpErrMsg:\",\"visible\":true,\"common\":false,\"__gohashid\":2971},{\"from\":\"target:MyApprovals:fields\",\"to\":\"target:MyApprovals:opstatus:\",\"fromPort\":\"target:MyApprovals:fields\",\"toPort\":\"target:MyApprovals:opstatus:\",\"visible\":true,\"common\":false,\"__gohashid\":2972},{\"from\":\"target:MyApprovals:fields\",\"to\":\"target:MyApprovals:httpStatusCode:\",\"fromPort\":\"target:MyApprovals:fields\",\"toPort\":\"target:MyApprovals:httpStatusCode:\",\"visible\":true,\"common\":false,\"__gohashid\":2973}],\"blockCount\":{\"variableCount\":0},\"variableMap\":{},\"xmlMappingOverride\":true}",
    "applyCommonMapping" : false,
    "applyRequestCommonMapping" : true,
    "applyResponseCommonMapping" : false,
    "backendMeta" : {
      "serviceName" : "dbpBBJavaServices",
      "serviceVersion" : "1.0",
      "operationName" : "FetchAllACHTransactionsPendingForMyApproval"
    },
    "relationshipHierarchyMapping" : {
      "children" : [ ],
      "name" : "MyApprovals",
      "actions" : { },
      "selected" : true
    },
    "requestXmlMappingOverride" : false,
    "responseXmlMappingOverride" : true
  }
}