{
  "operationConfig" : {
    "name" : "deletePayee9557",
    "type" : "MappedToBackend",
    "cachable" : false,
    "smsEnabled" : false,
    "security" : "authorized_app_user",
    "responseEncoding" : "UTF-8",
    "httpMethod" : "GET",
    "decodeResponseBody" : false,
    "iMapping" : "<?xml version=\"1.0\" encoding=\"UTF-8\" standalone=\"yes\"?><mapper xmlns=\"http://www.kony.com/ns/mapper\">    <map inputpath=\"request_in\" outputpath=\"request_out\">        <set-param inputpath=\"payeeId\" outputpath=\"payeeId\"/>           <set-param inputpath=\"cancelPendingTransactions\" outputpath=\"cancelPendingTransactions\"/>       </map></mapper>",
    "oMapping" : "<?xml version=\"1.0\" encoding=\"UTF-8\" standalone=\"yes\"?><mapper xmlns=\"http://www.kony.com/ns/mapper\">    <map inputpath=\"response_in\" outputpath=\"response_out\">                  <map inputpath=\"success\" outputpath=\"success\"/>                  <map inputpath=\"result\" outputpath=\"result\">                           \t                        <map inputpath=\"success\" outputpath=\"success\"/>        \t\t                        <map inputpath=\"resultInfo\" outputpath=\"resultInfo\">                                               <map inputpath=\"description\" outputpath=\"description\"/>     \t                            </map>     \t                 </map>            </map></mapper>",
    "iVisualMappingData" : "{\"nodeDataArray\":[{\"isGroup\":true,\"key\":\"request_in\",\"text\":\"Payee\",\"xy\":\"150 100\",\"__gohashid\":573},{\"isGroup\":true,\"key\":\"request_out\",\"text\":\"CheckFreeNextOrch (1.0).deletePayee\",\"xy\":\"770 100\",\"__gohashid\":574}],\"linkDataArray\":[{\"from\":\"source\",\"to\":\"source:Payee\",\"fromPort\":\"source\",\"toPort\":\"source:Payee\",\"visible\":true,\"common\":false,\"__gohashid\":644},{\"from\":\"source:Payee\",\"to\":\"source:Payee:fields\",\"fromPort\":\"source:Payee\",\"toPort\":\"source:Payee:fields\",\"visible\":true,\"common\":false,\"__gohashid\":645},{\"from\":\"source:Payee:fields\",\"to\":\"source:Payee:accountNumber:\",\"fromPort\":\"source:Payee:fields\",\"toPort\":\"source:Payee:accountNumber:\",\"visible\":true,\"common\":false,\"__gohashid\":646},{\"from\":\"source:Payee:fields\",\"to\":\"source:Payee:addressLine1:\",\"fromPort\":\"source:Payee:fields\",\"toPort\":\"source:Payee:addressLine1:\",\"visible\":true,\"common\":false,\"__gohashid\":647},{\"from\":\"source:Payee:fields\",\"to\":\"source:Payee:addressLine2:\",\"fromPort\":\"source:Payee:fields\",\"toPort\":\"source:Payee:addressLine2:\",\"visible\":true,\"common\":false,\"__gohashid\":648},{\"from\":\"source:Payee:fields\",\"to\":\"source:Payee:billDescription:\",\"fromPort\":\"source:Payee:fields\",\"toPort\":\"source:Payee:billDescription:\",\"visible\":true,\"common\":false,\"__gohashid\":649},{\"from\":\"source:Payee:fields\",\"to\":\"source:Payee:billDueDate:\",\"fromPort\":\"source:Payee:fields\",\"toPort\":\"source:Payee:billDueDate:\",\"visible\":true,\"common\":false,\"__gohashid\":650},{\"from\":\"source:Payee:fields\",\"to\":\"source:Payee:billerCategory:\",\"fromPort\":\"source:Payee:fields\",\"toPort\":\"source:Payee:billerCategory:\",\"visible\":true,\"common\":false,\"__gohashid\":651},{\"from\":\"source:Payee:fields\",\"to\":\"source:Payee:billerId:\",\"fromPort\":\"source:Payee:fields\",\"toPort\":\"source:Payee:billerId:\",\"visible\":true,\"common\":false,\"__gohashid\":652},{\"from\":\"source:Payee:fields\",\"to\":\"source:Payee:billGeneratedDate:\",\"fromPort\":\"source:Payee:fields\",\"toPort\":\"source:Payee:billGeneratedDate:\",\"visible\":true,\"common\":false,\"__gohashid\":653},{\"from\":\"source:Payee:fields\",\"to\":\"source:Payee:billid:\",\"fromPort\":\"source:Payee:fields\",\"toPort\":\"source:Payee:billid:\",\"visible\":true,\"common\":false,\"__gohashid\":654},{\"from\":\"source:Payee:fields\",\"to\":\"source:Payee:cityName:\",\"fromPort\":\"source:Payee:fields\",\"toPort\":\"source:Payee:cityName:\",\"visible\":true,\"common\":false,\"__gohashid\":655},{\"from\":\"source:Payee:fields\",\"to\":\"source:Payee:companyName:\",\"fromPort\":\"source:Payee:fields\",\"toPort\":\"source:Payee:companyName:\",\"visible\":true,\"common\":false,\"__gohashid\":656},{\"from\":\"source:Payee:fields\",\"to\":\"source:Payee:dueAmount:\",\"fromPort\":\"source:Payee:fields\",\"toPort\":\"source:Payee:dueAmount:\",\"visible\":true,\"common\":false,\"__gohashid\":657},{\"from\":\"source:Payee:fields\",\"to\":\"source:Payee:EBillEnable:\",\"fromPort\":\"source:Payee:fields\",\"toPort\":\"source:Payee:EBillEnable:\",\"visible\":true,\"common\":false,\"__gohashid\":658},{\"from\":\"source:Payee:fields\",\"to\":\"source:Payee:eBillStatus:\",\"fromPort\":\"source:Payee:fields\",\"toPort\":\"source:Payee:eBillStatus:\",\"visible\":true,\"common\":false,\"__gohashid\":659},{\"from\":\"source:Payee:fields\",\"to\":\"source:Payee:eBillSupport:\",\"fromPort\":\"source:Payee:fields\",\"toPort\":\"source:Payee:eBillSupport:\",\"visible\":true,\"common\":false,\"__gohashid\":660},{\"from\":\"source:Payee:fields\",\"to\":\"source:Payee:ebillURL:\",\"fromPort\":\"source:Payee:fields\",\"toPort\":\"source:Payee:ebillURL:\",\"visible\":true,\"common\":false,\"__gohashid\":661},{\"from\":\"source:Payee:fields\",\"to\":\"source:Payee:email:\",\"fromPort\":\"source:Payee:fields\",\"toPort\":\"source:Payee:email:\",\"visible\":true,\"common\":false,\"__gohashid\":662},{\"from\":\"source:Payee:fields\",\"to\":\"source:Payee:errmsg:\",\"fromPort\":\"source:Payee:fields\",\"toPort\":\"source:Payee:errmsg:\",\"visible\":true,\"common\":false,\"__gohashid\":663},{\"from\":\"source:Payee:fields\",\"to\":\"source:Payee:lastPaidAmount:\",\"fromPort\":\"source:Payee:fields\",\"toPort\":\"source:Payee:lastPaidAmount:\",\"visible\":true,\"common\":false,\"__gohashid\":664},{\"from\":\"source:Payee:fields\",\"to\":\"source:Payee:lastPaidDate:\",\"fromPort\":\"source:Payee:fields\",\"toPort\":\"source:Payee:lastPaidDate:\",\"visible\":true,\"common\":false,\"__gohashid\":665},{\"from\":\"source:Payee:fields\",\"to\":\"source:Payee:limit:\",\"fromPort\":\"source:Payee:fields\",\"toPort\":\"source:Payee:limit:\",\"visible\":true,\"common\":false,\"__gohashid\":666},{\"from\":\"source:Payee:fields\",\"to\":\"source:Payee:nameOnBill:\",\"fromPort\":\"source:Payee:fields\",\"toPort\":\"source:Payee:nameOnBill:\",\"visible\":true,\"common\":false,\"__gohashid\":667},{\"from\":\"source:Payee:fields\",\"to\":\"source:Payee:notes:\",\"fromPort\":\"source:Payee:fields\",\"toPort\":\"source:Payee:notes:\",\"visible\":true,\"common\":false,\"__gohashid\":668},{\"from\":\"source:Payee:fields\",\"to\":\"source:Payee:offset:\",\"fromPort\":\"source:Payee:fields\",\"toPort\":\"source:Payee:offset:\",\"visible\":true,\"common\":false,\"__gohashid\":669},{\"from\":\"source:Payee:fields\",\"to\":\"source:Payee:order:\",\"fromPort\":\"source:Payee:fields\",\"toPort\":\"source:Payee:order:\",\"visible\":true,\"common\":false,\"__gohashid\":670},{\"from\":\"source:Payee:fields\",\"to\":\"source:Payee:paidAmount:\",\"fromPort\":\"source:Payee:fields\",\"toPort\":\"source:Payee:paidAmount:\",\"visible\":true,\"common\":false,\"__gohashid\":671},{\"from\":\"source:Payee:fields\",\"to\":\"source:Payee:payeeAccountNumber:\",\"fromPort\":\"source:Payee:fields\",\"toPort\":\"source:Payee:payeeAccountNumber:\",\"visible\":true,\"common\":false,\"__gohashid\":672},{\"from\":\"source:Payee:fields\",\"to\":\"source:Payee:payeeId:\",\"fromPort\":\"source:Payee:fields\",\"toPort\":\"source:Payee:payeeId:\",\"visible\":true,\"common\":false,\"__gohashid\":673},{\"from\":\"source:Payee:fields\",\"to\":\"source:Payee:payeeName:\",\"fromPort\":\"source:Payee:fields\",\"toPort\":\"source:Payee:payeeName:\",\"visible\":true,\"common\":false,\"__gohashid\":674},{\"from\":\"source:Payee:fields\",\"to\":\"source:Payee:payeeNickName:\",\"fromPort\":\"source:Payee:fields\",\"toPort\":\"source:Payee:payeeNickName:\",\"visible\":true,\"common\":false,\"__gohashid\":675},{\"from\":\"source:Payee:fields\",\"to\":\"source:Payee:phone:\",\"fromPort\":\"source:Payee:fields\",\"toPort\":\"source:Payee:phone:\",\"visible\":true,\"common\":false,\"__gohashid\":676},{\"from\":\"source:Payee:fields\",\"to\":\"source:Payee:searchString:\",\"fromPort\":\"source:Payee:fields\",\"toPort\":\"source:Payee:searchString:\",\"visible\":true,\"common\":false,\"__gohashid\":677},{\"from\":\"source:Payee:fields\",\"to\":\"source:Payee:sortBy:\",\"fromPort\":\"source:Payee:fields\",\"toPort\":\"source:Payee:sortBy:\",\"visible\":true,\"common\":false,\"__gohashid\":678},{\"from\":\"source:Payee:fields\",\"to\":\"source:Payee:state:\",\"fromPort\":\"source:Payee:fields\",\"toPort\":\"source:Payee:state:\",\"visible\":true,\"common\":false,\"__gohashid\":679},{\"from\":\"source:Payee:fields\",\"to\":\"source:Payee:street:\",\"fromPort\":\"source:Payee:fields\",\"toPort\":\"source:Payee:street:\",\"visible\":true,\"common\":false,\"__gohashid\":680},{\"from\":\"source:Payee:fields\",\"to\":\"source:Payee:success:\",\"fromPort\":\"source:Payee:fields\",\"toPort\":\"source:Payee:success:\",\"visible\":true,\"common\":false,\"__gohashid\":681},{\"from\":\"source:Payee:fields\",\"to\":\"source:Payee:zipCode:\",\"fromPort\":\"source:Payee:fields\",\"toPort\":\"source:Payee:zipCode:\",\"visible\":true,\"common\":false,\"__gohashid\":682},{\"from\":\"source:Payee:fields\",\"to\":\"source:Payee:type:\",\"fromPort\":\"source:Payee:fields\",\"toPort\":\"source:Payee:type:\",\"visible\":true,\"common\":false,\"__gohashid\":683},{\"from\":\"source:Payee:fields\",\"to\":\"source:Payee:country:\",\"fromPort\":\"source:Payee:fields\",\"toPort\":\"source:Payee:country:\",\"visible\":true,\"common\":false,\"__gohashid\":684},{\"from\":\"source:Payee:fields\",\"to\":\"source:Payee:swiftCode:\",\"fromPort\":\"source:Payee:fields\",\"toPort\":\"source:Payee:swiftCode:\",\"visible\":true,\"common\":false,\"__gohashid\":685},{\"from\":\"source:Payee:fields\",\"to\":\"source:Payee:routingCode:\",\"fromPort\":\"source:Payee:fields\",\"toPort\":\"source:Payee:routingCode:\",\"visible\":true,\"common\":false,\"__gohashid\":686},{\"from\":\"source:Payee:fields\",\"to\":\"source:Payee:bankName:\",\"fromPort\":\"source:Payee:fields\",\"toPort\":\"source:Payee:bankName:\",\"visible\":true,\"common\":false,\"__gohashid\":687},{\"from\":\"source:Payee:fields\",\"to\":\"source:Payee:bankAddressLine1:\",\"fromPort\":\"source:Payee:fields\",\"toPort\":\"source:Payee:bankAddressLine1:\",\"visible\":true,\"common\":false,\"__gohashid\":688},{\"from\":\"source:Payee:fields\",\"to\":\"source:Payee:bankAddressLine2:\",\"fromPort\":\"source:Payee:fields\",\"toPort\":\"source:Payee:bankAddressLine2:\",\"visible\":true,\"common\":false,\"__gohashid\":689},{\"from\":\"source:Payee:fields\",\"to\":\"source:Payee:bankCity:\",\"fromPort\":\"source:Payee:fields\",\"toPort\":\"source:Payee:bankCity:\",\"visible\":true,\"common\":false,\"__gohashid\":690},{\"from\":\"source:Payee:fields\",\"to\":\"source:Payee:bankState:\",\"fromPort\":\"source:Payee:fields\",\"toPort\":\"source:Payee:bankState:\",\"visible\":true,\"common\":false,\"__gohashid\":691},{\"from\":\"source:Payee:fields\",\"to\":\"source:Payee:bankZip:\",\"fromPort\":\"source:Payee:fields\",\"toPort\":\"source:Payee:bankZip:\",\"visible\":true,\"common\":false,\"__gohashid\":692},{\"from\":\"source:Payee:fields\",\"to\":\"source:Payee:IBAN:\",\"fromPort\":\"source:Payee:fields\",\"toPort\":\"source:Payee:IBAN:\",\"visible\":true,\"common\":false,\"__gohashid\":693},{\"from\":\"source:Payee:fields\",\"to\":\"source:Payee:wireAccountType:\",\"fromPort\":\"source:Payee:fields\",\"toPort\":\"source:Payee:wireAccountType:\",\"visible\":true,\"common\":false,\"__gohashid\":694},{\"from\":\"source:Payee:fields\",\"to\":\"source:Payee:internationalRoutingCode:\",\"fromPort\":\"source:Payee:fields\",\"toPort\":\"source:Payee:internationalRoutingCode:\",\"visible\":true,\"common\":false,\"__gohashid\":695},{\"from\":\"source:Payee:fields\",\"to\":\"source:Payee:transactionId:\",\"fromPort\":\"source:Payee:fields\",\"toPort\":\"source:Payee:transactionId:\",\"visible\":true,\"common\":false,\"__gohashid\":696},{\"from\":\"source:Payee:fields\",\"to\":\"source:Payee:isManuallyAdded:\",\"fromPort\":\"source:Payee:fields\",\"toPort\":\"source:Payee:isManuallyAdded:\",\"visible\":true,\"common\":false,\"__gohashid\":697},{\"from\":\"source:Payee:fields\",\"to\":\"source:Payee:phoneExtension:\",\"fromPort\":\"source:Payee:fields\",\"toPort\":\"source:Payee:phoneExtension:\",\"visible\":true,\"common\":false,\"__gohashid\":698},{\"from\":\"source:Payee:fields\",\"to\":\"source:Payee:phoneCountryCode:\",\"fromPort\":\"source:Payee:fields\",\"toPort\":\"source:Payee:phoneCountryCode:\",\"visible\":true,\"common\":false,\"__gohashid\":699},{\"from\":\"source:Payee:fields\",\"to\":\"source:Payee:isWiredRecepient:\",\"fromPort\":\"source:Payee:fields\",\"toPort\":\"source:Payee:isWiredRecepient:\",\"visible\":true,\"common\":false,\"__gohashid\":700},{\"from\":\"source:Payee:fields\",\"to\":\"source:Payee:beneficiaryId:\",\"fromPort\":\"source:Payee:fields\",\"toPort\":\"source:Payee:beneficiaryId:\",\"visible\":true,\"common\":false,\"__gohashid\":701},{\"from\":\"source:Payee:fields\",\"to\":\"source:Payee:fromAccountCurrency:\",\"fromPort\":\"source:Payee:fields\",\"toPort\":\"source:Payee:fromAccountCurrency:\",\"visible\":true,\"common\":false,\"__gohashid\":702},{\"from\":\"source:Payee:fields\",\"to\":\"source:Payee:toAccountCurrency:\",\"fromPort\":\"source:Payee:fields\",\"toPort\":\"source:Payee:toAccountCurrency:\",\"visible\":true,\"common\":false,\"__gohashid\":703},{\"from\":\"source:Payee:fields\",\"to\":\"source:Payee:totalRecordCount:\",\"fromPort\":\"source:Payee:fields\",\"toPort\":\"source:Payee:totalRecordCount:\",\"visible\":true,\"common\":false,\"__gohashid\":704},{\"from\":\"source:Payee:fields\",\"to\":\"source:Payee:isManaged:\",\"fromPort\":\"source:Payee:fields\",\"toPort\":\"source:Payee:isManaged:\",\"visible\":true,\"common\":false,\"__gohashid\":705},{\"from\":\"source:Payee:fields\",\"to\":\"source:Payee:cancelPendingTransactions:\",\"fromPort\":\"source:Payee:fields\",\"toPort\":\"source:Payee:cancelPendingTransactions:\",\"visible\":true,\"common\":false,\"__gohashid\":706},{\"from\":\"target\",\"to\":\"target:parameters\",\"fromPort\":\"target\",\"toPort\":\"target:parameters\",\"visible\":true,\"common\":false,\"__gohashid\":707},{\"from\":\"target:parameters\",\"to\":\"target:cancelPendingTransactions:\",\"fromPort\":\"target:parameters\",\"toPort\":\"target:cancelPendingTransactions:\",\"visible\":true,\"common\":false,\"__gohashid\":708},{\"from\":\"target:parameters\",\"to\":\"target:payeeId:\",\"fromPort\":\"target:parameters\",\"toPort\":\"target:payeeId:\",\"visible\":true,\"common\":false,\"__gohashid\":709}],\"blockCount\":{\"variableCount\":0},\"variableMap\":{},\"xmlMappingOverride\":true}",
    "oVisualMappingData" : "{\"nodeDataArray\":[{\"isGroup\":true,\"key\":\"response_out\",\"text\":\"Payee\",\"xy\":\"770 100\",\"__gohashid\":12137},{\"isGroup\":true,\"key\":\"response_in\",\"text\":\"CheckFreeNextOrch (1.0).deletePayee\",\"xy\":\"150 100\",\"__gohashid\":12138}],\"linkDataArray\":[{\"from\":\"target\",\"to\":\"target:Payee\",\"fromPort\":\"target\",\"toPort\":\"target:Payee\",\"visible\":true,\"common\":false,\"__gohashid\":12211},{\"from\":\"target:Payee\",\"to\":\"target:Payee:fields\",\"fromPort\":\"target:Payee\",\"toPort\":\"target:Payee:fields\",\"visible\":true,\"common\":false,\"__gohashid\":12212},{\"from\":\"target:Payee:fields\",\"to\":\"target:Payee:accountNumber:\",\"fromPort\":\"target:Payee:fields\",\"toPort\":\"target:Payee:accountNumber:\",\"visible\":true,\"common\":false,\"__gohashid\":12213},{\"from\":\"target:Payee:fields\",\"to\":\"target:Payee:addressLine1:\",\"fromPort\":\"target:Payee:fields\",\"toPort\":\"target:Payee:addressLine1:\",\"visible\":true,\"common\":false,\"__gohashid\":12214},{\"from\":\"target:Payee:fields\",\"to\":\"target:Payee:addressLine2:\",\"fromPort\":\"target:Payee:fields\",\"toPort\":\"target:Payee:addressLine2:\",\"visible\":true,\"common\":false,\"__gohashid\":12215},{\"from\":\"target:Payee:fields\",\"to\":\"target:Payee:billDescription:\",\"fromPort\":\"target:Payee:fields\",\"toPort\":\"target:Payee:billDescription:\",\"visible\":true,\"common\":false,\"__gohashid\":12216},{\"from\":\"target:Payee:fields\",\"to\":\"target:Payee:billDueDate:\",\"fromPort\":\"target:Payee:fields\",\"toPort\":\"target:Payee:billDueDate:\",\"visible\":true,\"common\":false,\"__gohashid\":12217},{\"from\":\"target:Payee:fields\",\"to\":\"target:Payee:billerCategory:\",\"fromPort\":\"target:Payee:fields\",\"toPort\":\"target:Payee:billerCategory:\",\"visible\":true,\"common\":false,\"__gohashid\":12218},{\"from\":\"target:Payee:fields\",\"to\":\"target:Payee:billerId:\",\"fromPort\":\"target:Payee:fields\",\"toPort\":\"target:Payee:billerId:\",\"visible\":true,\"common\":false,\"__gohashid\":12219},{\"from\":\"target:Payee:fields\",\"to\":\"target:Payee:billGeneratedDate:\",\"fromPort\":\"target:Payee:fields\",\"toPort\":\"target:Payee:billGeneratedDate:\",\"visible\":true,\"common\":false,\"__gohashid\":12220},{\"from\":\"target:Payee:fields\",\"to\":\"target:Payee:billid:\",\"fromPort\":\"target:Payee:fields\",\"toPort\":\"target:Payee:billid:\",\"visible\":true,\"common\":false,\"__gohashid\":12221},{\"from\":\"target:Payee:fields\",\"to\":\"target:Payee:cityName:\",\"fromPort\":\"target:Payee:fields\",\"toPort\":\"target:Payee:cityName:\",\"visible\":true,\"common\":false,\"__gohashid\":12222},{\"from\":\"target:Payee:fields\",\"to\":\"target:Payee:companyName:\",\"fromPort\":\"target:Payee:fields\",\"toPort\":\"target:Payee:companyName:\",\"visible\":true,\"common\":false,\"__gohashid\":12223},{\"from\":\"target:Payee:fields\",\"to\":\"target:Payee:dueAmount:\",\"fromPort\":\"target:Payee:fields\",\"toPort\":\"target:Payee:dueAmount:\",\"visible\":true,\"common\":false,\"__gohashid\":12224},{\"from\":\"target:Payee:fields\",\"to\":\"target:Payee:EBillEnable:\",\"fromPort\":\"target:Payee:fields\",\"toPort\":\"target:Payee:EBillEnable:\",\"visible\":true,\"common\":false,\"__gohashid\":12225},{\"from\":\"target:Payee:fields\",\"to\":\"target:Payee:eBillStatus:\",\"fromPort\":\"target:Payee:fields\",\"toPort\":\"target:Payee:eBillStatus:\",\"visible\":true,\"common\":false,\"__gohashid\":12226},{\"from\":\"target:Payee:fields\",\"to\":\"target:Payee:eBillSupport:\",\"fromPort\":\"target:Payee:fields\",\"toPort\":\"target:Payee:eBillSupport:\",\"visible\":true,\"common\":false,\"__gohashid\":12227},{\"from\":\"target:Payee:fields\",\"to\":\"target:Payee:ebillURL:\",\"fromPort\":\"target:Payee:fields\",\"toPort\":\"target:Payee:ebillURL:\",\"visible\":true,\"common\":false,\"__gohashid\":12228},{\"from\":\"target:Payee:fields\",\"to\":\"target:Payee:email:\",\"fromPort\":\"target:Payee:fields\",\"toPort\":\"target:Payee:email:\",\"visible\":true,\"common\":false,\"__gohashid\":12229},{\"from\":\"target:Payee:fields\",\"to\":\"target:Payee:errmsg:\",\"fromPort\":\"target:Payee:fields\",\"toPort\":\"target:Payee:errmsg:\",\"visible\":true,\"common\":false,\"__gohashid\":12230},{\"from\":\"target:Payee:fields\",\"to\":\"target:Payee:lastPaidAmount:\",\"fromPort\":\"target:Payee:fields\",\"toPort\":\"target:Payee:lastPaidAmount:\",\"visible\":true,\"common\":false,\"__gohashid\":12231},{\"from\":\"target:Payee:fields\",\"to\":\"target:Payee:lastPaidDate:\",\"fromPort\":\"target:Payee:fields\",\"toPort\":\"target:Payee:lastPaidDate:\",\"visible\":true,\"common\":false,\"__gohashid\":12232},{\"from\":\"target:Payee:fields\",\"to\":\"target:Payee:limit:\",\"fromPort\":\"target:Payee:fields\",\"toPort\":\"target:Payee:limit:\",\"visible\":true,\"common\":false,\"__gohashid\":12233},{\"from\":\"target:Payee:fields\",\"to\":\"target:Payee:nameOnBill:\",\"fromPort\":\"target:Payee:fields\",\"toPort\":\"target:Payee:nameOnBill:\",\"visible\":true,\"common\":false,\"__gohashid\":12234},{\"from\":\"target:Payee:fields\",\"to\":\"target:Payee:notes:\",\"fromPort\":\"target:Payee:fields\",\"toPort\":\"target:Payee:notes:\",\"visible\":true,\"common\":false,\"__gohashid\":12235},{\"from\":\"target:Payee:fields\",\"to\":\"target:Payee:offset:\",\"fromPort\":\"target:Payee:fields\",\"toPort\":\"target:Payee:offset:\",\"visible\":true,\"common\":false,\"__gohashid\":12236},{\"from\":\"target:Payee:fields\",\"to\":\"target:Payee:order:\",\"fromPort\":\"target:Payee:fields\",\"toPort\":\"target:Payee:order:\",\"visible\":true,\"common\":false,\"__gohashid\":12237},{\"from\":\"target:Payee:fields\",\"to\":\"target:Payee:paidAmount:\",\"fromPort\":\"target:Payee:fields\",\"toPort\":\"target:Payee:paidAmount:\",\"visible\":true,\"common\":false,\"__gohashid\":12238},{\"from\":\"target:Payee:fields\",\"to\":\"target:Payee:payeeAccountNumber:\",\"fromPort\":\"target:Payee:fields\",\"toPort\":\"target:Payee:payeeAccountNumber:\",\"visible\":true,\"common\":false,\"__gohashid\":12239},{\"from\":\"target:Payee:fields\",\"to\":\"target:Payee:payeeId:\",\"fromPort\":\"target:Payee:fields\",\"toPort\":\"target:Payee:payeeId:\",\"visible\":true,\"common\":false,\"__gohashid\":12240},{\"from\":\"target:Payee:fields\",\"to\":\"target:Payee:payeeName:\",\"fromPort\":\"target:Payee:fields\",\"toPort\":\"target:Payee:payeeName:\",\"visible\":true,\"common\":false,\"__gohashid\":12241},{\"from\":\"target:Payee:fields\",\"to\":\"target:Payee:payeeNickName:\",\"fromPort\":\"target:Payee:fields\",\"toPort\":\"target:Payee:payeeNickName:\",\"visible\":true,\"common\":false,\"__gohashid\":12242},{\"from\":\"target:Payee:fields\",\"to\":\"target:Payee:phone:\",\"fromPort\":\"target:Payee:fields\",\"toPort\":\"target:Payee:phone:\",\"visible\":true,\"common\":false,\"__gohashid\":12243},{\"from\":\"target:Payee:fields\",\"to\":\"target:Payee:searchString:\",\"fromPort\":\"target:Payee:fields\",\"toPort\":\"target:Payee:searchString:\",\"visible\":true,\"common\":false,\"__gohashid\":12244},{\"from\":\"target:Payee:fields\",\"to\":\"target:Payee:sortBy:\",\"fromPort\":\"target:Payee:fields\",\"toPort\":\"target:Payee:sortBy:\",\"visible\":true,\"common\":false,\"__gohashid\":12245},{\"from\":\"target:Payee:fields\",\"to\":\"target:Payee:state:\",\"fromPort\":\"target:Payee:fields\",\"toPort\":\"target:Payee:state:\",\"visible\":true,\"common\":false,\"__gohashid\":12246},{\"from\":\"target:Payee:fields\",\"to\":\"target:Payee:street:\",\"fromPort\":\"target:Payee:fields\",\"toPort\":\"target:Payee:street:\",\"visible\":true,\"common\":false,\"__gohashid\":12247},{\"from\":\"target:Payee:fields\",\"to\":\"target:Payee:success:\",\"fromPort\":\"target:Payee:fields\",\"toPort\":\"target:Payee:success:\",\"visible\":true,\"common\":false,\"__gohashid\":12248},{\"from\":\"target:Payee:fields\",\"to\":\"target:Payee:zipCode:\",\"fromPort\":\"target:Payee:fields\",\"toPort\":\"target:Payee:zipCode:\",\"visible\":true,\"common\":false,\"__gohashid\":12249},{\"from\":\"target:Payee:fields\",\"to\":\"target:Payee:type:\",\"fromPort\":\"target:Payee:fields\",\"toPort\":\"target:Payee:type:\",\"visible\":true,\"common\":false,\"__gohashid\":12250},{\"from\":\"target:Payee:fields\",\"to\":\"target:Payee:country:\",\"fromPort\":\"target:Payee:fields\",\"toPort\":\"target:Payee:country:\",\"visible\":true,\"common\":false,\"__gohashid\":12251},{\"from\":\"target:Payee:fields\",\"to\":\"target:Payee:swiftCode:\",\"fromPort\":\"target:Payee:fields\",\"toPort\":\"target:Payee:swiftCode:\",\"visible\":true,\"common\":false,\"__gohashid\":12252},{\"from\":\"target:Payee:fields\",\"to\":\"target:Payee:routingCode:\",\"fromPort\":\"target:Payee:fields\",\"toPort\":\"target:Payee:routingCode:\",\"visible\":true,\"common\":false,\"__gohashid\":12253},{\"from\":\"target:Payee:fields\",\"to\":\"target:Payee:bankName:\",\"fromPort\":\"target:Payee:fields\",\"toPort\":\"target:Payee:bankName:\",\"visible\":true,\"common\":false,\"__gohashid\":12254},{\"from\":\"target:Payee:fields\",\"to\":\"target:Payee:bankAddressLine1:\",\"fromPort\":\"target:Payee:fields\",\"toPort\":\"target:Payee:bankAddressLine1:\",\"visible\":true,\"common\":false,\"__gohashid\":12255},{\"from\":\"target:Payee:fields\",\"to\":\"target:Payee:bankAddressLine2:\",\"fromPort\":\"target:Payee:fields\",\"toPort\":\"target:Payee:bankAddressLine2:\",\"visible\":true,\"common\":false,\"__gohashid\":12256},{\"from\":\"target:Payee:fields\",\"to\":\"target:Payee:bankCity:\",\"fromPort\":\"target:Payee:fields\",\"toPort\":\"target:Payee:bankCity:\",\"visible\":true,\"common\":false,\"__gohashid\":12257},{\"from\":\"target:Payee:fields\",\"to\":\"target:Payee:bankState:\",\"fromPort\":\"target:Payee:fields\",\"toPort\":\"target:Payee:bankState:\",\"visible\":true,\"common\":false,\"__gohashid\":12258},{\"from\":\"target:Payee:fields\",\"to\":\"target:Payee:bankZip:\",\"fromPort\":\"target:Payee:fields\",\"toPort\":\"target:Payee:bankZip:\",\"visible\":true,\"common\":false,\"__gohashid\":12259},{\"from\":\"target:Payee:fields\",\"to\":\"target:Payee:IBAN:\",\"fromPort\":\"target:Payee:fields\",\"toPort\":\"target:Payee:IBAN:\",\"visible\":true,\"common\":false,\"__gohashid\":12260},{\"from\":\"target:Payee:fields\",\"to\":\"target:Payee:wireAccountType:\",\"fromPort\":\"target:Payee:fields\",\"toPort\":\"target:Payee:wireAccountType:\",\"visible\":true,\"common\":false,\"__gohashid\":12261},{\"from\":\"target:Payee:fields\",\"to\":\"target:Payee:internationalRoutingCode:\",\"fromPort\":\"target:Payee:fields\",\"toPort\":\"target:Payee:internationalRoutingCode:\",\"visible\":true,\"common\":false,\"__gohashid\":12262},{\"from\":\"target:Payee:fields\",\"to\":\"target:Payee:transactionId:\",\"fromPort\":\"target:Payee:fields\",\"toPort\":\"target:Payee:transactionId:\",\"visible\":true,\"common\":false,\"__gohashid\":12263},{\"from\":\"target:Payee:fields\",\"to\":\"target:Payee:isManuallyAdded:\",\"fromPort\":\"target:Payee:fields\",\"toPort\":\"target:Payee:isManuallyAdded:\",\"visible\":true,\"common\":false,\"__gohashid\":12264},{\"from\":\"target:Payee:fields\",\"to\":\"target:Payee:phoneExtension:\",\"fromPort\":\"target:Payee:fields\",\"toPort\":\"target:Payee:phoneExtension:\",\"visible\":true,\"common\":false,\"__gohashid\":12265},{\"from\":\"target:Payee:fields\",\"to\":\"target:Payee:phoneCountryCode:\",\"fromPort\":\"target:Payee:fields\",\"toPort\":\"target:Payee:phoneCountryCode:\",\"visible\":true,\"common\":false,\"__gohashid\":12266},{\"from\":\"target:Payee:fields\",\"to\":\"target:Payee:isWiredRecepient:\",\"fromPort\":\"target:Payee:fields\",\"toPort\":\"target:Payee:isWiredRecepient:\",\"visible\":true,\"common\":false,\"__gohashid\":12267},{\"from\":\"target:Payee:fields\",\"to\":\"target:Payee:beneficiaryId:\",\"fromPort\":\"target:Payee:fields\",\"toPort\":\"target:Payee:beneficiaryId:\",\"visible\":true,\"common\":false,\"__gohashid\":12268},{\"from\":\"target:Payee:fields\",\"to\":\"target:Payee:fromAccountCurrency:\",\"fromPort\":\"target:Payee:fields\",\"toPort\":\"target:Payee:fromAccountCurrency:\",\"visible\":true,\"common\":false,\"__gohashid\":12269},{\"from\":\"target:Payee:fields\",\"to\":\"target:Payee:toAccountCurrency:\",\"fromPort\":\"target:Payee:fields\",\"toPort\":\"target:Payee:toAccountCurrency:\",\"visible\":true,\"common\":false,\"__gohashid\":12270},{\"from\":\"target:Payee:fields\",\"to\":\"target:Payee:totalRecordCount:\",\"fromPort\":\"target:Payee:fields\",\"toPort\":\"target:Payee:totalRecordCount:\",\"visible\":true,\"common\":false,\"__gohashid\":12271},{\"from\":\"target:Payee:fields\",\"to\":\"target:Payee:isManaged:\",\"fromPort\":\"target:Payee:fields\",\"toPort\":\"target:Payee:isManaged:\",\"visible\":true,\"common\":false,\"__gohashid\":12272},{\"from\":\"target:Payee:fields\",\"to\":\"target:Payee:cancelPendingTransactions:\",\"fromPort\":\"target:Payee:fields\",\"toPort\":\"target:Payee:cancelPendingTransactions:\",\"visible\":true,\"common\":false,\"__gohashid\":12273},{\"from\":\"source\",\"to\":\"source:result\",\"fromPort\":\"source\",\"toPort\":\"source:result\",\"visible\":true,\"common\":false,\"__gohashid\":12274},{\"from\":\"source:result\",\"to\":\"source:result:parameters\",\"fromPort\":\"source:result\",\"toPort\":\"source:result:parameters\",\"visible\":true,\"common\":false,\"__gohashid\":12275},{\"from\":\"source:result:parameters\",\"to\":\"source:result:success:\",\"fromPort\":\"source:result:parameters\",\"toPort\":\"source:result:success:\",\"visible\":true,\"common\":false,\"__gohashid\":12276},{\"from\":\"source:result\",\"to\":\"source:result:resultInfo\",\"fromPort\":\"source:result\",\"toPort\":\"source:result:resultInfo\",\"visible\":true,\"common\":false,\"__gohashid\":12277},{\"from\":\"source:result:resultInfo\",\"to\":\"source:result:resultInfo:parameters\",\"fromPort\":\"source:result:resultInfo\",\"toPort\":\"source:result:resultInfo:parameters\",\"visible\":true,\"common\":false,\"__gohashid\":12278},{\"from\":\"source:result:resultInfo:parameters\",\"to\":\"source:result:resultInfo:description:\",\"fromPort\":\"source:result:resultInfo:parameters\",\"toPort\":\"source:result:resultInfo:description:\",\"visible\":true,\"common\":false,\"__gohashid\":12279}],\"blockCount\":{\"variableCount\":0},\"variableMap\":{},\"xmlMappingOverride\":true}",
    "applyCommonMapping" : false,
    "applyRequestCommonMapping" : false,
    "applyResponseCommonMapping" : false,
    "backendMeta" : {
      "serviceName" : "CheckFreeNextOrch",
      "serviceVersion" : "1.0",
      "operationName" : "deletePayee"
    },
    "relationshipHierarchyMapping" : {
      "children" : [ ],
      "name" : "Payee",
      "actions" : { },
      "selected" : true
    },
    "requestXmlMappingOverride" : true,
    "responseXmlMappingOverride" : true
  }
}