{
  "operationConfig" : {
    "name" : "getRecentPayee9513",
    "type" : "MappedToBackend",
    "cachable" : false,
    "smsEnabled" : false,
    "security" : "authorized_app_user",
    "responseEncoding" : "UTF-8",
    "httpMethod" : "GET",
    "decodeResponseBody" : false,
    "iMapping" : "<?xml version=\"1.0\" encoding=\"UTF-8\" standalone=\"yes\"?><mapper xmlns=\"http://www.kony.com/ns/mapper\">  <map inputpath=\"request_in\" outputpath=\"request_out\"/></mapper>",
    "oMapping" : "<?xml version=\"1.0\" encoding=\"UTF-8\" standalone=\"yes\"?><mapper xmlns=\"http://www.kony.com/ns/mapper\">        <map inputpath=\"response_in\" outputpath=\"response_out\">                <set-param inputpath=\"success\" outputpath=\"success\"/>                                <set-param inputpath=\"errmsg\" outputpath=\"errmsg\"/>                  <map inputpath=\"payees\" outputpath=\"payees\">                        <set-param inputpath=\"payeeId\" outputpath=\"payeeId\"/>                                                      <set-param inputpath=\"payeeName\" outputpath=\"payeeName\"/>                                                   <set-param inputpath=\"payeeNickName\" outputpath=\"payeeNickName\"/>                                                                        <set-param inputpath=\"eBillSupport\" outputpath=\"eBillSupport\"/>                                                <set-param inputpath=\"addressLine1\" outputpath=\"addressLine1\"/>                                                <set-param inputpath=\"addressLine2\" outputpath=\"addressLine2\"/>                    </map>        </map></mapper>",
    "iVisualMappingData" : "{\"nodeDataArray\":[{\"isGroup\":true,\"key\":\"request_in\",\"text\":\"Payee\",\"xy\":\"150 100\",\"__gohashid\":516},{\"isGroup\":true,\"key\":\"request_out\",\"text\":\"CheckFreeNextOrch (1.0).getRecentPayee\",\"xy\":\"770 100\",\"__gohashid\":517}],\"linkDataArray\":[{\"from\":\"source\",\"to\":\"source:Payee\",\"fromPort\":\"source\",\"toPort\":\"source:Payee\",\"visible\":true,\"common\":false,\"__gohashid\":596},{\"from\":\"source:Payee\",\"to\":\"source:Payee:fields\",\"fromPort\":\"source:Payee\",\"toPort\":\"source:Payee:fields\",\"visible\":true,\"common\":false,\"__gohashid\":597},{\"from\":\"source:Payee:fields\",\"to\":\"source:Payee:accountNumber:\",\"fromPort\":\"source:Payee:fields\",\"toPort\":\"source:Payee:accountNumber:\",\"visible\":true,\"common\":false,\"__gohashid\":598},{\"from\":\"source:Payee:fields\",\"to\":\"source:Payee:addressLine1:\",\"fromPort\":\"source:Payee:fields\",\"toPort\":\"source:Payee:addressLine1:\",\"visible\":true,\"common\":false,\"__gohashid\":599},{\"from\":\"source:Payee:fields\",\"to\":\"source:Payee:addressLine2:\",\"fromPort\":\"source:Payee:fields\",\"toPort\":\"source:Payee:addressLine2:\",\"visible\":true,\"common\":false,\"__gohashid\":600},{\"from\":\"source:Payee:fields\",\"to\":\"source:Payee:billDescription:\",\"fromPort\":\"source:Payee:fields\",\"toPort\":\"source:Payee:billDescription:\",\"visible\":true,\"common\":false,\"__gohashid\":601},{\"from\":\"source:Payee:fields\",\"to\":\"source:Payee:billDueDate:\",\"fromPort\":\"source:Payee:fields\",\"toPort\":\"source:Payee:billDueDate:\",\"visible\":true,\"common\":false,\"__gohashid\":602},{\"from\":\"source:Payee:fields\",\"to\":\"source:Payee:billerCategory:\",\"fromPort\":\"source:Payee:fields\",\"toPort\":\"source:Payee:billerCategory:\",\"visible\":true,\"common\":false,\"__gohashid\":603},{\"from\":\"source:Payee:fields\",\"to\":\"source:Payee:billerId:\",\"fromPort\":\"source:Payee:fields\",\"toPort\":\"source:Payee:billerId:\",\"visible\":true,\"common\":false,\"__gohashid\":604},{\"from\":\"source:Payee:fields\",\"to\":\"source:Payee:billGeneratedDate:\",\"fromPort\":\"source:Payee:fields\",\"toPort\":\"source:Payee:billGeneratedDate:\",\"visible\":true,\"common\":false,\"__gohashid\":605},{\"from\":\"source:Payee:fields\",\"to\":\"source:Payee:billid:\",\"fromPort\":\"source:Payee:fields\",\"toPort\":\"source:Payee:billid:\",\"visible\":true,\"common\":false,\"__gohashid\":606},{\"from\":\"source:Payee:fields\",\"to\":\"source:Payee:cityName:\",\"fromPort\":\"source:Payee:fields\",\"toPort\":\"source:Payee:cityName:\",\"visible\":true,\"common\":false,\"__gohashid\":607},{\"from\":\"source:Payee:fields\",\"to\":\"source:Payee:companyName:\",\"fromPort\":\"source:Payee:fields\",\"toPort\":\"source:Payee:companyName:\",\"visible\":true,\"common\":false,\"__gohashid\":608},{\"from\":\"source:Payee:fields\",\"to\":\"source:Payee:dueAmount:\",\"fromPort\":\"source:Payee:fields\",\"toPort\":\"source:Payee:dueAmount:\",\"visible\":true,\"common\":false,\"__gohashid\":609},{\"from\":\"source:Payee:fields\",\"to\":\"source:Payee:EBillEnable:\",\"fromPort\":\"source:Payee:fields\",\"toPort\":\"source:Payee:EBillEnable:\",\"visible\":true,\"common\":false,\"__gohashid\":610},{\"from\":\"source:Payee:fields\",\"to\":\"source:Payee:eBillStatus:\",\"fromPort\":\"source:Payee:fields\",\"toPort\":\"source:Payee:eBillStatus:\",\"visible\":true,\"common\":false,\"__gohashid\":611},{\"from\":\"source:Payee:fields\",\"to\":\"source:Payee:eBillSupport:\",\"fromPort\":\"source:Payee:fields\",\"toPort\":\"source:Payee:eBillSupport:\",\"visible\":true,\"common\":false,\"__gohashid\":612},{\"from\":\"source:Payee:fields\",\"to\":\"source:Payee:ebillURL:\",\"fromPort\":\"source:Payee:fields\",\"toPort\":\"source:Payee:ebillURL:\",\"visible\":true,\"common\":false,\"__gohashid\":613},{\"from\":\"source:Payee:fields\",\"to\":\"source:Payee:email:\",\"fromPort\":\"source:Payee:fields\",\"toPort\":\"source:Payee:email:\",\"visible\":true,\"common\":false,\"__gohashid\":614},{\"from\":\"source:Payee:fields\",\"to\":\"source:Payee:errmsg:\",\"fromPort\":\"source:Payee:fields\",\"toPort\":\"source:Payee:errmsg:\",\"visible\":true,\"common\":false,\"__gohashid\":615},{\"from\":\"source:Payee:fields\",\"to\":\"source:Payee:lastPaidAmount:\",\"fromPort\":\"source:Payee:fields\",\"toPort\":\"source:Payee:lastPaidAmount:\",\"visible\":true,\"common\":false,\"__gohashid\":616},{\"from\":\"source:Payee:fields\",\"to\":\"source:Payee:lastPaidDate:\",\"fromPort\":\"source:Payee:fields\",\"toPort\":\"source:Payee:lastPaidDate:\",\"visible\":true,\"common\":false,\"__gohashid\":617},{\"from\":\"source:Payee:fields\",\"to\":\"source:Payee:limit:\",\"fromPort\":\"source:Payee:fields\",\"toPort\":\"source:Payee:limit:\",\"visible\":true,\"common\":false,\"__gohashid\":618},{\"from\":\"source:Payee:fields\",\"to\":\"source:Payee:nameOnBill:\",\"fromPort\":\"source:Payee:fields\",\"toPort\":\"source:Payee:nameOnBill:\",\"visible\":true,\"common\":false,\"__gohashid\":619},{\"from\":\"source:Payee:fields\",\"to\":\"source:Payee:notes:\",\"fromPort\":\"source:Payee:fields\",\"toPort\":\"source:Payee:notes:\",\"visible\":true,\"common\":false,\"__gohashid\":620},{\"from\":\"source:Payee:fields\",\"to\":\"source:Payee:offset:\",\"fromPort\":\"source:Payee:fields\",\"toPort\":\"source:Payee:offset:\",\"visible\":true,\"common\":false,\"__gohashid\":621},{\"from\":\"source:Payee:fields\",\"to\":\"source:Payee:order:\",\"fromPort\":\"source:Payee:fields\",\"toPort\":\"source:Payee:order:\",\"visible\":true,\"common\":false,\"__gohashid\":622},{\"from\":\"source:Payee:fields\",\"to\":\"source:Payee:paidAmount:\",\"fromPort\":\"source:Payee:fields\",\"toPort\":\"source:Payee:paidAmount:\",\"visible\":true,\"common\":false,\"__gohashid\":623},{\"from\":\"source:Payee:fields\",\"to\":\"source:Payee:payeeAccountNumber:\",\"fromPort\":\"source:Payee:fields\",\"toPort\":\"source:Payee:payeeAccountNumber:\",\"visible\":true,\"common\":false,\"__gohashid\":624},{\"from\":\"source:Payee:fields\",\"to\":\"source:Payee:payeeId:\",\"fromPort\":\"source:Payee:fields\",\"toPort\":\"source:Payee:payeeId:\",\"visible\":true,\"common\":false,\"__gohashid\":625},{\"from\":\"source:Payee:fields\",\"to\":\"source:Payee:payeeName:\",\"fromPort\":\"source:Payee:fields\",\"toPort\":\"source:Payee:payeeName:\",\"visible\":true,\"common\":false,\"__gohashid\":626},{\"from\":\"source:Payee:fields\",\"to\":\"source:Payee:payeeNickName:\",\"fromPort\":\"source:Payee:fields\",\"toPort\":\"source:Payee:payeeNickName:\",\"visible\":true,\"common\":false,\"__gohashid\":627},{\"from\":\"source:Payee:fields\",\"to\":\"source:Payee:phone:\",\"fromPort\":\"source:Payee:fields\",\"toPort\":\"source:Payee:phone:\",\"visible\":true,\"common\":false,\"__gohashid\":628},{\"from\":\"source:Payee:fields\",\"to\":\"source:Payee:searchString:\",\"fromPort\":\"source:Payee:fields\",\"toPort\":\"source:Payee:searchString:\",\"visible\":true,\"common\":false,\"__gohashid\":629},{\"from\":\"source:Payee:fields\",\"to\":\"source:Payee:sortBy:\",\"fromPort\":\"source:Payee:fields\",\"toPort\":\"source:Payee:sortBy:\",\"visible\":true,\"common\":false,\"__gohashid\":630},{\"from\":\"source:Payee:fields\",\"to\":\"source:Payee:state:\",\"fromPort\":\"source:Payee:fields\",\"toPort\":\"source:Payee:state:\",\"visible\":true,\"common\":false,\"__gohashid\":631},{\"from\":\"source:Payee:fields\",\"to\":\"source:Payee:street:\",\"fromPort\":\"source:Payee:fields\",\"toPort\":\"source:Payee:street:\",\"visible\":true,\"common\":false,\"__gohashid\":632},{\"from\":\"source:Payee:fields\",\"to\":\"source:Payee:success:\",\"fromPort\":\"source:Payee:fields\",\"toPort\":\"source:Payee:success:\",\"visible\":true,\"common\":false,\"__gohashid\":633},{\"from\":\"source:Payee:fields\",\"to\":\"source:Payee:zipCode:\",\"fromPort\":\"source:Payee:fields\",\"toPort\":\"source:Payee:zipCode:\",\"visible\":true,\"common\":false,\"__gohashid\":634},{\"from\":\"source:Payee:fields\",\"to\":\"source:Payee:type:\",\"fromPort\":\"source:Payee:fields\",\"toPort\":\"source:Payee:type:\",\"visible\":true,\"common\":false,\"__gohashid\":635},{\"from\":\"source:Payee:fields\",\"to\":\"source:Payee:country:\",\"fromPort\":\"source:Payee:fields\",\"toPort\":\"source:Payee:country:\",\"visible\":true,\"common\":false,\"__gohashid\":636},{\"from\":\"source:Payee:fields\",\"to\":\"source:Payee:swiftCode:\",\"fromPort\":\"source:Payee:fields\",\"toPort\":\"source:Payee:swiftCode:\",\"visible\":true,\"common\":false,\"__gohashid\":637},{\"from\":\"source:Payee:fields\",\"to\":\"source:Payee:routingCode:\",\"fromPort\":\"source:Payee:fields\",\"toPort\":\"source:Payee:routingCode:\",\"visible\":true,\"common\":false,\"__gohashid\":638},{\"from\":\"source:Payee:fields\",\"to\":\"source:Payee:bankName:\",\"fromPort\":\"source:Payee:fields\",\"toPort\":\"source:Payee:bankName:\",\"visible\":true,\"common\":false,\"__gohashid\":639},{\"from\":\"source:Payee:fields\",\"to\":\"source:Payee:bankAddressLine1:\",\"fromPort\":\"source:Payee:fields\",\"toPort\":\"source:Payee:bankAddressLine1:\",\"visible\":true,\"common\":false,\"__gohashid\":640},{\"from\":\"source:Payee:fields\",\"to\":\"source:Payee:bankAddressLine2:\",\"fromPort\":\"source:Payee:fields\",\"toPort\":\"source:Payee:bankAddressLine2:\",\"visible\":true,\"common\":false,\"__gohashid\":641},{\"from\":\"source:Payee:fields\",\"to\":\"source:Payee:bankCity:\",\"fromPort\":\"source:Payee:fields\",\"toPort\":\"source:Payee:bankCity:\",\"visible\":true,\"common\":false,\"__gohashid\":642},{\"from\":\"source:Payee:fields\",\"to\":\"source:Payee:bankState:\",\"fromPort\":\"source:Payee:fields\",\"toPort\":\"source:Payee:bankState:\",\"visible\":true,\"common\":false,\"__gohashid\":643},{\"from\":\"source:Payee:fields\",\"to\":\"source:Payee:bankZip:\",\"fromPort\":\"source:Payee:fields\",\"toPort\":\"source:Payee:bankZip:\",\"visible\":true,\"common\":false,\"__gohashid\":644},{\"from\":\"source:Payee:fields\",\"to\":\"source:Payee:IBAN:\",\"fromPort\":\"source:Payee:fields\",\"toPort\":\"source:Payee:IBAN:\",\"visible\":true,\"common\":false,\"__gohashid\":645},{\"from\":\"source:Payee:fields\",\"to\":\"source:Payee:wireAccountType:\",\"fromPort\":\"source:Payee:fields\",\"toPort\":\"source:Payee:wireAccountType:\",\"visible\":true,\"common\":false,\"__gohashid\":646},{\"from\":\"source:Payee:fields\",\"to\":\"source:Payee:internationalRoutingCode:\",\"fromPort\":\"source:Payee:fields\",\"toPort\":\"source:Payee:internationalRoutingCode:\",\"visible\":true,\"common\":false,\"__gohashid\":647},{\"from\":\"source:Payee:fields\",\"to\":\"source:Payee:transactionId:\",\"fromPort\":\"source:Payee:fields\",\"toPort\":\"source:Payee:transactionId:\",\"visible\":true,\"common\":false,\"__gohashid\":648},{\"from\":\"source:Payee:fields\",\"to\":\"source:Payee:isManuallyAdded:\",\"fromPort\":\"source:Payee:fields\",\"toPort\":\"source:Payee:isManuallyAdded:\",\"visible\":true,\"common\":false,\"__gohashid\":649},{\"from\":\"source:Payee:fields\",\"to\":\"source:Payee:phoneExtension:\",\"fromPort\":\"source:Payee:fields\",\"toPort\":\"source:Payee:phoneExtension:\",\"visible\":true,\"common\":false,\"__gohashid\":650},{\"from\":\"source:Payee:fields\",\"to\":\"source:Payee:phoneCountryCode:\",\"fromPort\":\"source:Payee:fields\",\"toPort\":\"source:Payee:phoneCountryCode:\",\"visible\":true,\"common\":false,\"__gohashid\":651},{\"from\":\"source:Payee:fields\",\"to\":\"source:Payee:isWiredRecepient:\",\"fromPort\":\"source:Payee:fields\",\"toPort\":\"source:Payee:isWiredRecepient:\",\"visible\":true,\"common\":false,\"__gohashid\":652},{\"from\":\"source:Payee:fields\",\"to\":\"source:Payee:beneficiaryId:\",\"fromPort\":\"source:Payee:fields\",\"toPort\":\"source:Payee:beneficiaryId:\",\"visible\":true,\"common\":false,\"__gohashid\":653},{\"from\":\"source:Payee:fields\",\"to\":\"source:Payee:fromAccountCurrency:\",\"fromPort\":\"source:Payee:fields\",\"toPort\":\"source:Payee:fromAccountCurrency:\",\"visible\":true,\"common\":false,\"__gohashid\":654},{\"from\":\"source:Payee:fields\",\"to\":\"source:Payee:toAccountCurrency:\",\"fromPort\":\"source:Payee:fields\",\"toPort\":\"source:Payee:toAccountCurrency:\",\"visible\":true,\"common\":false,\"__gohashid\":655},{\"from\":\"source:Payee:fields\",\"to\":\"source:Payee:totalRecordCount:\",\"fromPort\":\"source:Payee:fields\",\"toPort\":\"source:Payee:totalRecordCount:\",\"visible\":true,\"common\":false,\"__gohashid\":656},{\"from\":\"source:Payee:fields\",\"to\":\"source:Payee:isManaged:\",\"fromPort\":\"source:Payee:fields\",\"toPort\":\"source:Payee:isManaged:\",\"visible\":true,\"common\":false,\"__gohashid\":657},{\"from\":\"source:Payee:fields\",\"to\":\"source:Payee:cancelPendingTransactions:\",\"fromPort\":\"source:Payee:fields\",\"toPort\":\"source:Payee:cancelPendingTransactions:\",\"visible\":true,\"common\":false,\"__gohashid\":658},{\"from\":\"target\",\"to\":\"target:parameters\",\"fromPort\":\"target\",\"toPort\":\"target:parameters\",\"visible\":true,\"common\":false,\"__gohashid\":659},{\"from\":\"target:parameters\",\"to\":\"target:endDate:\",\"fromPort\":\"target:parameters\",\"toPort\":\"target:endDate:\",\"visible\":true,\"common\":false,\"__gohashid\":660},{\"from\":\"target:parameters\",\"to\":\"target:fundAccountUri:\",\"fromPort\":\"target:parameters\",\"toPort\":\"target:fundAccountUri:\",\"visible\":true,\"common\":false,\"__gohashid\":661},{\"from\":\"target:parameters\",\"to\":\"target:limit:\",\"fromPort\":\"target:parameters\",\"toPort\":\"target:limit:\",\"visible\":true,\"common\":false,\"__gohashid\":662},{\"from\":\"target:parameters\",\"to\":\"target:maxAmount:\",\"fromPort\":\"target:parameters\",\"toPort\":\"target:maxAmount:\",\"visible\":true,\"common\":false,\"__gohashid\":663},{\"from\":\"target:parameters\",\"to\":\"target:minAmount:\",\"fromPort\":\"target:parameters\",\"toPort\":\"target:minAmount:\",\"visible\":true,\"common\":false,\"__gohashid\":664},{\"from\":\"target:parameters\",\"to\":\"target:payeeUri:\",\"fromPort\":\"target:parameters\",\"toPort\":\"target:payeeUri:\",\"visible\":true,\"common\":false,\"__gohashid\":665},{\"from\":\"target:parameters\",\"to\":\"target:returnInactivePayees:\",\"fromPort\":\"target:parameters\",\"toPort\":\"target:returnInactivePayees:\",\"visible\":true,\"common\":false,\"__gohashid\":666},{\"from\":\"target:parameters\",\"to\":\"target:sort:\",\"fromPort\":\"target:parameters\",\"toPort\":\"target:sort:\",\"visible\":true,\"common\":false,\"__gohashid\":667},{\"from\":\"target:parameters\",\"to\":\"target:start:\",\"fromPort\":\"target:parameters\",\"toPort\":\"target:start:\",\"visible\":true,\"common\":false,\"__gohashid\":668},{\"from\":\"target:parameters\",\"to\":\"target:startDate:\",\"fromPort\":\"target:parameters\",\"toPort\":\"target:startDate:\",\"visible\":true,\"common\":false,\"__gohashid\":669},{\"from\":\"target:parameters\",\"to\":\"target:status:\",\"fromPort\":\"target:parameters\",\"toPort\":\"target:status:\",\"visible\":true,\"common\":false,\"__gohashid\":670}],\"blockCount\":{\"variableCount\":0},\"variableMap\":{},\"xmlMappingOverride\":true}",
    "oVisualMappingData" : "{\"nodeDataArray\":[{\"isGroup\":true,\"key\":\"response_out\",\"text\":\"Payee\",\"xy\":\"770 100\",\"__gohashid\":6337},{\"isGroup\":true,\"key\":\"response_in\",\"text\":\"CheckFreeNextOrch (1.0).getRecentPayee\",\"xy\":\"150 100\",\"__gohashid\":6338}],\"linkDataArray\":[{\"from\":\"target\",\"to\":\"target:Payee\",\"fromPort\":\"target\",\"toPort\":\"target:Payee\",\"visible\":true,\"common\":false,\"__gohashid\":487},{\"from\":\"target:Payee\",\"to\":\"target:Payee:fields\",\"fromPort\":\"target:Payee\",\"toPort\":\"target:Payee:fields\",\"visible\":true,\"common\":false,\"__gohashid\":488},{\"from\":\"target:Payee:fields\",\"to\":\"target:Payee:accountNumber:\",\"fromPort\":\"target:Payee:fields\",\"toPort\":\"target:Payee:accountNumber:\",\"visible\":true,\"common\":false,\"__gohashid\":489},{\"from\":\"target:Payee:fields\",\"to\":\"target:Payee:addressLine1:\",\"fromPort\":\"target:Payee:fields\",\"toPort\":\"target:Payee:addressLine1:\",\"visible\":true,\"common\":false,\"__gohashid\":490},{\"from\":\"target:Payee:fields\",\"to\":\"target:Payee:addressLine2:\",\"fromPort\":\"target:Payee:fields\",\"toPort\":\"target:Payee:addressLine2:\",\"visible\":true,\"common\":false,\"__gohashid\":491},{\"from\":\"target:Payee:fields\",\"to\":\"target:Payee:billDescription:\",\"fromPort\":\"target:Payee:fields\",\"toPort\":\"target:Payee:billDescription:\",\"visible\":true,\"common\":false,\"__gohashid\":492},{\"from\":\"target:Payee:fields\",\"to\":\"target:Payee:billDueDate:\",\"fromPort\":\"target:Payee:fields\",\"toPort\":\"target:Payee:billDueDate:\",\"visible\":true,\"common\":false,\"__gohashid\":493},{\"from\":\"target:Payee:fields\",\"to\":\"target:Payee:billerCategory:\",\"fromPort\":\"target:Payee:fields\",\"toPort\":\"target:Payee:billerCategory:\",\"visible\":true,\"common\":false,\"__gohashid\":494},{\"from\":\"target:Payee:fields\",\"to\":\"target:Payee:billerId:\",\"fromPort\":\"target:Payee:fields\",\"toPort\":\"target:Payee:billerId:\",\"visible\":true,\"common\":false,\"__gohashid\":495},{\"from\":\"target:Payee:fields\",\"to\":\"target:Payee:billGeneratedDate:\",\"fromPort\":\"target:Payee:fields\",\"toPort\":\"target:Payee:billGeneratedDate:\",\"visible\":true,\"common\":false,\"__gohashid\":496},{\"from\":\"target:Payee:fields\",\"to\":\"target:Payee:billid:\",\"fromPort\":\"target:Payee:fields\",\"toPort\":\"target:Payee:billid:\",\"visible\":true,\"common\":false,\"__gohashid\":497},{\"from\":\"target:Payee:fields\",\"to\":\"target:Payee:cityName:\",\"fromPort\":\"target:Payee:fields\",\"toPort\":\"target:Payee:cityName:\",\"visible\":true,\"common\":false,\"__gohashid\":498},{\"from\":\"target:Payee:fields\",\"to\":\"target:Payee:companyName:\",\"fromPort\":\"target:Payee:fields\",\"toPort\":\"target:Payee:companyName:\",\"visible\":true,\"common\":false,\"__gohashid\":499},{\"from\":\"target:Payee:fields\",\"to\":\"target:Payee:dueAmount:\",\"fromPort\":\"target:Payee:fields\",\"toPort\":\"target:Payee:dueAmount:\",\"visible\":true,\"common\":false,\"__gohashid\":500},{\"from\":\"target:Payee:fields\",\"to\":\"target:Payee:EBillEnable:\",\"fromPort\":\"target:Payee:fields\",\"toPort\":\"target:Payee:EBillEnable:\",\"visible\":true,\"common\":false,\"__gohashid\":501},{\"from\":\"target:Payee:fields\",\"to\":\"target:Payee:eBillStatus:\",\"fromPort\":\"target:Payee:fields\",\"toPort\":\"target:Payee:eBillStatus:\",\"visible\":true,\"common\":false,\"__gohashid\":502},{\"from\":\"target:Payee:fields\",\"to\":\"target:Payee:eBillSupport:\",\"fromPort\":\"target:Payee:fields\",\"toPort\":\"target:Payee:eBillSupport:\",\"visible\":true,\"common\":false,\"__gohashid\":503},{\"from\":\"target:Payee:fields\",\"to\":\"target:Payee:ebillURL:\",\"fromPort\":\"target:Payee:fields\",\"toPort\":\"target:Payee:ebillURL:\",\"visible\":true,\"common\":false,\"__gohashid\":504},{\"from\":\"target:Payee:fields\",\"to\":\"target:Payee:email:\",\"fromPort\":\"target:Payee:fields\",\"toPort\":\"target:Payee:email:\",\"visible\":true,\"common\":false,\"__gohashid\":505},{\"from\":\"target:Payee:fields\",\"to\":\"target:Payee:errmsg:\",\"fromPort\":\"target:Payee:fields\",\"toPort\":\"target:Payee:errmsg:\",\"visible\":true,\"common\":false,\"__gohashid\":506},{\"from\":\"target:Payee:fields\",\"to\":\"target:Payee:lastPaidAmount:\",\"fromPort\":\"target:Payee:fields\",\"toPort\":\"target:Payee:lastPaidAmount:\",\"visible\":true,\"common\":false,\"__gohashid\":507},{\"from\":\"target:Payee:fields\",\"to\":\"target:Payee:lastPaidDate:\",\"fromPort\":\"target:Payee:fields\",\"toPort\":\"target:Payee:lastPaidDate:\",\"visible\":true,\"common\":false,\"__gohashid\":508},{\"from\":\"target:Payee:fields\",\"to\":\"target:Payee:limit:\",\"fromPort\":\"target:Payee:fields\",\"toPort\":\"target:Payee:limit:\",\"visible\":true,\"common\":false,\"__gohashid\":509},{\"from\":\"target:Payee:fields\",\"to\":\"target:Payee:nameOnBill:\",\"fromPort\":\"target:Payee:fields\",\"toPort\":\"target:Payee:nameOnBill:\",\"visible\":true,\"common\":false,\"__gohashid\":510},{\"from\":\"target:Payee:fields\",\"to\":\"target:Payee:notes:\",\"fromPort\":\"target:Payee:fields\",\"toPort\":\"target:Payee:notes:\",\"visible\":true,\"common\":false,\"__gohashid\":511},{\"from\":\"target:Payee:fields\",\"to\":\"target:Payee:offset:\",\"fromPort\":\"target:Payee:fields\",\"toPort\":\"target:Payee:offset:\",\"visible\":true,\"common\":false,\"__gohashid\":512},{\"from\":\"target:Payee:fields\",\"to\":\"target:Payee:order:\",\"fromPort\":\"target:Payee:fields\",\"toPort\":\"target:Payee:order:\",\"visible\":true,\"common\":false,\"__gohashid\":513},{\"from\":\"target:Payee:fields\",\"to\":\"target:Payee:paidAmount:\",\"fromPort\":\"target:Payee:fields\",\"toPort\":\"target:Payee:paidAmount:\",\"visible\":true,\"common\":false,\"__gohashid\":514},{\"from\":\"target:Payee:fields\",\"to\":\"target:Payee:payeeAccountNumber:\",\"fromPort\":\"target:Payee:fields\",\"toPort\":\"target:Payee:payeeAccountNumber:\",\"visible\":true,\"common\":false,\"__gohashid\":515},{\"from\":\"target:Payee:fields\",\"to\":\"target:Payee:payeeId:\",\"fromPort\":\"target:Payee:fields\",\"toPort\":\"target:Payee:payeeId:\",\"visible\":true,\"common\":false,\"__gohashid\":516},{\"from\":\"target:Payee:fields\",\"to\":\"target:Payee:payeeName:\",\"fromPort\":\"target:Payee:fields\",\"toPort\":\"target:Payee:payeeName:\",\"visible\":true,\"common\":false,\"__gohashid\":517},{\"from\":\"target:Payee:fields\",\"to\":\"target:Payee:payeeNickName:\",\"fromPort\":\"target:Payee:fields\",\"toPort\":\"target:Payee:payeeNickName:\",\"visible\":true,\"common\":false,\"__gohashid\":518},{\"from\":\"target:Payee:fields\",\"to\":\"target:Payee:phone:\",\"fromPort\":\"target:Payee:fields\",\"toPort\":\"target:Payee:phone:\",\"visible\":true,\"common\":false,\"__gohashid\":519},{\"from\":\"target:Payee:fields\",\"to\":\"target:Payee:searchString:\",\"fromPort\":\"target:Payee:fields\",\"toPort\":\"target:Payee:searchString:\",\"visible\":true,\"common\":false,\"__gohashid\":520},{\"from\":\"target:Payee:fields\",\"to\":\"target:Payee:sortBy:\",\"fromPort\":\"target:Payee:fields\",\"toPort\":\"target:Payee:sortBy:\",\"visible\":true,\"common\":false,\"__gohashid\":521},{\"from\":\"target:Payee:fields\",\"to\":\"target:Payee:state:\",\"fromPort\":\"target:Payee:fields\",\"toPort\":\"target:Payee:state:\",\"visible\":true,\"common\":false,\"__gohashid\":522},{\"from\":\"target:Payee:fields\",\"to\":\"target:Payee:street:\",\"fromPort\":\"target:Payee:fields\",\"toPort\":\"target:Payee:street:\",\"visible\":true,\"common\":false,\"__gohashid\":523},{\"from\":\"target:Payee:fields\",\"to\":\"target:Payee:success:\",\"fromPort\":\"target:Payee:fields\",\"toPort\":\"target:Payee:success:\",\"visible\":true,\"common\":false,\"__gohashid\":524},{\"from\":\"target:Payee:fields\",\"to\":\"target:Payee:zipCode:\",\"fromPort\":\"target:Payee:fields\",\"toPort\":\"target:Payee:zipCode:\",\"visible\":true,\"common\":false,\"__gohashid\":525},{\"from\":\"target:Payee:fields\",\"to\":\"target:Payee:type:\",\"fromPort\":\"target:Payee:fields\",\"toPort\":\"target:Payee:type:\",\"visible\":true,\"common\":false,\"__gohashid\":526},{\"from\":\"target:Payee:fields\",\"to\":\"target:Payee:country:\",\"fromPort\":\"target:Payee:fields\",\"toPort\":\"target:Payee:country:\",\"visible\":true,\"common\":false,\"__gohashid\":527},{\"from\":\"target:Payee:fields\",\"to\":\"target:Payee:swiftCode:\",\"fromPort\":\"target:Payee:fields\",\"toPort\":\"target:Payee:swiftCode:\",\"visible\":true,\"common\":false,\"__gohashid\":528},{\"from\":\"target:Payee:fields\",\"to\":\"target:Payee:routingCode:\",\"fromPort\":\"target:Payee:fields\",\"toPort\":\"target:Payee:routingCode:\",\"visible\":true,\"common\":false,\"__gohashid\":529},{\"from\":\"target:Payee:fields\",\"to\":\"target:Payee:bankName:\",\"fromPort\":\"target:Payee:fields\",\"toPort\":\"target:Payee:bankName:\",\"visible\":true,\"common\":false,\"__gohashid\":530},{\"from\":\"target:Payee:fields\",\"to\":\"target:Payee:bankAddressLine1:\",\"fromPort\":\"target:Payee:fields\",\"toPort\":\"target:Payee:bankAddressLine1:\",\"visible\":true,\"common\":false,\"__gohashid\":531},{\"from\":\"target:Payee:fields\",\"to\":\"target:Payee:bankAddressLine2:\",\"fromPort\":\"target:Payee:fields\",\"toPort\":\"target:Payee:bankAddressLine2:\",\"visible\":true,\"common\":false,\"__gohashid\":532},{\"from\":\"target:Payee:fields\",\"to\":\"target:Payee:bankCity:\",\"fromPort\":\"target:Payee:fields\",\"toPort\":\"target:Payee:bankCity:\",\"visible\":true,\"common\":false,\"__gohashid\":533},{\"from\":\"target:Payee:fields\",\"to\":\"target:Payee:bankState:\",\"fromPort\":\"target:Payee:fields\",\"toPort\":\"target:Payee:bankState:\",\"visible\":true,\"common\":false,\"__gohashid\":534},{\"from\":\"target:Payee:fields\",\"to\":\"target:Payee:bankZip:\",\"fromPort\":\"target:Payee:fields\",\"toPort\":\"target:Payee:bankZip:\",\"visible\":true,\"common\":false,\"__gohashid\":535},{\"from\":\"target:Payee:fields\",\"to\":\"target:Payee:IBAN:\",\"fromPort\":\"target:Payee:fields\",\"toPort\":\"target:Payee:IBAN:\",\"visible\":true,\"common\":false,\"__gohashid\":536},{\"from\":\"target:Payee:fields\",\"to\":\"target:Payee:wireAccountType:\",\"fromPort\":\"target:Payee:fields\",\"toPort\":\"target:Payee:wireAccountType:\",\"visible\":true,\"common\":false,\"__gohashid\":537},{\"from\":\"target:Payee:fields\",\"to\":\"target:Payee:internationalRoutingCode:\",\"fromPort\":\"target:Payee:fields\",\"toPort\":\"target:Payee:internationalRoutingCode:\",\"visible\":true,\"common\":false,\"__gohashid\":538},{\"from\":\"target:Payee:fields\",\"to\":\"target:Payee:transactionId:\",\"fromPort\":\"target:Payee:fields\",\"toPort\":\"target:Payee:transactionId:\",\"visible\":true,\"common\":false,\"__gohashid\":539},{\"from\":\"target:Payee:fields\",\"to\":\"target:Payee:isManuallyAdded:\",\"fromPort\":\"target:Payee:fields\",\"toPort\":\"target:Payee:isManuallyAdded:\",\"visible\":true,\"common\":false,\"__gohashid\":540},{\"from\":\"target:Payee:fields\",\"to\":\"target:Payee:phoneExtension:\",\"fromPort\":\"target:Payee:fields\",\"toPort\":\"target:Payee:phoneExtension:\",\"visible\":true,\"common\":false,\"__gohashid\":541},{\"from\":\"target:Payee:fields\",\"to\":\"target:Payee:phoneCountryCode:\",\"fromPort\":\"target:Payee:fields\",\"toPort\":\"target:Payee:phoneCountryCode:\",\"visible\":true,\"common\":false,\"__gohashid\":542},{\"from\":\"target:Payee:fields\",\"to\":\"target:Payee:isWiredRecepient:\",\"fromPort\":\"target:Payee:fields\",\"toPort\":\"target:Payee:isWiredRecepient:\",\"visible\":true,\"common\":false,\"__gohashid\":543},{\"from\":\"target:Payee:fields\",\"to\":\"target:Payee:beneficiaryId:\",\"fromPort\":\"target:Payee:fields\",\"toPort\":\"target:Payee:beneficiaryId:\",\"visible\":true,\"common\":false,\"__gohashid\":544},{\"from\":\"target:Payee:fields\",\"to\":\"target:Payee:fromAccountCurrency:\",\"fromPort\":\"target:Payee:fields\",\"toPort\":\"target:Payee:fromAccountCurrency:\",\"visible\":true,\"common\":false,\"__gohashid\":545},{\"from\":\"target:Payee:fields\",\"to\":\"target:Payee:toAccountCurrency:\",\"fromPort\":\"target:Payee:fields\",\"toPort\":\"target:Payee:toAccountCurrency:\",\"visible\":true,\"common\":false,\"__gohashid\":546},{\"from\":\"target:Payee:fields\",\"to\":\"target:Payee:totalRecordCount:\",\"fromPort\":\"target:Payee:fields\",\"toPort\":\"target:Payee:totalRecordCount:\",\"visible\":true,\"common\":false,\"__gohashid\":547},{\"from\":\"target:Payee:fields\",\"to\":\"target:Payee:isManaged:\",\"fromPort\":\"target:Payee:fields\",\"toPort\":\"target:Payee:isManaged:\",\"visible\":true,\"common\":false,\"__gohashid\":548},{\"from\":\"target:Payee:fields\",\"to\":\"target:Payee:cancelPendingTransactions:\",\"fromPort\":\"target:Payee:fields\",\"toPort\":\"target:Payee:cancelPendingTransactions:\",\"visible\":true,\"common\":false,\"__gohashid\":549},{\"from\":\"source\",\"to\":\"source:parameters\",\"fromPort\":\"source\",\"toPort\":\"source:parameters\",\"visible\":true,\"common\":false,\"__gohashid\":550},{\"from\":\"source:parameters\",\"to\":\"source:success:\",\"fromPort\":\"source:parameters\",\"toPort\":\"source:success:\",\"visible\":true,\"common\":false,\"__gohashid\":551},{\"from\":\"source\",\"to\":\"source:payees\",\"fromPort\":\"source\",\"toPort\":\"source:payees\",\"visible\":true,\"common\":false,\"__gohashid\":552},{\"from\":\"source:payees\",\"to\":\"source:payees:parameters\",\"fromPort\":\"source:payees\",\"toPort\":\"source:payees:parameters\",\"visible\":true,\"common\":false,\"__gohashid\":553},{\"from\":\"source:payees:parameters\",\"to\":\"source:payees:addressLine1:\",\"fromPort\":\"source:payees:parameters\",\"toPort\":\"source:payees:addressLine1:\",\"visible\":true,\"common\":false,\"__gohashid\":554},{\"from\":\"source:payees:parameters\",\"to\":\"source:payees:addressLine2:\",\"fromPort\":\"source:payees:parameters\",\"toPort\":\"source:payees:addressLine2:\",\"visible\":true,\"common\":false,\"__gohashid\":555},{\"from\":\"source:payees:parameters\",\"to\":\"source:payees:category:\",\"fromPort\":\"source:payees:parameters\",\"toPort\":\"source:payees:category:\",\"visible\":true,\"common\":false,\"__gohashid\":556},{\"from\":\"source:payees:parameters\",\"to\":\"source:payees:cityName:\",\"fromPort\":\"source:payees:parameters\",\"toPort\":\"source:payees:cityName:\",\"visible\":true,\"common\":false,\"__gohashid\":557},{\"from\":\"source:payees:parameters\",\"to\":\"source:payees:ebillServiceActivationType:\",\"fromPort\":\"source:payees:parameters\",\"toPort\":\"source:payees:ebillServiceActivationType:\",\"visible\":true,\"common\":false,\"__gohashid\":558},{\"from\":\"source:payees:parameters\",\"to\":\"source:payees:ebillServiceActivationUri:\",\"fromPort\":\"source:payees:parameters\",\"toPort\":\"source:payees:ebillServiceActivationUri:\",\"visible\":true,\"common\":false,\"__gohashid\":559},{\"from\":\"source:payees:parameters\",\"to\":\"source:payees:ebillServiceUri:\",\"fromPort\":\"source:payees:parameters\",\"toPort\":\"source:payees:ebillServiceUri:\",\"visible\":true,\"common\":false,\"__gohashid\":560},{\"from\":\"source:payees:parameters\",\"to\":\"source:payees:lastUsedFundingAccountUri:\",\"fromPort\":\"source:payees:parameters\",\"toPort\":\"source:payees:lastUsedFundingAccountUri:\",\"visible\":true,\"common\":false,\"__gohashid\":561},{\"from\":\"source:payees:parameters\",\"to\":\"source:payees:maskedAccountNumber:\",\"fromPort\":\"source:payees:parameters\",\"toPort\":\"source:payees:maskedAccountNumber:\",\"visible\":true,\"common\":false,\"__gohashid\":562},{\"from\":\"source:payees:parameters\",\"to\":\"source:payees:merchantUri:\",\"fromPort\":\"source:payees:parameters\",\"toPort\":\"source:payees:merchantUri:\",\"visible\":true,\"common\":false,\"__gohashid\":563},{\"from\":\"source:payees:parameters\",\"to\":\"source:payees:payeeAccountNumber:\",\"fromPort\":\"source:payees:parameters\",\"toPort\":\"source:payees:payeeAccountNumber:\",\"visible\":true,\"common\":false,\"__gohashid\":564},{\"from\":\"source:payees:parameters\",\"to\":\"source:payees:payeeId:\",\"fromPort\":\"source:payees:parameters\",\"toPort\":\"source:payees:payeeId:\",\"visible\":true,\"common\":false,\"__gohashid\":565},{\"from\":\"source:payees:parameters\",\"to\":\"source:payees:payeeLogoGeneric:\",\"fromPort\":\"source:payees:parameters\",\"toPort\":\"source:payees:payeeLogoGeneric:\",\"visible\":true,\"common\":false,\"__gohashid\":566},{\"from\":\"source:payees:parameters\",\"to\":\"source:payees:payeeLogoUrl:\",\"fromPort\":\"source:payees:parameters\",\"toPort\":\"source:payees:payeeLogoUrl:\",\"visible\":true,\"common\":false,\"__gohashid\":567},{\"from\":\"source:payees:parameters\",\"to\":\"source:payees:payeeName:\",\"fromPort\":\"source:payees:parameters\",\"toPort\":\"source:payees:payeeName:\",\"visible\":true,\"common\":false,\"__gohashid\":568},{\"from\":\"source:payees:parameters\",\"to\":\"source:payees:payeeNickName:\",\"fromPort\":\"source:payees:parameters\",\"toPort\":\"source:payees:payeeNickName:\",\"visible\":true,\"common\":false,\"__gohashid\":569},{\"from\":\"source:payees:parameters\",\"to\":\"source:payees:phone:\",\"fromPort\":\"source:payees:parameters\",\"toPort\":\"source:payees:phone:\",\"visible\":true,\"common\":false,\"__gohashid\":570},{\"from\":\"source:payees:parameters\",\"to\":\"source:payees:self:\",\"fromPort\":\"source:payees:parameters\",\"toPort\":\"source:payees:self:\",\"visible\":true,\"common\":false,\"__gohashid\":571},{\"from\":\"source:payees:parameters\",\"to\":\"source:payees:state:\",\"fromPort\":\"source:payees:parameters\",\"toPort\":\"source:payees:state:\",\"visible\":true,\"common\":false,\"__gohashid\":572},{\"from\":\"source:payees:parameters\",\"to\":\"source:payees:status:\",\"fromPort\":\"source:payees:parameters\",\"toPort\":\"source:payees:status:\",\"visible\":true,\"common\":false,\"__gohashid\":573},{\"from\":\"source:payees:parameters\",\"to\":\"source:payees:zipCode:\",\"fromPort\":\"source:payees:parameters\",\"toPort\":\"source:payees:zipCode:\",\"visible\":true,\"common\":false,\"__gohashid\":574},{\"from\":\"source\",\"to\":\"source:transactions\",\"fromPort\":\"source\",\"toPort\":\"source:transactions\",\"visible\":true,\"common\":false,\"__gohashid\":575},{\"from\":\"source:transactions\",\"to\":\"source:transactions:parameters\",\"fromPort\":\"source:transactions\",\"toPort\":\"source:transactions:parameters\",\"visible\":true,\"common\":false,\"__gohashid\":576},{\"from\":\"source:transactions:parameters\",\"to\":\"source:transactions:amount:\",\"fromPort\":\"source:transactions:parameters\",\"toPort\":\"source:transactions:amount:\",\"visible\":true,\"common\":false,\"__gohashid\":577},{\"from\":\"source:transactions:parameters\",\"to\":\"source:transactions:automaticTransactionUri:\",\"fromPort\":\"source:transactions:parameters\",\"toPort\":\"source:transactions:automaticTransactionUri:\",\"visible\":true,\"common\":false,\"__gohashid\":578},{\"from\":\"source:transactions:parameters\",\"to\":\"source:transactions:billDueAmount:\",\"fromPort\":\"source:transactions:parameters\",\"toPort\":\"source:transactions:billDueAmount:\",\"visible\":true,\"common\":false,\"__gohashid\":579},{\"from\":\"source:transactions:parameters\",\"to\":\"source:transactions:billItemUri:\",\"fromPort\":\"source:transactions:parameters\",\"toPort\":\"source:transactions:billItemUri:\",\"visible\":true,\"common\":false,\"__gohashid\":580},{\"from\":\"source:transactions:parameters\",\"to\":\"source:transactions:debitDate:\",\"fromPort\":\"source:transactions:parameters\",\"toPort\":\"source:transactions:debitDate:\",\"visible\":true,\"common\":false,\"__gohashid\":581},{\"from\":\"source:transactions:parameters\",\"to\":\"source:transactions:deliveryDate:\",\"fromPort\":\"source:transactions:parameters\",\"toPort\":\"source:transactions:deliveryDate:\",\"visible\":true,\"common\":false,\"__gohashid\":582},{\"from\":\"source:transactions:parameters\",\"to\":\"source:transactions:deliveryMethod:\",\"fromPort\":\"source:transactions:parameters\",\"toPort\":\"source:transactions:deliveryMethod:\",\"visible\":true,\"common\":false,\"__gohashid\":583},{\"from\":\"source:transactions:parameters\",\"to\":\"source:transactions:description:\",\"fromPort\":\"source:transactions:parameters\",\"toPort\":\"source:transactions:description:\",\"visible\":true,\"common\":false,\"__gohashid\":584},{\"from\":\"source:transactions:parameters\",\"to\":\"source:transactions:fee:\",\"fromPort\":\"source:transactions:parameters\",\"toPort\":\"source:transactions:fee:\",\"visible\":true,\"common\":false,\"__gohashid\":585},{\"from\":\"source:transactions:parameters\",\"to\":\"source:transactions:fromAccountName:\",\"fromPort\":\"source:transactions:parameters\",\"toPort\":\"source:transactions:fromAccountName:\",\"visible\":true,\"common\":false,\"__gohashid\":586},{\"from\":\"source:transactions:parameters\",\"to\":\"source:transactions:fundingAccountUri:\",\"fromPort\":\"source:transactions:parameters\",\"toPort\":\"source:transactions:fundingAccountUri:\",\"visible\":true,\"common\":false,\"__gohashid\":587},{\"from\":\"source:transactions:parameters\",\"to\":\"source:transactions:memo:\",\"fromPort\":\"source:transactions:parameters\",\"toPort\":\"source:transactions:memo:\",\"visible\":true,\"common\":false,\"__gohashid\":588},{\"from\":\"source:transactions:parameters\",\"to\":\"source:transactions:payeeName:\",\"fromPort\":\"source:transactions:parameters\",\"toPort\":\"source:transactions:payeeName:\",\"visible\":true,\"common\":false,\"__gohashid\":589},{\"from\":\"source:transactions:parameters\",\"to\":\"source:transactions:payeeNickName:\",\"fromPort\":\"source:transactions:parameters\",\"toPort\":\"source:transactions:payeeNickName:\",\"visible\":true,\"common\":false,\"__gohashid\":590},{\"from\":\"source:transactions:parameters\",\"to\":\"source:transactions:payeeUri:\",\"fromPort\":\"source:transactions:parameters\",\"toPort\":\"source:transactions:payeeUri:\",\"visible\":true,\"common\":false,\"__gohashid\":591},{\"from\":\"source:transactions:parameters\",\"to\":\"source:transactions:referenceId:\",\"fromPort\":\"source:transactions:parameters\",\"toPort\":\"source:transactions:referenceId:\",\"visible\":true,\"common\":false,\"__gohashid\":592},{\"from\":\"source:transactions:parameters\",\"to\":\"source:transactions:statusDescription:\",\"fromPort\":\"source:transactions:parameters\",\"toPort\":\"source:transactions:statusDescription:\",\"visible\":true,\"common\":false,\"__gohashid\":593},{\"from\":\"source:transactions:parameters\",\"to\":\"source:transactions:transactionId:\",\"fromPort\":\"source:transactions:parameters\",\"toPort\":\"source:transactions:transactionId:\",\"visible\":true,\"common\":false,\"__gohashid\":594},{\"from\":\"source:transactions:parameters\",\"to\":\"source:transactions:transactionType:\",\"fromPort\":\"source:transactions:parameters\",\"toPort\":\"source:transactions:transactionType:\",\"visible\":true,\"common\":false,\"__gohashid\":595},{\"from\":\"source:transactions:parameters\",\"to\":\"source:transactions:transactionsNotes:\",\"fromPort\":\"source:transactions:parameters\",\"toPort\":\"source:transactions:transactionsNotes:\",\"visible\":true,\"common\":false,\"__gohashid\":596}],\"blockCount\":{\"variableCount\":0},\"variableMap\":{},\"xmlMappingOverride\":true}",
    "applyCommonMapping" : false,
    "applyRequestCommonMapping" : false,
    "applyResponseCommonMapping" : false,
    "backendMeta" : {
      "serviceName" : "CheckFreeNextOrch",
      "serviceVersion" : "1.0",
      "operationName" : "getRecentPayee"
    },
    "relationshipHierarchyMapping" : {
      "children" : [ ],
      "name" : "Payee",
      "actions" : { },
      "selected" : true
    },
    "requestXmlMappingOverride" : true,
    "responseXmlMappingOverride" : true
  }
}