{
  "customCode" : {
    "responseProcessorName" : "com.kony.payee.postprocessors.GetWireTransferRecipientPostProcessor"
  },
  "operationConfig" : {
    "name" : "getWireTransferRecipient2530",
    "type" : "MappedToBackend",
    "cachable" : false,
    "smsEnabled" : false,
    "security" : "authorized_app_user",
    "responseEncoding" : "UTF-8",
    "httpMethod" : "GET",
    "decodeResponseBody" : false,
    "iMapping" : "<?xml version=\"1.0\" encoding=\"UTF-8\" standalone=\"yes\"?><mapper xmlns=\"http://www.kony.com/ns/mapper\"><map inputpath=\"request_in\" outputpath=\"request_out\"><set-param inputpath=\"searchString\" outputpath=\"searchString\"/><set-param inputpath=\"offset\" outputpath=\"offset\"/><set-param inputpath=\"limit\" outputpath=\"limit\"/><set-param inputpath=\"sortBy\" outputpath=\"sortBy\"/><set-param inputpath=\"order\" outputpath=\"order\"/></map></mapper>",
    "oMapping" : "<?xml version=\"1.0\" encoding=\"UTF-8\" standalone=\"yes\"?><mapper xmlns=\"http://www.kony.com/ns/mapper\">  <map inputpath=\"response_in\" outputpath=\"response_out\">    <map inputpath=\"payee\" outputpath=\"Payee\">      <set-param inputpath=\"accountNumber\" outputpath=\"accountNumber\"/>      <set-param inputpath=\"addressLine1\" outputpath=\"addressLine1\"/>      <set-param inputpath=\"addressLine2\" outputpath=\"addressLine2\"/>      <set-param inputpath=\"cityName\" outputpath=\"cityName\"/>      <set-param inputpath=\"Id\" outputpath=\"payeeId\"/>      <set-param inputpath=\"name\" outputpath=\"payeeName\"/>      <set-param inputpath=\"nickName\" outputpath=\"payeeNickName\"/>      <set-param inputpath=\"state\" outputpath=\"state\"/>      <set-param inputpath=\"zipCode\" outputpath=\"zipCode\"/>      <set-param inputpath=\"Type_id\" outputpath=\"type\"/>      <set-param inputpath=\"country\" outputpath=\"country\"/>      <set-param inputpath=\"swiftCode\" outputpath=\"swiftCode\"/>      <set-param inputpath=\"routingCode\" outputpath=\"routingCode\"/>      <set-param inputpath=\"bankName\" outputpath=\"bankName\"/>      <set-param inputpath=\"bankAddressLine1\" outputpath=\"bankAddressLine1\"/>      <set-param inputpath=\"bankAddressLine2\" outputpath=\"bankAddressLine2\"/>      <set-param inputpath=\"bankCity\" outputpath=\"bankCity\"/>      <set-param inputpath=\"bankState\" outputpath=\"bankState\"/>      <set-param inputpath=\"bankZip\" outputpath=\"bankZip\"/>      <set-param inputpath=\"IBAN\" outputpath=\"IBAN\"/>      <set-param inputpath=\"wireAccountType\" outputpath=\"wireAccountType\"/>      <set-param inputpath=\"internationalRoutingCode\" outputpath=\"internationalRoutingCode\"/>    </map>  </map></mapper>",
    "oVisualMappingData" : "{\"nodeDataArray\":[{\"isGroup\":true,\"key\":\"response_out\",\"text\":\"Payee\",\"xy\":\"770 100\",\"__gohashid\":236530},{\"isGroup\":true,\"key\":\"response_in\",\"text\":\"dbpRbLocalServicesJava.getWireTransferRecipient\",\"xy\":\"150 100\",\"__gohashid\":236531}],\"linkDataArray\":[{\"from\":\"target\",\"to\":\"target:Payee\",\"fromPort\":\"target\",\"toPort\":\"target:Payee\",\"visible\":true,\"common\":false,\"__gohashid\":236616},{\"from\":\"target:Payee\",\"to\":\"target:Payee:fields\",\"fromPort\":\"target:Payee\",\"toPort\":\"target:Payee:fields\",\"visible\":true,\"common\":false,\"__gohashid\":236617},{\"from\":\"target:Payee:fields\",\"to\":\"target:Payee:accountNumber:\",\"fromPort\":\"target:Payee:fields\",\"toPort\":\"target:Payee:accountNumber:\",\"visible\":true,\"common\":false,\"__gohashid\":236618},{\"from\":\"target:Payee:fields\",\"to\":\"target:Payee:addressLine1:\",\"fromPort\":\"target:Payee:fields\",\"toPort\":\"target:Payee:addressLine1:\",\"visible\":true,\"common\":false,\"__gohashid\":236619},{\"from\":\"target:Payee:fields\",\"to\":\"target:Payee:addressLine2:\",\"fromPort\":\"target:Payee:fields\",\"toPort\":\"target:Payee:addressLine2:\",\"visible\":true,\"common\":false,\"__gohashid\":236620},{\"from\":\"target:Payee:fields\",\"to\":\"target:Payee:billDescription:\",\"fromPort\":\"target:Payee:fields\",\"toPort\":\"target:Payee:billDescription:\",\"visible\":true,\"common\":false,\"__gohashid\":236621},{\"from\":\"target:Payee:fields\",\"to\":\"target:Payee:billDueDate:\",\"fromPort\":\"target:Payee:fields\",\"toPort\":\"target:Payee:billDueDate:\",\"visible\":true,\"common\":false,\"__gohashid\":236622},{\"from\":\"target:Payee:fields\",\"to\":\"target:Payee:billerCategory:\",\"fromPort\":\"target:Payee:fields\",\"toPort\":\"target:Payee:billerCategory:\",\"visible\":true,\"common\":false,\"__gohashid\":236623},{\"from\":\"target:Payee:fields\",\"to\":\"target:Payee:billerId:\",\"fromPort\":\"target:Payee:fields\",\"toPort\":\"target:Payee:billerId:\",\"visible\":true,\"common\":false,\"__gohashid\":236624},{\"from\":\"target:Payee:fields\",\"to\":\"target:Payee:billGeneratedDate:\",\"fromPort\":\"target:Payee:fields\",\"toPort\":\"target:Payee:billGeneratedDate:\",\"visible\":true,\"common\":false,\"__gohashid\":236625},{\"from\":\"target:Payee:fields\",\"to\":\"target:Payee:billid:\",\"fromPort\":\"target:Payee:fields\",\"toPort\":\"target:Payee:billid:\",\"visible\":true,\"common\":false,\"__gohashid\":236626},{\"from\":\"target:Payee:fields\",\"to\":\"target:Payee:cityName:\",\"fromPort\":\"target:Payee:fields\",\"toPort\":\"target:Payee:cityName:\",\"visible\":true,\"common\":false,\"__gohashid\":236627},{\"from\":\"target:Payee:fields\",\"to\":\"target:Payee:companyName:\",\"fromPort\":\"target:Payee:fields\",\"toPort\":\"target:Payee:companyName:\",\"visible\":true,\"common\":false,\"__gohashid\":236628},{\"from\":\"target:Payee:fields\",\"to\":\"target:Payee:dueAmount:\",\"fromPort\":\"target:Payee:fields\",\"toPort\":\"target:Payee:dueAmount:\",\"visible\":true,\"common\":false,\"__gohashid\":236629},{\"from\":\"target:Payee:fields\",\"to\":\"target:Payee:EBillEnable:\",\"fromPort\":\"target:Payee:fields\",\"toPort\":\"target:Payee:EBillEnable:\",\"visible\":true,\"common\":false,\"__gohashid\":236630},{\"from\":\"target:Payee:fields\",\"to\":\"target:Payee:eBillStatus:\",\"fromPort\":\"target:Payee:fields\",\"toPort\":\"target:Payee:eBillStatus:\",\"visible\":true,\"common\":false,\"__gohashid\":236631},{\"from\":\"target:Payee:fields\",\"to\":\"target:Payee:eBillSupport:\",\"fromPort\":\"target:Payee:fields\",\"toPort\":\"target:Payee:eBillSupport:\",\"visible\":true,\"common\":false,\"__gohashid\":236632},{\"from\":\"target:Payee:fields\",\"to\":\"target:Payee:ebillURL:\",\"fromPort\":\"target:Payee:fields\",\"toPort\":\"target:Payee:ebillURL:\",\"visible\":true,\"common\":false,\"__gohashid\":236633},{\"from\":\"target:Payee:fields\",\"to\":\"target:Payee:email:\",\"fromPort\":\"target:Payee:fields\",\"toPort\":\"target:Payee:email:\",\"visible\":true,\"common\":false,\"__gohashid\":236634},{\"from\":\"target:Payee:fields\",\"to\":\"target:Payee:errmsg:\",\"fromPort\":\"target:Payee:fields\",\"toPort\":\"target:Payee:errmsg:\",\"visible\":true,\"common\":false,\"__gohashid\":236635},{\"from\":\"target:Payee:fields\",\"to\":\"target:Payee:lastPaidAmount:\",\"fromPort\":\"target:Payee:fields\",\"toPort\":\"target:Payee:lastPaidAmount:\",\"visible\":true,\"common\":false,\"__gohashid\":236636},{\"from\":\"target:Payee:fields\",\"to\":\"target:Payee:lastPaidDate:\",\"fromPort\":\"target:Payee:fields\",\"toPort\":\"target:Payee:lastPaidDate:\",\"visible\":true,\"common\":false,\"__gohashid\":236637},{\"from\":\"target:Payee:fields\",\"to\":\"target:Payee:limit:\",\"fromPort\":\"target:Payee:fields\",\"toPort\":\"target:Payee:limit:\",\"visible\":true,\"common\":false,\"__gohashid\":236638},{\"from\":\"target:Payee:fields\",\"to\":\"target:Payee:nameOnBill:\",\"fromPort\":\"target:Payee:fields\",\"toPort\":\"target:Payee:nameOnBill:\",\"visible\":true,\"common\":false,\"__gohashid\":236639},{\"from\":\"target:Payee:fields\",\"to\":\"target:Payee:notes:\",\"fromPort\":\"target:Payee:fields\",\"toPort\":\"target:Payee:notes:\",\"visible\":true,\"common\":false,\"__gohashid\":236640},{\"from\":\"target:Payee:fields\",\"to\":\"target:Payee:offset:\",\"fromPort\":\"target:Payee:fields\",\"toPort\":\"target:Payee:offset:\",\"visible\":true,\"common\":false,\"__gohashid\":236641},{\"from\":\"target:Payee:fields\",\"to\":\"target:Payee:order:\",\"fromPort\":\"target:Payee:fields\",\"toPort\":\"target:Payee:order:\",\"visible\":true,\"common\":false,\"__gohashid\":236642},{\"from\":\"target:Payee:fields\",\"to\":\"target:Payee:paidAmount:\",\"fromPort\":\"target:Payee:fields\",\"toPort\":\"target:Payee:paidAmount:\",\"visible\":true,\"common\":false,\"__gohashid\":236643},{\"from\":\"target:Payee:fields\",\"to\":\"target:Payee:payeeAccountNumber:\",\"fromPort\":\"target:Payee:fields\",\"toPort\":\"target:Payee:payeeAccountNumber:\",\"visible\":true,\"common\":false,\"__gohashid\":236644},{\"from\":\"target:Payee:fields\",\"to\":\"target:Payee:payeeId:\",\"fromPort\":\"target:Payee:fields\",\"toPort\":\"target:Payee:payeeId:\",\"visible\":true,\"common\":false,\"__gohashid\":236645},{\"from\":\"target:Payee:fields\",\"to\":\"target:Payee:payeeName:\",\"fromPort\":\"target:Payee:fields\",\"toPort\":\"target:Payee:payeeName:\",\"visible\":true,\"common\":false,\"__gohashid\":236646},{\"from\":\"target:Payee:fields\",\"to\":\"target:Payee:payeeNickName:\",\"fromPort\":\"target:Payee:fields\",\"toPort\":\"target:Payee:payeeNickName:\",\"visible\":true,\"common\":false,\"__gohashid\":236647},{\"from\":\"target:Payee:fields\",\"to\":\"target:Payee:phone:\",\"fromPort\":\"target:Payee:fields\",\"toPort\":\"target:Payee:phone:\",\"visible\":true,\"common\":false,\"__gohashid\":236648},{\"from\":\"target:Payee:fields\",\"to\":\"target:Payee:searchString:\",\"fromPort\":\"target:Payee:fields\",\"toPort\":\"target:Payee:searchString:\",\"visible\":true,\"common\":false,\"__gohashid\":236649},{\"from\":\"target:Payee:fields\",\"to\":\"target:Payee:sortBy:\",\"fromPort\":\"target:Payee:fields\",\"toPort\":\"target:Payee:sortBy:\",\"visible\":true,\"common\":false,\"__gohashid\":236650},{\"from\":\"target:Payee:fields\",\"to\":\"target:Payee:state:\",\"fromPort\":\"target:Payee:fields\",\"toPort\":\"target:Payee:state:\",\"visible\":true,\"common\":false,\"__gohashid\":236651},{\"from\":\"target:Payee:fields\",\"to\":\"target:Payee:street:\",\"fromPort\":\"target:Payee:fields\",\"toPort\":\"target:Payee:street:\",\"visible\":true,\"common\":false,\"__gohashid\":236652},{\"from\":\"target:Payee:fields\",\"to\":\"target:Payee:success:\",\"fromPort\":\"target:Payee:fields\",\"toPort\":\"target:Payee:success:\",\"visible\":true,\"common\":false,\"__gohashid\":236653},{\"from\":\"target:Payee:fields\",\"to\":\"target:Payee:zipCode:\",\"fromPort\":\"target:Payee:fields\",\"toPort\":\"target:Payee:zipCode:\",\"visible\":true,\"common\":false,\"__gohashid\":236654},{\"from\":\"target:Payee:fields\",\"to\":\"target:Payee:type:\",\"fromPort\":\"target:Payee:fields\",\"toPort\":\"target:Payee:type:\",\"visible\":true,\"common\":false,\"__gohashid\":236655},{\"from\":\"target:Payee:fields\",\"to\":\"target:Payee:country:\",\"fromPort\":\"target:Payee:fields\",\"toPort\":\"target:Payee:country:\",\"visible\":true,\"common\":false,\"__gohashid\":236656},{\"from\":\"target:Payee:fields\",\"to\":\"target:Payee:swiftCode:\",\"fromPort\":\"target:Payee:fields\",\"toPort\":\"target:Payee:swiftCode:\",\"visible\":true,\"common\":false,\"__gohashid\":236657},{\"from\":\"target:Payee:fields\",\"to\":\"target:Payee:routingCode:\",\"fromPort\":\"target:Payee:fields\",\"toPort\":\"target:Payee:routingCode:\",\"visible\":true,\"common\":false,\"__gohashid\":236658},{\"from\":\"target:Payee:fields\",\"to\":\"target:Payee:bankName:\",\"fromPort\":\"target:Payee:fields\",\"toPort\":\"target:Payee:bankName:\",\"visible\":true,\"common\":false,\"__gohashid\":236659},{\"from\":\"target:Payee:fields\",\"to\":\"target:Payee:bankAddressLine1:\",\"fromPort\":\"target:Payee:fields\",\"toPort\":\"target:Payee:bankAddressLine1:\",\"visible\":true,\"common\":false,\"__gohashid\":236660},{\"from\":\"target:Payee:fields\",\"to\":\"target:Payee:bankAddressLine2:\",\"fromPort\":\"target:Payee:fields\",\"toPort\":\"target:Payee:bankAddressLine2:\",\"visible\":true,\"common\":false,\"__gohashid\":236661},{\"from\":\"target:Payee:fields\",\"to\":\"target:Payee:bankCity:\",\"fromPort\":\"target:Payee:fields\",\"toPort\":\"target:Payee:bankCity:\",\"visible\":true,\"common\":false,\"__gohashid\":236662},{\"from\":\"target:Payee:fields\",\"to\":\"target:Payee:bankState:\",\"fromPort\":\"target:Payee:fields\",\"toPort\":\"target:Payee:bankState:\",\"visible\":true,\"common\":false,\"__gohashid\":236663},{\"from\":\"target:Payee:fields\",\"to\":\"target:Payee:bankZip:\",\"fromPort\":\"target:Payee:fields\",\"toPort\":\"target:Payee:bankZip:\",\"visible\":true,\"common\":false,\"__gohashid\":236664},{\"from\":\"target:Payee:fields\",\"to\":\"target:Payee:IBAN:\",\"fromPort\":\"target:Payee:fields\",\"toPort\":\"target:Payee:IBAN:\",\"visible\":true,\"common\":false,\"__gohashid\":236665},{\"from\":\"target:Payee:fields\",\"to\":\"target:Payee:wireAccountType:\",\"fromPort\":\"target:Payee:fields\",\"toPort\":\"target:Payee:wireAccountType:\",\"visible\":true,\"common\":false,\"__gohashid\":236666},{\"from\":\"target:Payee:fields\",\"to\":\"target:Payee:internationalRoutingCode:\",\"fromPort\":\"target:Payee:fields\",\"toPort\":\"target:Payee:internationalRoutingCode:\",\"visible\":true,\"common\":false,\"__gohashid\":236667},{\"from\":\"target:Payee:fields\",\"to\":\"target:Payee:transactionId:\",\"fromPort\":\"target:Payee:fields\",\"toPort\":\"target:Payee:transactionId:\",\"visible\":true,\"common\":false,\"__gohashid\":236668},{\"from\":\"target:Payee:fields\",\"to\":\"target:Payee:isManuallyAdded:\",\"fromPort\":\"target:Payee:fields\",\"toPort\":\"target:Payee:isManuallyAdded:\",\"visible\":true,\"common\":false,\"__gohashid\":236669},{\"from\":\"source\",\"to\":\"source:parameters\",\"fromPort\":\"source\",\"toPort\":\"source:parameters\",\"visible\":true,\"common\":false,\"__gohashid\":236670},{\"from\":\"source:parameters\",\"to\":\"source:errmsg:\",\"fromPort\":\"source:parameters\",\"toPort\":\"source:errmsg:\",\"visible\":true,\"common\":false,\"__gohashid\":236671},{\"from\":\"source:parameters\",\"to\":\"source:success:\",\"fromPort\":\"source:parameters\",\"toPort\":\"source:success:\",\"visible\":true,\"common\":false,\"__gohashid\":236672},{\"from\":\"source\",\"to\":\"source:Payee\",\"fromPort\":\"source\",\"toPort\":\"source:Payee\",\"visible\":true,\"common\":false,\"__gohashid\":236673},{\"from\":\"source:Payee\",\"to\":\"source:Payee:parameters\",\"fromPort\":\"source:Payee\",\"toPort\":\"source:Payee:parameters\",\"visible\":true,\"common\":false,\"__gohashid\":236674},{\"from\":\"source:Payee:parameters\",\"to\":\"source:Payee:accountNumber:\",\"fromPort\":\"source:Payee:parameters\",\"toPort\":\"source:Payee:accountNumber:\",\"visible\":true,\"common\":false,\"__gohashid\":236675},{\"from\":\"source:Payee:parameters\",\"to\":\"source:Payee:addressLine1:\",\"fromPort\":\"source:Payee:parameters\",\"toPort\":\"source:Payee:addressLine1:\",\"visible\":true,\"common\":false,\"__gohashid\":236676},{\"from\":\"source:Payee:parameters\",\"to\":\"source:Payee:addressLine2:\",\"fromPort\":\"source:Payee:parameters\",\"toPort\":\"source:Payee:addressLine2:\",\"visible\":true,\"common\":false,\"__gohashid\":236677},{\"from\":\"source:Payee:parameters\",\"to\":\"source:Payee:bankAddressLine1:\",\"fromPort\":\"source:Payee:parameters\",\"toPort\":\"source:Payee:bankAddressLine1:\",\"visible\":true,\"common\":false,\"__gohashid\":236678},{\"from\":\"source:Payee:parameters\",\"to\":\"source:Payee:bankAddressLine2:\",\"fromPort\":\"source:Payee:parameters\",\"toPort\":\"source:Payee:bankAddressLine2:\",\"visible\":true,\"common\":false,\"__gohashid\":236679},{\"from\":\"source:Payee:parameters\",\"to\":\"source:Payee:bankCity:\",\"fromPort\":\"source:Payee:parameters\",\"toPort\":\"source:Payee:bankCity:\",\"visible\":true,\"common\":false,\"__gohashid\":236680},{\"from\":\"source:Payee:parameters\",\"to\":\"source:Payee:bankName:\",\"fromPort\":\"source:Payee:parameters\",\"toPort\":\"source:Payee:bankName:\",\"visible\":true,\"common\":false,\"__gohashid\":236681},{\"from\":\"source:Payee:parameters\",\"to\":\"source:Payee:bankState:\",\"fromPort\":\"source:Payee:parameters\",\"toPort\":\"source:Payee:bankState:\",\"visible\":true,\"common\":false,\"__gohashid\":236682},{\"from\":\"source:Payee:parameters\",\"to\":\"source:Payee:bankZip:\",\"fromPort\":\"source:Payee:parameters\",\"toPort\":\"source:Payee:bankZip:\",\"visible\":true,\"common\":false,\"__gohashid\":236683},{\"from\":\"source:Payee:parameters\",\"to\":\"source:Payee:cityName:\",\"fromPort\":\"source:Payee:parameters\",\"toPort\":\"source:Payee:cityName:\",\"visible\":true,\"common\":false,\"__gohashid\":236684},{\"from\":\"source:Payee:parameters\",\"to\":\"source:Payee:country:\",\"fromPort\":\"source:Payee:parameters\",\"toPort\":\"source:Payee:country:\",\"visible\":true,\"common\":false,\"__gohashid\":236685},{\"from\":\"source:Payee:parameters\",\"to\":\"source:Payee:IBAN:\",\"fromPort\":\"source:Payee:parameters\",\"toPort\":\"source:Payee:IBAN:\",\"visible\":true,\"common\":false,\"__gohashid\":236686},{\"from\":\"source:Payee:parameters\",\"to\":\"source:Payee:internationalRoutingCode:\",\"fromPort\":\"source:Payee:parameters\",\"toPort\":\"source:Payee:internationalRoutingCode:\",\"visible\":true,\"common\":false,\"__gohashid\":236687},{\"from\":\"source:Payee:parameters\",\"to\":\"source:Payee:payeeId:\",\"fromPort\":\"source:Payee:parameters\",\"toPort\":\"source:Payee:payeeId:\",\"visible\":true,\"common\":false,\"__gohashid\":236688},{\"from\":\"source:Payee:parameters\",\"to\":\"source:Payee:payeeName:\",\"fromPort\":\"source:Payee:parameters\",\"toPort\":\"source:Payee:payeeName:\",\"visible\":true,\"common\":false,\"__gohashid\":236689},{\"from\":\"source:Payee:parameters\",\"to\":\"source:Payee:payeeNickName:\",\"fromPort\":\"source:Payee:parameters\",\"toPort\":\"source:Payee:payeeNickName:\",\"visible\":true,\"common\":false,\"__gohashid\":236690},{\"from\":\"source:Payee:parameters\",\"to\":\"source:Payee:routingCode:\",\"fromPort\":\"source:Payee:parameters\",\"toPort\":\"source:Payee:routingCode:\",\"visible\":true,\"common\":false,\"__gohashid\":236691},{\"from\":\"source:Payee:parameters\",\"to\":\"source:Payee:state:\",\"fromPort\":\"source:Payee:parameters\",\"toPort\":\"source:Payee:state:\",\"visible\":true,\"common\":false,\"__gohashid\":236692},{\"from\":\"source:Payee:parameters\",\"to\":\"source:Payee:swiftCode:\",\"fromPort\":\"source:Payee:parameters\",\"toPort\":\"source:Payee:swiftCode:\",\"visible\":true,\"common\":false,\"__gohashid\":236693},{\"from\":\"source:Payee:parameters\",\"to\":\"source:Payee:type:\",\"fromPort\":\"source:Payee:parameters\",\"toPort\":\"source:Payee:type:\",\"visible\":true,\"common\":false,\"__gohashid\":236694},{\"from\":\"source:Payee:parameters\",\"to\":\"source:Payee:wireAccountType:\",\"fromPort\":\"source:Payee:parameters\",\"toPort\":\"source:Payee:wireAccountType:\",\"visible\":true,\"common\":false,\"__gohashid\":236695},{\"from\":\"source:Payee:parameters\",\"to\":\"source:Payee:zipCode:\",\"fromPort\":\"source:Payee:parameters\",\"toPort\":\"source:Payee:zipCode:\",\"visible\":true,\"common\":false,\"__gohashid\":236696},{\"category\":\"Mapping\",\"from\":\"source:Payee:accountNumber:\",\"to\":\"target:Payee:accountNumber:\",\"fromPort\":\"source:Payee:accountNumber:\",\"toPort\":\"target:Payee:accountNumber:\",\"visible\":true,\"common\":true,\"__gohashid\":240123},{\"category\":\"Mapping\",\"from\":\"source:Payee:addressLine1:\",\"to\":\"target:Payee:addressLine1:\",\"fromPort\":\"source:Payee:addressLine1:\",\"toPort\":\"target:Payee:addressLine1:\",\"visible\":true,\"common\":true,\"__gohashid\":240130},{\"category\":\"Mapping\",\"from\":\"source:Payee:addressLine2:\",\"to\":\"target:Payee:addressLine2:\",\"fromPort\":\"source:Payee:addressLine2:\",\"toPort\":\"target:Payee:addressLine2:\",\"visible\":true,\"common\":true,\"__gohashid\":240137},{\"category\":\"Mapping\",\"from\":\"source:Payee:cityName:\",\"to\":\"target:Payee:cityName:\",\"fromPort\":\"source:Payee:cityName:\",\"toPort\":\"target:Payee:cityName:\",\"visible\":true,\"common\":true,\"__gohashid\":240144},{\"category\":\"Mapping\",\"from\":\"source:Payee:payeeId:\",\"to\":\"target:Payee:payeeId:\",\"fromPort\":\"source:Payee:payeeId:\",\"toPort\":\"target:Payee:payeeId:\",\"visible\":true,\"common\":true,\"__gohashid\":240151},{\"category\":\"Mapping\",\"from\":\"source:Payee:payeeName:\",\"to\":\"target:Payee:payeeName:\",\"fromPort\":\"source:Payee:payeeName:\",\"toPort\":\"target:Payee:payeeName:\",\"visible\":true,\"common\":true,\"__gohashid\":240158},{\"category\":\"Mapping\",\"from\":\"source:Payee:payeeNickName:\",\"to\":\"target:Payee:payeeNickName:\",\"fromPort\":\"source:Payee:payeeNickName:\",\"toPort\":\"target:Payee:payeeNickName:\",\"visible\":true,\"common\":true,\"__gohashid\":240165},{\"category\":\"Mapping\",\"from\":\"source:Payee:state:\",\"to\":\"target:Payee:state:\",\"fromPort\":\"source:Payee:state:\",\"toPort\":\"target:Payee:state:\",\"visible\":true,\"common\":true,\"__gohashid\":240172},{\"category\":\"Mapping\",\"from\":\"source:Payee:zipCode:\",\"to\":\"target:Payee:zipCode:\",\"fromPort\":\"source:Payee:zipCode:\",\"toPort\":\"target:Payee:zipCode:\",\"visible\":true,\"common\":true,\"__gohashid\":240179},{\"category\":\"Mapping\",\"from\":\"source:Payee:type:\",\"to\":\"target:Payee:type:\",\"fromPort\":\"source:Payee:type:\",\"toPort\":\"target:Payee:type:\",\"visible\":true,\"common\":true,\"__gohashid\":240186},{\"category\":\"Mapping\",\"from\":\"source:Payee:country:\",\"to\":\"target:Payee:country:\",\"fromPort\":\"source:Payee:country:\",\"toPort\":\"target:Payee:country:\",\"visible\":true,\"common\":true,\"__gohashid\":240193},{\"category\":\"Mapping\",\"from\":\"source:Payee:swiftCode:\",\"to\":\"target:Payee:swiftCode:\",\"fromPort\":\"source:Payee:swiftCode:\",\"toPort\":\"target:Payee:swiftCode:\",\"visible\":true,\"common\":true,\"__gohashid\":240200},{\"category\":\"Mapping\",\"from\":\"source:Payee:routingCode:\",\"to\":\"target:Payee:routingCode:\",\"fromPort\":\"source:Payee:routingCode:\",\"toPort\":\"target:Payee:routingCode:\",\"visible\":true,\"common\":true,\"__gohashid\":240207},{\"category\":\"Mapping\",\"from\":\"source:Payee:bankName:\",\"to\":\"target:Payee:bankName:\",\"fromPort\":\"source:Payee:bankName:\",\"toPort\":\"target:Payee:bankName:\",\"visible\":true,\"common\":true,\"__gohashid\":240214},{\"category\":\"Mapping\",\"from\":\"source:Payee:bankAddressLine1:\",\"to\":\"target:Payee:bankAddressLine1:\",\"fromPort\":\"source:Payee:bankAddressLine1:\",\"toPort\":\"target:Payee:bankAddressLine1:\",\"visible\":true,\"common\":true,\"__gohashid\":240221},{\"category\":\"Mapping\",\"from\":\"source:Payee:bankAddressLine2:\",\"to\":\"target:Payee:bankAddressLine2:\",\"fromPort\":\"source:Payee:bankAddressLine2:\",\"toPort\":\"target:Payee:bankAddressLine2:\",\"visible\":true,\"common\":true,\"__gohashid\":240228},{\"category\":\"Mapping\",\"from\":\"source:Payee:bankCity:\",\"to\":\"target:Payee:bankCity:\",\"fromPort\":\"source:Payee:bankCity:\",\"toPort\":\"target:Payee:bankCity:\",\"visible\":true,\"common\":true,\"__gohashid\":240235},{\"category\":\"Mapping\",\"from\":\"source:Payee:bankState:\",\"to\":\"target:Payee:bankState:\",\"fromPort\":\"source:Payee:bankState:\",\"toPort\":\"target:Payee:bankState:\",\"visible\":true,\"common\":true,\"__gohashid\":240242},{\"category\":\"Mapping\",\"from\":\"source:Payee:bankZip:\",\"to\":\"target:Payee:bankZip:\",\"fromPort\":\"source:Payee:bankZip:\",\"toPort\":\"target:Payee:bankZip:\",\"visible\":true,\"common\":true,\"__gohashid\":240249},{\"category\":\"Mapping\",\"from\":\"source:Payee:IBAN:\",\"to\":\"target:Payee:IBAN:\",\"fromPort\":\"source:Payee:IBAN:\",\"toPort\":\"target:Payee:IBAN:\",\"visible\":true,\"common\":true,\"__gohashid\":240256},{\"category\":\"Mapping\",\"from\":\"source:Payee:wireAccountType:\",\"to\":\"target:Payee:wireAccountType:\",\"fromPort\":\"source:Payee:wireAccountType:\",\"toPort\":\"target:Payee:wireAccountType:\",\"visible\":true,\"common\":true,\"__gohashid\":240263},{\"category\":\"Mapping\",\"from\":\"source:Payee:internationalRoutingCode:\",\"to\":\"target:Payee:internationalRoutingCode:\",\"fromPort\":\"source:Payee:internationalRoutingCode:\",\"toPort\":\"target:Payee:internationalRoutingCode:\",\"visible\":true,\"common\":true,\"__gohashid\":240270}],\"blockCount\":{\"variableCount\":0},\"variableMap\":{},\"xmlMappingOverride\":true}",
    "applyCommonMapping" : false,
    "applyRequestCommonMapping" : true,
    "applyResponseCommonMapping" : false,
    "backendMeta" : {
      "serviceName" : "dbpRbLocalServicesJava",
      "serviceVersion" : "1.0",
      "operationName" : "getWireTransferRecipient"
    },
    "relationshipHierarchyMapping" : {
      "children" : [ ],
      "name" : "Payee",
      "actions" : { },
      "selected" : true
    },
    "requestXmlMappingOverride" : false,
    "responseXmlMappingOverride" : true
  }
}