{
  "operationConfig" : {
    "name" : "updatePayee4433",
    "type" : "MappedToBackend",
    "cachable" : false,
    "smsEnabled" : false,
    "security" : "authorized_app_user",
    "responseEncoding" : "UTF-8",
    "httpMethod" : "GET",
    "decodeResponseBody" : false,
    "iMapping" : "<?xml version=\"1.0\" encoding=\"UTF-8\" standalone=\"yes\"?><mapper xmlns=\"http://www.kony.com/ns/mapper\">      <map inputpath=\"request_in\" outputpath=\"request_out\">            <set-param inputpath=\"payeeId\" outputpath=\"payeeId\"/>            <set-param inputpath=\"payeeNickName\" outputpath=\"nickname\"/>            <set-param inputpath=\"addressLine1\" outputpath=\"address1\"/>            <set-param inputpath=\"addressLine2\" outputpath=\"address2\"/>            <set-param inputpath=\"cityName\" outputpath=\"city\"/>            <set-param inputpath=\"state\" outputpath=\"state\"/>            <set-param inputpath=\"zipCode\" outputpath=\"zipCode\"/>            <set-param inputpath=\"phone\" outputpath=\"contactPhoneNumber\"/>      </map></mapper>",
    "oMapping" : "<?xml version=\"1.0\" encoding=\"UTF-8\" standalone=\"yes\"?><mapper xmlns=\"http://www.kony.com/ns/mapper\">            <map inputpath=\"response_in\" outputpath=\"response_out\">                          <set-param inputpath=\"success\" outputpath=\"success\"/>                          <set-param inputpath=\"opstatus\" outputpath=\"opstatus\"/>                <map inputpath=\"result\" outputpath=\"result\">                           \t                                    <set-param inputpath=\"resultCategory\" outputpath=\"resultCategory\"/>        \t\t                                                            <set-param inputpath=\"description\" outputpath=\"description\"/>     \t                                      </map>                </map></mapper>",
    "iVisualMappingData" : "{\"nodeDataArray\":[{\"isGroup\":true,\"key\":\"request_in\",\"text\":\"Payee\",\"xy\":\"150 100\",\"__gohashid\":2511},{\"isGroup\":true,\"key\":\"request_out\",\"text\":\"CheckFreeNextOrch (1.0).updatePayee\",\"xy\":\"770 100\",\"__gohashid\":2512}],\"linkDataArray\":[{\"from\":\"source\",\"to\":\"source:Payee\",\"fromPort\":\"source\",\"toPort\":\"source:Payee\",\"visible\":true,\"common\":false,\"__gohashid\":2588},{\"from\":\"source:Payee\",\"to\":\"source:Payee:fields\",\"fromPort\":\"source:Payee\",\"toPort\":\"source:Payee:fields\",\"visible\":true,\"common\":false,\"__gohashid\":2589},{\"from\":\"source:Payee:fields\",\"to\":\"source:Payee:accountNumber:\",\"fromPort\":\"source:Payee:fields\",\"toPort\":\"source:Payee:accountNumber:\",\"visible\":true,\"common\":false,\"__gohashid\":2590},{\"from\":\"source:Payee:fields\",\"to\":\"source:Payee:addressLine1:\",\"fromPort\":\"source:Payee:fields\",\"toPort\":\"source:Payee:addressLine1:\",\"visible\":true,\"common\":false,\"__gohashid\":2591},{\"from\":\"source:Payee:fields\",\"to\":\"source:Payee:addressLine2:\",\"fromPort\":\"source:Payee:fields\",\"toPort\":\"source:Payee:addressLine2:\",\"visible\":true,\"common\":false,\"__gohashid\":2592},{\"from\":\"source:Payee:fields\",\"to\":\"source:Payee:billDescription:\",\"fromPort\":\"source:Payee:fields\",\"toPort\":\"source:Payee:billDescription:\",\"visible\":true,\"common\":false,\"__gohashid\":2593},{\"from\":\"source:Payee:fields\",\"to\":\"source:Payee:billDueDate:\",\"fromPort\":\"source:Payee:fields\",\"toPort\":\"source:Payee:billDueDate:\",\"visible\":true,\"common\":false,\"__gohashid\":2594},{\"from\":\"source:Payee:fields\",\"to\":\"source:Payee:billerCategory:\",\"fromPort\":\"source:Payee:fields\",\"toPort\":\"source:Payee:billerCategory:\",\"visible\":true,\"common\":false,\"__gohashid\":2595},{\"from\":\"source:Payee:fields\",\"to\":\"source:Payee:billerId:\",\"fromPort\":\"source:Payee:fields\",\"toPort\":\"source:Payee:billerId:\",\"visible\":true,\"common\":false,\"__gohashid\":2596},{\"from\":\"source:Payee:fields\",\"to\":\"source:Payee:billGeneratedDate:\",\"fromPort\":\"source:Payee:fields\",\"toPort\":\"source:Payee:billGeneratedDate:\",\"visible\":true,\"common\":false,\"__gohashid\":2597},{\"from\":\"source:Payee:fields\",\"to\":\"source:Payee:billid:\",\"fromPort\":\"source:Payee:fields\",\"toPort\":\"source:Payee:billid:\",\"visible\":true,\"common\":false,\"__gohashid\":2598},{\"from\":\"source:Payee:fields\",\"to\":\"source:Payee:cityName:\",\"fromPort\":\"source:Payee:fields\",\"toPort\":\"source:Payee:cityName:\",\"visible\":true,\"common\":false,\"__gohashid\":2599},{\"from\":\"source:Payee:fields\",\"to\":\"source:Payee:companyName:\",\"fromPort\":\"source:Payee:fields\",\"toPort\":\"source:Payee:companyName:\",\"visible\":true,\"common\":false,\"__gohashid\":2600},{\"from\":\"source:Payee:fields\",\"to\":\"source:Payee:dueAmount:\",\"fromPort\":\"source:Payee:fields\",\"toPort\":\"source:Payee:dueAmount:\",\"visible\":true,\"common\":false,\"__gohashid\":2601},{\"from\":\"source:Payee:fields\",\"to\":\"source:Payee:EBillEnable:\",\"fromPort\":\"source:Payee:fields\",\"toPort\":\"source:Payee:EBillEnable:\",\"visible\":true,\"common\":false,\"__gohashid\":2602},{\"from\":\"source:Payee:fields\",\"to\":\"source:Payee:eBillStatus:\",\"fromPort\":\"source:Payee:fields\",\"toPort\":\"source:Payee:eBillStatus:\",\"visible\":true,\"common\":false,\"__gohashid\":2603},{\"from\":\"source:Payee:fields\",\"to\":\"source:Payee:eBillSupport:\",\"fromPort\":\"source:Payee:fields\",\"toPort\":\"source:Payee:eBillSupport:\",\"visible\":true,\"common\":false,\"__gohashid\":2604},{\"from\":\"source:Payee:fields\",\"to\":\"source:Payee:ebillURL:\",\"fromPort\":\"source:Payee:fields\",\"toPort\":\"source:Payee:ebillURL:\",\"visible\":true,\"common\":false,\"__gohashid\":2605},{\"from\":\"source:Payee:fields\",\"to\":\"source:Payee:email:\",\"fromPort\":\"source:Payee:fields\",\"toPort\":\"source:Payee:email:\",\"visible\":true,\"common\":false,\"__gohashid\":2606},{\"from\":\"source:Payee:fields\",\"to\":\"source:Payee:errmsg:\",\"fromPort\":\"source:Payee:fields\",\"toPort\":\"source:Payee:errmsg:\",\"visible\":true,\"common\":false,\"__gohashid\":2607},{\"from\":\"source:Payee:fields\",\"to\":\"source:Payee:lastPaidAmount:\",\"fromPort\":\"source:Payee:fields\",\"toPort\":\"source:Payee:lastPaidAmount:\",\"visible\":true,\"common\":false,\"__gohashid\":2608},{\"from\":\"source:Payee:fields\",\"to\":\"source:Payee:lastPaidDate:\",\"fromPort\":\"source:Payee:fields\",\"toPort\":\"source:Payee:lastPaidDate:\",\"visible\":true,\"common\":false,\"__gohashid\":2609},{\"from\":\"source:Payee:fields\",\"to\":\"source:Payee:limit:\",\"fromPort\":\"source:Payee:fields\",\"toPort\":\"source:Payee:limit:\",\"visible\":true,\"common\":false,\"__gohashid\":2610},{\"from\":\"source:Payee:fields\",\"to\":\"source:Payee:nameOnBill:\",\"fromPort\":\"source:Payee:fields\",\"toPort\":\"source:Payee:nameOnBill:\",\"visible\":true,\"common\":false,\"__gohashid\":2611},{\"from\":\"source:Payee:fields\",\"to\":\"source:Payee:notes:\",\"fromPort\":\"source:Payee:fields\",\"toPort\":\"source:Payee:notes:\",\"visible\":true,\"common\":false,\"__gohashid\":2612},{\"from\":\"source:Payee:fields\",\"to\":\"source:Payee:offset:\",\"fromPort\":\"source:Payee:fields\",\"toPort\":\"source:Payee:offset:\",\"visible\":true,\"common\":false,\"__gohashid\":2613},{\"from\":\"source:Payee:fields\",\"to\":\"source:Payee:order:\",\"fromPort\":\"source:Payee:fields\",\"toPort\":\"source:Payee:order:\",\"visible\":true,\"common\":false,\"__gohashid\":2614},{\"from\":\"source:Payee:fields\",\"to\":\"source:Payee:paidAmount:\",\"fromPort\":\"source:Payee:fields\",\"toPort\":\"source:Payee:paidAmount:\",\"visible\":true,\"common\":false,\"__gohashid\":2615},{\"from\":\"source:Payee:fields\",\"to\":\"source:Payee:payeeAccountNumber:\",\"fromPort\":\"source:Payee:fields\",\"toPort\":\"source:Payee:payeeAccountNumber:\",\"visible\":true,\"common\":false,\"__gohashid\":2616},{\"from\":\"source:Payee:fields\",\"to\":\"source:Payee:payeeId:\",\"fromPort\":\"source:Payee:fields\",\"toPort\":\"source:Payee:payeeId:\",\"visible\":true,\"common\":false,\"__gohashid\":2617},{\"from\":\"source:Payee:fields\",\"to\":\"source:Payee:payeeName:\",\"fromPort\":\"source:Payee:fields\",\"toPort\":\"source:Payee:payeeName:\",\"visible\":true,\"common\":false,\"__gohashid\":2618},{\"from\":\"source:Payee:fields\",\"to\":\"source:Payee:payeeNickName:\",\"fromPort\":\"source:Payee:fields\",\"toPort\":\"source:Payee:payeeNickName:\",\"visible\":true,\"common\":false,\"__gohashid\":2619},{\"from\":\"source:Payee:fields\",\"to\":\"source:Payee:phone:\",\"fromPort\":\"source:Payee:fields\",\"toPort\":\"source:Payee:phone:\",\"visible\":true,\"common\":false,\"__gohashid\":2620},{\"from\":\"source:Payee:fields\",\"to\":\"source:Payee:searchString:\",\"fromPort\":\"source:Payee:fields\",\"toPort\":\"source:Payee:searchString:\",\"visible\":true,\"common\":false,\"__gohashid\":2621},{\"from\":\"source:Payee:fields\",\"to\":\"source:Payee:sortBy:\",\"fromPort\":\"source:Payee:fields\",\"toPort\":\"source:Payee:sortBy:\",\"visible\":true,\"common\":false,\"__gohashid\":2622},{\"from\":\"source:Payee:fields\",\"to\":\"source:Payee:state:\",\"fromPort\":\"source:Payee:fields\",\"toPort\":\"source:Payee:state:\",\"visible\":true,\"common\":false,\"__gohashid\":2623},{\"from\":\"source:Payee:fields\",\"to\":\"source:Payee:street:\",\"fromPort\":\"source:Payee:fields\",\"toPort\":\"source:Payee:street:\",\"visible\":true,\"common\":false,\"__gohashid\":2624},{\"from\":\"source:Payee:fields\",\"to\":\"source:Payee:success:\",\"fromPort\":\"source:Payee:fields\",\"toPort\":\"source:Payee:success:\",\"visible\":true,\"common\":false,\"__gohashid\":2625},{\"from\":\"source:Payee:fields\",\"to\":\"source:Payee:zipCode:\",\"fromPort\":\"source:Payee:fields\",\"toPort\":\"source:Payee:zipCode:\",\"visible\":true,\"common\":false,\"__gohashid\":2626},{\"from\":\"source:Payee:fields\",\"to\":\"source:Payee:type:\",\"fromPort\":\"source:Payee:fields\",\"toPort\":\"source:Payee:type:\",\"visible\":true,\"common\":false,\"__gohashid\":2627},{\"from\":\"source:Payee:fields\",\"to\":\"source:Payee:country:\",\"fromPort\":\"source:Payee:fields\",\"toPort\":\"source:Payee:country:\",\"visible\":true,\"common\":false,\"__gohashid\":2628},{\"from\":\"source:Payee:fields\",\"to\":\"source:Payee:swiftCode:\",\"fromPort\":\"source:Payee:fields\",\"toPort\":\"source:Payee:swiftCode:\",\"visible\":true,\"common\":false,\"__gohashid\":2629},{\"from\":\"source:Payee:fields\",\"to\":\"source:Payee:routingCode:\",\"fromPort\":\"source:Payee:fields\",\"toPort\":\"source:Payee:routingCode:\",\"visible\":true,\"common\":false,\"__gohashid\":2630},{\"from\":\"source:Payee:fields\",\"to\":\"source:Payee:bankName:\",\"fromPort\":\"source:Payee:fields\",\"toPort\":\"source:Payee:bankName:\",\"visible\":true,\"common\":false,\"__gohashid\":2631},{\"from\":\"source:Payee:fields\",\"to\":\"source:Payee:bankAddressLine1:\",\"fromPort\":\"source:Payee:fields\",\"toPort\":\"source:Payee:bankAddressLine1:\",\"visible\":true,\"common\":false,\"__gohashid\":2632},{\"from\":\"source:Payee:fields\",\"to\":\"source:Payee:bankAddressLine2:\",\"fromPort\":\"source:Payee:fields\",\"toPort\":\"source:Payee:bankAddressLine2:\",\"visible\":true,\"common\":false,\"__gohashid\":2633},{\"from\":\"source:Payee:fields\",\"to\":\"source:Payee:bankCity:\",\"fromPort\":\"source:Payee:fields\",\"toPort\":\"source:Payee:bankCity:\",\"visible\":true,\"common\":false,\"__gohashid\":2634},{\"from\":\"source:Payee:fields\",\"to\":\"source:Payee:bankState:\",\"fromPort\":\"source:Payee:fields\",\"toPort\":\"source:Payee:bankState:\",\"visible\":true,\"common\":false,\"__gohashid\":2635},{\"from\":\"source:Payee:fields\",\"to\":\"source:Payee:bankZip:\",\"fromPort\":\"source:Payee:fields\",\"toPort\":\"source:Payee:bankZip:\",\"visible\":true,\"common\":false,\"__gohashid\":2636},{\"from\":\"source:Payee:fields\",\"to\":\"source:Payee:IBAN:\",\"fromPort\":\"source:Payee:fields\",\"toPort\":\"source:Payee:IBAN:\",\"visible\":true,\"common\":false,\"__gohashid\":2637},{\"from\":\"source:Payee:fields\",\"to\":\"source:Payee:wireAccountType:\",\"fromPort\":\"source:Payee:fields\",\"toPort\":\"source:Payee:wireAccountType:\",\"visible\":true,\"common\":false,\"__gohashid\":2638},{\"from\":\"source:Payee:fields\",\"to\":\"source:Payee:internationalRoutingCode:\",\"fromPort\":\"source:Payee:fields\",\"toPort\":\"source:Payee:internationalRoutingCode:\",\"visible\":true,\"common\":false,\"__gohashid\":2639},{\"from\":\"source:Payee:fields\",\"to\":\"source:Payee:transactionId:\",\"fromPort\":\"source:Payee:fields\",\"toPort\":\"source:Payee:transactionId:\",\"visible\":true,\"common\":false,\"__gohashid\":2640},{\"from\":\"source:Payee:fields\",\"to\":\"source:Payee:isManuallyAdded:\",\"fromPort\":\"source:Payee:fields\",\"toPort\":\"source:Payee:isManuallyAdded:\",\"visible\":true,\"common\":false,\"__gohashid\":2641},{\"from\":\"source:Payee:fields\",\"to\":\"source:Payee:phoneExtension:\",\"fromPort\":\"source:Payee:fields\",\"toPort\":\"source:Payee:phoneExtension:\",\"visible\":true,\"common\":false,\"__gohashid\":2642},{\"from\":\"source:Payee:fields\",\"to\":\"source:Payee:phoneCountryCode:\",\"fromPort\":\"source:Payee:fields\",\"toPort\":\"source:Payee:phoneCountryCode:\",\"visible\":true,\"common\":false,\"__gohashid\":2643},{\"from\":\"source:Payee:fields\",\"to\":\"source:Payee:isWiredRecepient:\",\"fromPort\":\"source:Payee:fields\",\"toPort\":\"source:Payee:isWiredRecepient:\",\"visible\":true,\"common\":false,\"__gohashid\":2644},{\"from\":\"source:Payee:fields\",\"to\":\"source:Payee:beneficiaryId:\",\"fromPort\":\"source:Payee:fields\",\"toPort\":\"source:Payee:beneficiaryId:\",\"visible\":true,\"common\":false,\"__gohashid\":2645},{\"from\":\"source:Payee:fields\",\"to\":\"source:Payee:fromAccountCurrency:\",\"fromPort\":\"source:Payee:fields\",\"toPort\":\"source:Payee:fromAccountCurrency:\",\"visible\":true,\"common\":false,\"__gohashid\":2646},{\"from\":\"source:Payee:fields\",\"to\":\"source:Payee:toAccountCurrency:\",\"fromPort\":\"source:Payee:fields\",\"toPort\":\"source:Payee:toAccountCurrency:\",\"visible\":true,\"common\":false,\"__gohashid\":2647},{\"from\":\"source:Payee:fields\",\"to\":\"source:Payee:totalRecordCount:\",\"fromPort\":\"source:Payee:fields\",\"toPort\":\"source:Payee:totalRecordCount:\",\"visible\":true,\"common\":false,\"__gohashid\":2648},{\"from\":\"source:Payee:fields\",\"to\":\"source:Payee:isManaged:\",\"fromPort\":\"source:Payee:fields\",\"toPort\":\"source:Payee:isManaged:\",\"visible\":true,\"common\":false,\"__gohashid\":2649},{\"from\":\"source:Payee:fields\",\"to\":\"source:Payee:cancelPendingTransactions:\",\"fromPort\":\"source:Payee:fields\",\"toPort\":\"source:Payee:cancelPendingTransactions:\",\"visible\":true,\"common\":false,\"__gohashid\":2650},{\"from\":\"target\",\"to\":\"target:parameters\",\"fromPort\":\"target\",\"toPort\":\"target:parameters\",\"visible\":true,\"common\":false,\"__gohashid\":2651},{\"from\":\"target:parameters\",\"to\":\"target:address1:\",\"fromPort\":\"target:parameters\",\"toPort\":\"target:address1:\",\"visible\":true,\"common\":false,\"__gohashid\":2652},{\"from\":\"target:parameters\",\"to\":\"target:address2:\",\"fromPort\":\"target:parameters\",\"toPort\":\"target:address2:\",\"visible\":true,\"common\":false,\"__gohashid\":2653},{\"from\":\"target:parameters\",\"to\":\"target:city:\",\"fromPort\":\"target:parameters\",\"toPort\":\"target:city:\",\"visible\":true,\"common\":false,\"__gohashid\":2654},{\"from\":\"target:parameters\",\"to\":\"target:contactPhoneNumber:\",\"fromPort\":\"target:parameters\",\"toPort\":\"target:contactPhoneNumber:\",\"visible\":true,\"common\":false,\"__gohashid\":2655},{\"from\":\"target:parameters\",\"to\":\"target:nickname:\",\"fromPort\":\"target:parameters\",\"toPort\":\"target:nickname:\",\"visible\":true,\"common\":false,\"__gohashid\":2656},{\"from\":\"target:parameters\",\"to\":\"target:payeeId:\",\"fromPort\":\"target:parameters\",\"toPort\":\"target:payeeId:\",\"visible\":true,\"common\":false,\"__gohashid\":2657},{\"from\":\"target:parameters\",\"to\":\"target:state:\",\"fromPort\":\"target:parameters\",\"toPort\":\"target:state:\",\"visible\":true,\"common\":false,\"__gohashid\":2658},{\"from\":\"target:parameters\",\"to\":\"target:zipCode:\",\"fromPort\":\"target:parameters\",\"toPort\":\"target:zipCode:\",\"visible\":true,\"common\":false,\"__gohashid\":2659}],\"blockCount\":{\"variableCount\":0},\"variableMap\":{},\"xmlMappingOverride\":true}",
    "oVisualMappingData" : "{\"nodeDataArray\":[{\"isGroup\":true,\"key\":\"response_out\",\"text\":\"Payee\",\"xy\":\"770 100\",\"__gohashid\":12732},{\"isGroup\":true,\"key\":\"response_in\",\"text\":\"CheckFreeNextOrch (1.0).updatePayee\",\"xy\":\"150 100\",\"__gohashid\":12733}],\"linkDataArray\":[{\"from\":\"target\",\"to\":\"target:Payee\",\"fromPort\":\"target\",\"toPort\":\"target:Payee\",\"visible\":true,\"common\":false,\"__gohashid\":12807},{\"from\":\"target:Payee\",\"to\":\"target:Payee:fields\",\"fromPort\":\"target:Payee\",\"toPort\":\"target:Payee:fields\",\"visible\":true,\"common\":false,\"__gohashid\":12808},{\"from\":\"target:Payee:fields\",\"to\":\"target:Payee:accountNumber:\",\"fromPort\":\"target:Payee:fields\",\"toPort\":\"target:Payee:accountNumber:\",\"visible\":true,\"common\":false,\"__gohashid\":12809},{\"from\":\"target:Payee:fields\",\"to\":\"target:Payee:addressLine1:\",\"fromPort\":\"target:Payee:fields\",\"toPort\":\"target:Payee:addressLine1:\",\"visible\":true,\"common\":false,\"__gohashid\":12810},{\"from\":\"target:Payee:fields\",\"to\":\"target:Payee:addressLine2:\",\"fromPort\":\"target:Payee:fields\",\"toPort\":\"target:Payee:addressLine2:\",\"visible\":true,\"common\":false,\"__gohashid\":12811},{\"from\":\"target:Payee:fields\",\"to\":\"target:Payee:billDescription:\",\"fromPort\":\"target:Payee:fields\",\"toPort\":\"target:Payee:billDescription:\",\"visible\":true,\"common\":false,\"__gohashid\":12812},{\"from\":\"target:Payee:fields\",\"to\":\"target:Payee:billDueDate:\",\"fromPort\":\"target:Payee:fields\",\"toPort\":\"target:Payee:billDueDate:\",\"visible\":true,\"common\":false,\"__gohashid\":12813},{\"from\":\"target:Payee:fields\",\"to\":\"target:Payee:billerCategory:\",\"fromPort\":\"target:Payee:fields\",\"toPort\":\"target:Payee:billerCategory:\",\"visible\":true,\"common\":false,\"__gohashid\":12814},{\"from\":\"target:Payee:fields\",\"to\":\"target:Payee:billerId:\",\"fromPort\":\"target:Payee:fields\",\"toPort\":\"target:Payee:billerId:\",\"visible\":true,\"common\":false,\"__gohashid\":12815},{\"from\":\"target:Payee:fields\",\"to\":\"target:Payee:billGeneratedDate:\",\"fromPort\":\"target:Payee:fields\",\"toPort\":\"target:Payee:billGeneratedDate:\",\"visible\":true,\"common\":false,\"__gohashid\":12816},{\"from\":\"target:Payee:fields\",\"to\":\"target:Payee:billid:\",\"fromPort\":\"target:Payee:fields\",\"toPort\":\"target:Payee:billid:\",\"visible\":true,\"common\":false,\"__gohashid\":12817},{\"from\":\"target:Payee:fields\",\"to\":\"target:Payee:cityName:\",\"fromPort\":\"target:Payee:fields\",\"toPort\":\"target:Payee:cityName:\",\"visible\":true,\"common\":false,\"__gohashid\":12818},{\"from\":\"target:Payee:fields\",\"to\":\"target:Payee:companyName:\",\"fromPort\":\"target:Payee:fields\",\"toPort\":\"target:Payee:companyName:\",\"visible\":true,\"common\":false,\"__gohashid\":12819},{\"from\":\"target:Payee:fields\",\"to\":\"target:Payee:dueAmount:\",\"fromPort\":\"target:Payee:fields\",\"toPort\":\"target:Payee:dueAmount:\",\"visible\":true,\"common\":false,\"__gohashid\":12820},{\"from\":\"target:Payee:fields\",\"to\":\"target:Payee:EBillEnable:\",\"fromPort\":\"target:Payee:fields\",\"toPort\":\"target:Payee:EBillEnable:\",\"visible\":true,\"common\":false,\"__gohashid\":12821},{\"from\":\"target:Payee:fields\",\"to\":\"target:Payee:eBillStatus:\",\"fromPort\":\"target:Payee:fields\",\"toPort\":\"target:Payee:eBillStatus:\",\"visible\":true,\"common\":false,\"__gohashid\":12822},{\"from\":\"target:Payee:fields\",\"to\":\"target:Payee:eBillSupport:\",\"fromPort\":\"target:Payee:fields\",\"toPort\":\"target:Payee:eBillSupport:\",\"visible\":true,\"common\":false,\"__gohashid\":12823},{\"from\":\"target:Payee:fields\",\"to\":\"target:Payee:ebillURL:\",\"fromPort\":\"target:Payee:fields\",\"toPort\":\"target:Payee:ebillURL:\",\"visible\":true,\"common\":false,\"__gohashid\":12824},{\"from\":\"target:Payee:fields\",\"to\":\"target:Payee:email:\",\"fromPort\":\"target:Payee:fields\",\"toPort\":\"target:Payee:email:\",\"visible\":true,\"common\":false,\"__gohashid\":12825},{\"from\":\"target:Payee:fields\",\"to\":\"target:Payee:errmsg:\",\"fromPort\":\"target:Payee:fields\",\"toPort\":\"target:Payee:errmsg:\",\"visible\":true,\"common\":false,\"__gohashid\":12826},{\"from\":\"target:Payee:fields\",\"to\":\"target:Payee:lastPaidAmount:\",\"fromPort\":\"target:Payee:fields\",\"toPort\":\"target:Payee:lastPaidAmount:\",\"visible\":true,\"common\":false,\"__gohashid\":12827},{\"from\":\"target:Payee:fields\",\"to\":\"target:Payee:lastPaidDate:\",\"fromPort\":\"target:Payee:fields\",\"toPort\":\"target:Payee:lastPaidDate:\",\"visible\":true,\"common\":false,\"__gohashid\":12828},{\"from\":\"target:Payee:fields\",\"to\":\"target:Payee:limit:\",\"fromPort\":\"target:Payee:fields\",\"toPort\":\"target:Payee:limit:\",\"visible\":true,\"common\":false,\"__gohashid\":12829},{\"from\":\"target:Payee:fields\",\"to\":\"target:Payee:nameOnBill:\",\"fromPort\":\"target:Payee:fields\",\"toPort\":\"target:Payee:nameOnBill:\",\"visible\":true,\"common\":false,\"__gohashid\":12830},{\"from\":\"target:Payee:fields\",\"to\":\"target:Payee:notes:\",\"fromPort\":\"target:Payee:fields\",\"toPort\":\"target:Payee:notes:\",\"visible\":true,\"common\":false,\"__gohashid\":12831},{\"from\":\"target:Payee:fields\",\"to\":\"target:Payee:offset:\",\"fromPort\":\"target:Payee:fields\",\"toPort\":\"target:Payee:offset:\",\"visible\":true,\"common\":false,\"__gohashid\":12832},{\"from\":\"target:Payee:fields\",\"to\":\"target:Payee:order:\",\"fromPort\":\"target:Payee:fields\",\"toPort\":\"target:Payee:order:\",\"visible\":true,\"common\":false,\"__gohashid\":12833},{\"from\":\"target:Payee:fields\",\"to\":\"target:Payee:paidAmount:\",\"fromPort\":\"target:Payee:fields\",\"toPort\":\"target:Payee:paidAmount:\",\"visible\":true,\"common\":false,\"__gohashid\":12834},{\"from\":\"target:Payee:fields\",\"to\":\"target:Payee:payeeAccountNumber:\",\"fromPort\":\"target:Payee:fields\",\"toPort\":\"target:Payee:payeeAccountNumber:\",\"visible\":true,\"common\":false,\"__gohashid\":12835},{\"from\":\"target:Payee:fields\",\"to\":\"target:Payee:payeeId:\",\"fromPort\":\"target:Payee:fields\",\"toPort\":\"target:Payee:payeeId:\",\"visible\":true,\"common\":false,\"__gohashid\":12836},{\"from\":\"target:Payee:fields\",\"to\":\"target:Payee:payeeName:\",\"fromPort\":\"target:Payee:fields\",\"toPort\":\"target:Payee:payeeName:\",\"visible\":true,\"common\":false,\"__gohashid\":12837},{\"from\":\"target:Payee:fields\",\"to\":\"target:Payee:payeeNickName:\",\"fromPort\":\"target:Payee:fields\",\"toPort\":\"target:Payee:payeeNickName:\",\"visible\":true,\"common\":false,\"__gohashid\":12838},{\"from\":\"target:Payee:fields\",\"to\":\"target:Payee:phone:\",\"fromPort\":\"target:Payee:fields\",\"toPort\":\"target:Payee:phone:\",\"visible\":true,\"common\":false,\"__gohashid\":12839},{\"from\":\"target:Payee:fields\",\"to\":\"target:Payee:searchString:\",\"fromPort\":\"target:Payee:fields\",\"toPort\":\"target:Payee:searchString:\",\"visible\":true,\"common\":false,\"__gohashid\":12840},{\"from\":\"target:Payee:fields\",\"to\":\"target:Payee:sortBy:\",\"fromPort\":\"target:Payee:fields\",\"toPort\":\"target:Payee:sortBy:\",\"visible\":true,\"common\":false,\"__gohashid\":12841},{\"from\":\"target:Payee:fields\",\"to\":\"target:Payee:state:\",\"fromPort\":\"target:Payee:fields\",\"toPort\":\"target:Payee:state:\",\"visible\":true,\"common\":false,\"__gohashid\":12842},{\"from\":\"target:Payee:fields\",\"to\":\"target:Payee:street:\",\"fromPort\":\"target:Payee:fields\",\"toPort\":\"target:Payee:street:\",\"visible\":true,\"common\":false,\"__gohashid\":12843},{\"from\":\"target:Payee:fields\",\"to\":\"target:Payee:success:\",\"fromPort\":\"target:Payee:fields\",\"toPort\":\"target:Payee:success:\",\"visible\":true,\"common\":false,\"__gohashid\":12844},{\"from\":\"target:Payee:fields\",\"to\":\"target:Payee:zipCode:\",\"fromPort\":\"target:Payee:fields\",\"toPort\":\"target:Payee:zipCode:\",\"visible\":true,\"common\":false,\"__gohashid\":12845},{\"from\":\"target:Payee:fields\",\"to\":\"target:Payee:type:\",\"fromPort\":\"target:Payee:fields\",\"toPort\":\"target:Payee:type:\",\"visible\":true,\"common\":false,\"__gohashid\":12846},{\"from\":\"target:Payee:fields\",\"to\":\"target:Payee:country:\",\"fromPort\":\"target:Payee:fields\",\"toPort\":\"target:Payee:country:\",\"visible\":true,\"common\":false,\"__gohashid\":12847},{\"from\":\"target:Payee:fields\",\"to\":\"target:Payee:swiftCode:\",\"fromPort\":\"target:Payee:fields\",\"toPort\":\"target:Payee:swiftCode:\",\"visible\":true,\"common\":false,\"__gohashid\":12848},{\"from\":\"target:Payee:fields\",\"to\":\"target:Payee:routingCode:\",\"fromPort\":\"target:Payee:fields\",\"toPort\":\"target:Payee:routingCode:\",\"visible\":true,\"common\":false,\"__gohashid\":12849},{\"from\":\"target:Payee:fields\",\"to\":\"target:Payee:bankName:\",\"fromPort\":\"target:Payee:fields\",\"toPort\":\"target:Payee:bankName:\",\"visible\":true,\"common\":false,\"__gohashid\":12850},{\"from\":\"target:Payee:fields\",\"to\":\"target:Payee:bankAddressLine1:\",\"fromPort\":\"target:Payee:fields\",\"toPort\":\"target:Payee:bankAddressLine1:\",\"visible\":true,\"common\":false,\"__gohashid\":12851},{\"from\":\"target:Payee:fields\",\"to\":\"target:Payee:bankAddressLine2:\",\"fromPort\":\"target:Payee:fields\",\"toPort\":\"target:Payee:bankAddressLine2:\",\"visible\":true,\"common\":false,\"__gohashid\":12852},{\"from\":\"target:Payee:fields\",\"to\":\"target:Payee:bankCity:\",\"fromPort\":\"target:Payee:fields\",\"toPort\":\"target:Payee:bankCity:\",\"visible\":true,\"common\":false,\"__gohashid\":12853},{\"from\":\"target:Payee:fields\",\"to\":\"target:Payee:bankState:\",\"fromPort\":\"target:Payee:fields\",\"toPort\":\"target:Payee:bankState:\",\"visible\":true,\"common\":false,\"__gohashid\":12854},{\"from\":\"target:Payee:fields\",\"to\":\"target:Payee:bankZip:\",\"fromPort\":\"target:Payee:fields\",\"toPort\":\"target:Payee:bankZip:\",\"visible\":true,\"common\":false,\"__gohashid\":12855},{\"from\":\"target:Payee:fields\",\"to\":\"target:Payee:IBAN:\",\"fromPort\":\"target:Payee:fields\",\"toPort\":\"target:Payee:IBAN:\",\"visible\":true,\"common\":false,\"__gohashid\":12856},{\"from\":\"target:Payee:fields\",\"to\":\"target:Payee:wireAccountType:\",\"fromPort\":\"target:Payee:fields\",\"toPort\":\"target:Payee:wireAccountType:\",\"visible\":true,\"common\":false,\"__gohashid\":12857},{\"from\":\"target:Payee:fields\",\"to\":\"target:Payee:internationalRoutingCode:\",\"fromPort\":\"target:Payee:fields\",\"toPort\":\"target:Payee:internationalRoutingCode:\",\"visible\":true,\"common\":false,\"__gohashid\":12858},{\"from\":\"target:Payee:fields\",\"to\":\"target:Payee:transactionId:\",\"fromPort\":\"target:Payee:fields\",\"toPort\":\"target:Payee:transactionId:\",\"visible\":true,\"common\":false,\"__gohashid\":12859},{\"from\":\"target:Payee:fields\",\"to\":\"target:Payee:isManuallyAdded:\",\"fromPort\":\"target:Payee:fields\",\"toPort\":\"target:Payee:isManuallyAdded:\",\"visible\":true,\"common\":false,\"__gohashid\":12860},{\"from\":\"target:Payee:fields\",\"to\":\"target:Payee:phoneExtension:\",\"fromPort\":\"target:Payee:fields\",\"toPort\":\"target:Payee:phoneExtension:\",\"visible\":true,\"common\":false,\"__gohashid\":12861},{\"from\":\"target:Payee:fields\",\"to\":\"target:Payee:phoneCountryCode:\",\"fromPort\":\"target:Payee:fields\",\"toPort\":\"target:Payee:phoneCountryCode:\",\"visible\":true,\"common\":false,\"__gohashid\":12862},{\"from\":\"target:Payee:fields\",\"to\":\"target:Payee:isWiredRecepient:\",\"fromPort\":\"target:Payee:fields\",\"toPort\":\"target:Payee:isWiredRecepient:\",\"visible\":true,\"common\":false,\"__gohashid\":12863},{\"from\":\"target:Payee:fields\",\"to\":\"target:Payee:beneficiaryId:\",\"fromPort\":\"target:Payee:fields\",\"toPort\":\"target:Payee:beneficiaryId:\",\"visible\":true,\"common\":false,\"__gohashid\":12864},{\"from\":\"target:Payee:fields\",\"to\":\"target:Payee:fromAccountCurrency:\",\"fromPort\":\"target:Payee:fields\",\"toPort\":\"target:Payee:fromAccountCurrency:\",\"visible\":true,\"common\":false,\"__gohashid\":12865},{\"from\":\"target:Payee:fields\",\"to\":\"target:Payee:toAccountCurrency:\",\"fromPort\":\"target:Payee:fields\",\"toPort\":\"target:Payee:toAccountCurrency:\",\"visible\":true,\"common\":false,\"__gohashid\":12866},{\"from\":\"target:Payee:fields\",\"to\":\"target:Payee:totalRecordCount:\",\"fromPort\":\"target:Payee:fields\",\"toPort\":\"target:Payee:totalRecordCount:\",\"visible\":true,\"common\":false,\"__gohashid\":12867},{\"from\":\"target:Payee:fields\",\"to\":\"target:Payee:isManaged:\",\"fromPort\":\"target:Payee:fields\",\"toPort\":\"target:Payee:isManaged:\",\"visible\":true,\"common\":false,\"__gohashid\":12868},{\"from\":\"target:Payee:fields\",\"to\":\"target:Payee:cancelPendingTransactions:\",\"fromPort\":\"target:Payee:fields\",\"toPort\":\"target:Payee:cancelPendingTransactions:\",\"visible\":true,\"common\":false,\"__gohashid\":12869},{\"from\":\"source\",\"to\":\"source:parameters\",\"fromPort\":\"source\",\"toPort\":\"source:parameters\",\"visible\":true,\"common\":false,\"__gohashid\":12870},{\"from\":\"source:parameters\",\"to\":\"source:opstatus:\",\"fromPort\":\"source:parameters\",\"toPort\":\"source:opstatus:\",\"visible\":true,\"common\":false,\"__gohashid\":12871},{\"from\":\"source:parameters\",\"to\":\"source:success:\",\"fromPort\":\"source:parameters\",\"toPort\":\"source:success:\",\"visible\":true,\"common\":false,\"__gohashid\":12872},{\"from\":\"source\",\"to\":\"source:result\",\"fromPort\":\"source\",\"toPort\":\"source:result\",\"visible\":true,\"common\":false,\"__gohashid\":12873},{\"from\":\"source:result\",\"to\":\"source:result:parameters\",\"fromPort\":\"source:result\",\"toPort\":\"source:result:parameters\",\"visible\":true,\"common\":false,\"__gohashid\":12874},{\"from\":\"source:result:parameters\",\"to\":\"source:result:description:\",\"fromPort\":\"source:result:parameters\",\"toPort\":\"source:result:description:\",\"visible\":true,\"common\":false,\"__gohashid\":12875},{\"from\":\"source:result:parameters\",\"to\":\"source:result:resultCategory:\",\"fromPort\":\"source:result:parameters\",\"toPort\":\"source:result:resultCategory:\",\"visible\":true,\"common\":false,\"__gohashid\":12876}],\"blockCount\":{\"variableCount\":0},\"variableMap\":{},\"xmlMappingOverride\":true}",
    "applyCommonMapping" : false,
    "applyRequestCommonMapping" : false,
    "applyResponseCommonMapping" : false,
    "backendMeta" : {
      "serviceName" : "CheckFreeNextOrch",
      "serviceVersion" : "1.0",
      "operationName" : "updatePayee"
    },
    "relationshipHierarchyMapping" : {
      "children" : [ ],
      "name" : "Payee",
      "actions" : { },
      "selected" : true
    },
    "requestXmlMappingOverride" : true,
    "responseXmlMappingOverride" : true
  }
}