{
  "operationConfig" : {
    "name" : "GetUserDetailsToAdmin7711",
    "type" : "MappedToBackend",
    "cachable" : false,
    "smsEnabled" : false,
    "security" : "authorized_app_user",
    "responseEncoding" : "UTF-8",
    "httpMethod" : "GET",
    "decodeResponseBody" : false,
    "iMapping" : "<?xml version=\"1.0\" encoding=\"UTF-8\" standalone=\"yes\"?><mapper xmlns=\"http://www.kony.com/ns/mapper\">  <map inputpath=\"request_in\" outputpath=\"request_out\">    <set-param inputpath=\"accountNumber\" outputpath=\"accountNumber\"/>  </map></mapper>",
    "oMapping" : "<?xml version=\"1.0\" encoding=\"UTF-8\" standalone=\"yes\"?><mapper xmlns=\"http://www.kony.com/ns/mapper\">                    <map inputpath=\"response_in\" outputpath=\"response_out\">                                        <map inputpath=\"customer\" outputpath=\"User\">                                                                                               <set-param inputpath=\"areUserAlertsTurnedOn\" outputpath=\"alertsTurnedOn\"/>                                                            <set-param inputpath=\"areAccountStatementTermsAccepted\" outputpath=\"areAccountStatementTermsAccepted\"/>                                                            <set-param inputpath=\"areDepositTermsAccepted\" outputpath=\"areDepositTermsAccepted\"/>                                                                                                                                    <set-param inputpath=\"CountryCode\" outputpath=\"CountryCode\"/>                                                                                                <set-param inputpath=\"DateOfBirth\" outputpath=\"DateOfBirth\"/>                                                            <set-param inputpath=\"default_account_billPay\" outputpath=\"default_account_billPay\"/>                                                            <set-param inputpath=\"default_account_cardless\" outputpath=\"default_account_cardless\"/>                                                            <set-param inputpath=\"default_account_desposit\" outputpath=\"default_account_deposit\"/>                                                            <set-param inputpath=\"default_account_payments\" outputpath=\"default_account_payments\"/>                                                            <set-param inputpath=\"default_account_transfers\" outputpath=\"default_account_transfers\"/>                                                            <set-param inputpath=\"default_from_account_p2p\" outputpath=\"default_from_account_p2p\"/>                                                            <set-param inputpath=\"default_to_account_p2p\" outputpath=\"default_to_account_p2p\"/>       <set-param inputpath=\"Phone\" outputpath=\"Phone\"/>      <set-param inputpath=\"Email\" outputpath=\"Email\"/>      <set-param inputpath=\"IsPinSet\" outputpath=\"IsPinSet\"/>                                                            <set-param inputpath=\"Lastlogintime\" outputpath=\"lastlogintime\"/>                                                                                                                                                                      <set-param inputpath=\"Ssn\" outputpath=\"Ssn\"/>                                                                                                <set-param inputpath=\"FirstName\" outputpath=\"FirstName\"/>                                                            <set-param inputpath=\"id\" outputpath=\"customerId\"/>                                                            <set-param inputpath=\"UserImage\" outputpath=\"UserImage\"/>                                                            <set-param inputpath=\"LastName\" outputpath=\"Lastname\"/>                                                            <set-param inputpath=\"UserName\" outputpath=\"UserName\"/>                                                                                               <set-param inputpath=\"default_account_wire\" outputpath=\"default_account_wire\"/>                                                            <set-param inputpath=\"isWireTransferActivated\" outputpath=\"isWireTransferActivated\"/>                                                            <set-param inputpath=\"isWireTransferEligible\" outputpath=\"isWireTransferEligible\"/>                                                            <set-param inputpath=\"UserImageURL\" outputpath=\"UserImageURL\"/>                                        </map>                    </map></mapper>",
    "iVisualMappingData" : "{\"nodeDataArray\":[{\"isGroup\":true,\"key\":\"request_in\",\"text\":\"User\",\"xy\":\"150 100\",\"__gohashid\":13836},{\"isGroup\":true,\"key\":\"request_out\",\"text\":\"dbpRbLocalServicesJava (1.0).GetUserDetailsToAdmin\",\"xy\":\"770 100\",\"__gohashid\":13837}],\"linkDataArray\":[{\"from\":\"source\",\"to\":\"source:User\",\"fromPort\":\"source\",\"toPort\":\"source:User\",\"visible\":true,\"common\":false,\"__gohashid\":13915},{\"from\":\"source:User\",\"to\":\"source:User:fields\",\"fromPort\":\"source:User\",\"toPort\":\"source:User:fields\",\"visible\":true,\"common\":false,\"__gohashid\":13916},{\"from\":\"source:User:fields\",\"to\":\"source:User:accountNumber:\",\"fromPort\":\"source:User:fields\",\"toPort\":\"source:User:accountNumber:\",\"visible\":true,\"common\":false,\"__gohashid\":13917},{\"from\":\"source:User:fields\",\"to\":\"source:User:accountType:\",\"fromPort\":\"source:User:fields\",\"toPort\":\"source:User:accountType:\",\"visible\":true,\"common\":false,\"__gohashid\":13918},{\"from\":\"source:User:fields\",\"to\":\"source:User:addressId:\",\"fromPort\":\"source:User:fields\",\"toPort\":\"source:User:addressId:\",\"visible\":true,\"common\":false,\"__gohashid\":13919},{\"from\":\"source:User:fields\",\"to\":\"source:User:addressLine1:\",\"fromPort\":\"source:User:fields\",\"toPort\":\"source:User:addressLine1:\",\"visible\":true,\"common\":false,\"__gohashid\":13920},{\"from\":\"source:User:fields\",\"to\":\"source:User:addressLine2:\",\"fromPort\":\"source:User:fields\",\"toPort\":\"source:User:addressLine2:\",\"visible\":true,\"common\":false,\"__gohashid\":13921},{\"from\":\"source:User:fields\",\"to\":\"source:User:addressType:\",\"fromPort\":\"source:User:fields\",\"toPort\":\"source:User:addressType:\",\"visible\":true,\"common\":false,\"__gohashid\":13922},{\"from\":\"source:User:fields\",\"to\":\"source:User:alertsTurnedOn:\",\"fromPort\":\"source:User:fields\",\"toPort\":\"source:User:alertsTurnedOn:\",\"visible\":true,\"common\":false,\"__gohashid\":13923},{\"from\":\"source:User:fields\",\"to\":\"source:User:areAccountStatementTermsAccepted:\",\"fromPort\":\"source:User:fields\",\"toPort\":\"source:User:areAccountStatementTermsAccepted:\",\"visible\":true,\"common\":false,\"__gohashid\":13924},{\"from\":\"source:User:fields\",\"to\":\"source:User:areDepositTermsAccepted:\",\"fromPort\":\"source:User:fields\",\"toPort\":\"source:User:areDepositTermsAccepted:\",\"visible\":true,\"common\":false,\"__gohashid\":13925},{\"from\":\"source:User:fields\",\"to\":\"source:User:bankName:\",\"fromPort\":\"source:User:fields\",\"toPort\":\"source:User:bankName:\",\"visible\":true,\"common\":false,\"__gohashid\":13926},{\"from\":\"source:User:fields\",\"to\":\"source:User:cardNumber:\",\"fromPort\":\"source:User:fields\",\"toPort\":\"source:User:cardNumber:\",\"visible\":true,\"common\":false,\"__gohashid\":13927},{\"from\":\"source:User:fields\",\"to\":\"source:User:city:\",\"fromPort\":\"source:User:fields\",\"toPort\":\"source:User:city:\",\"visible\":true,\"common\":false,\"__gohashid\":13928},{\"from\":\"source:User:fields\",\"to\":\"source:User:country:\",\"fromPort\":\"source:User:fields\",\"toPort\":\"source:User:country:\",\"visible\":true,\"common\":false,\"__gohashid\":13929},{\"from\":\"source:User:fields\",\"to\":\"source:User:currencyCode:\",\"fromPort\":\"source:User:fields\",\"toPort\":\"source:User:currencyCode:\",\"visible\":true,\"common\":false,\"__gohashid\":13930},{\"from\":\"source:User:fields\",\"to\":\"source:User:cvv:\",\"fromPort\":\"source:User:fields\",\"toPort\":\"source:User:cvv:\",\"visible\":true,\"common\":false,\"__gohashid\":13931},{\"from\":\"source:User:fields\",\"to\":\"source:User:dateOfBirth:\",\"fromPort\":\"source:User:fields\",\"toPort\":\"source:User:dateOfBirth:\",\"visible\":true,\"common\":false,\"__gohashid\":13932},{\"from\":\"source:User:fields\",\"to\":\"source:User:default_account_billPay:\",\"fromPort\":\"source:User:fields\",\"toPort\":\"source:User:default_account_billPay:\",\"visible\":true,\"common\":false,\"__gohashid\":13933},{\"from\":\"source:User:fields\",\"to\":\"source:User:default_account_cardless:\",\"fromPort\":\"source:User:fields\",\"toPort\":\"source:User:default_account_cardless:\",\"visible\":true,\"common\":false,\"__gohashid\":13934},{\"from\":\"source:User:fields\",\"to\":\"source:User:default_account_deposit:\",\"fromPort\":\"source:User:fields\",\"toPort\":\"source:User:default_account_deposit:\",\"visible\":true,\"common\":false,\"__gohashid\":13935},{\"from\":\"source:User:fields\",\"to\":\"source:User:default_account_payments:\",\"fromPort\":\"source:User:fields\",\"toPort\":\"source:User:default_account_payments:\",\"visible\":true,\"common\":false,\"__gohashid\":13936},{\"from\":\"source:User:fields\",\"to\":\"source:User:default_account_transfers:\",\"fromPort\":\"source:User:fields\",\"toPort\":\"source:User:default_account_transfers:\",\"visible\":true,\"common\":false,\"__gohashid\":13937},{\"from\":\"source:User:fields\",\"to\":\"source:User:default_from_account_p2p:\",\"fromPort\":\"source:User:fields\",\"toPort\":\"source:User:default_from_account_p2p:\",\"visible\":true,\"common\":false,\"__gohashid\":13938},{\"from\":\"source:User:fields\",\"to\":\"source:User:default_to_account_p2p:\",\"fromPort\":\"source:User:fields\",\"toPort\":\"source:User:default_to_account_p2p:\",\"visible\":true,\"common\":false,\"__gohashid\":13939},{\"from\":\"source:User:fields\",\"to\":\"source:User:email:\",\"fromPort\":\"source:User:fields\",\"toPort\":\"source:User:email:\",\"visible\":true,\"common\":false,\"__gohashid\":13940},{\"from\":\"source:User:fields\",\"to\":\"source:User:errmsg:\",\"fromPort\":\"source:User:fields\",\"toPort\":\"source:User:errmsg:\",\"visible\":true,\"common\":false,\"__gohashid\":13941},{\"from\":\"source:User:fields\",\"to\":\"source:User:isEmailEnabled:\",\"fromPort\":\"source:User:fields\",\"toPort\":\"source:User:isEmailEnabled:\",\"visible\":true,\"common\":false,\"__gohashid\":13942},{\"from\":\"source:User:fields\",\"to\":\"source:User:isPhoneEnabled:\",\"fromPort\":\"source:User:fields\",\"toPort\":\"source:User:isPhoneEnabled:\",\"visible\":true,\"common\":false,\"__gohashid\":13943},{\"from\":\"source:User:fields\",\"to\":\"source:User:isPinSet:\",\"fromPort\":\"source:User:fields\",\"toPort\":\"source:User:isPinSet:\",\"visible\":true,\"common\":false,\"__gohashid\":13944},{\"from\":\"source:User:fields\",\"to\":\"source:User:isPreferredAddress:\",\"fromPort\":\"source:User:fields\",\"toPort\":\"source:User:isPreferredAddress:\",\"visible\":true,\"common\":false,\"__gohashid\":13945},{\"from\":\"source:User:fields\",\"to\":\"source:User:lastlogintime:\",\"fromPort\":\"source:User:fields\",\"toPort\":\"source:User:lastlogintime:\",\"visible\":true,\"common\":false,\"__gohashid\":13946},{\"from\":\"source:User:fields\",\"to\":\"source:User:oldpassword:\",\"fromPort\":\"source:User:fields\",\"toPort\":\"source:User:oldpassword:\",\"visible\":true,\"common\":false,\"__gohashid\":13947},{\"from\":\"source:User:fields\",\"to\":\"source:User:otp:\",\"fromPort\":\"source:User:fields\",\"toPort\":\"source:User:otp:\",\"visible\":true,\"common\":false,\"__gohashid\":13948},{\"from\":\"source:User:fields\",\"to\":\"source:User:password:\",\"fromPort\":\"source:User:fields\",\"toPort\":\"source:User:password:\",\"visible\":true,\"common\":false,\"__gohashid\":13949},{\"from\":\"source:User:fields\",\"to\":\"source:User:phone:\",\"fromPort\":\"source:User:fields\",\"toPort\":\"source:User:phone:\",\"visible\":true,\"common\":false,\"__gohashid\":13950},{\"from\":\"source:User:fields\",\"to\":\"source:User:pin:\",\"fromPort\":\"source:User:fields\",\"toPort\":\"source:User:pin:\",\"visible\":true,\"common\":false,\"__gohashid\":13951},{\"from\":\"source:User:fields\",\"to\":\"source:User:result:\",\"fromPort\":\"source:User:fields\",\"toPort\":\"source:User:result:\",\"visible\":true,\"common\":false,\"__gohashid\":13952},{\"from\":\"source:User:fields\",\"to\":\"source:User:role:\",\"fromPort\":\"source:User:fields\",\"toPort\":\"source:User:role:\",\"visible\":true,\"common\":false,\"__gohashid\":13953},{\"from\":\"source:User:fields\",\"to\":\"source:User:secondaryemail:\",\"fromPort\":\"source:User:fields\",\"toPort\":\"source:User:secondaryemail:\",\"visible\":true,\"common\":false,\"__gohashid\":13954},{\"from\":\"source:User:fields\",\"to\":\"source:User:secondaryemail2:\",\"fromPort\":\"source:User:fields\",\"toPort\":\"source:User:secondaryemail2:\",\"visible\":true,\"common\":false,\"__gohashid\":13955},{\"from\":\"source:User:fields\",\"to\":\"source:User:secondaryphone:\",\"fromPort\":\"source:User:fields\",\"toPort\":\"source:User:secondaryphone:\",\"visible\":true,\"common\":false,\"__gohashid\":13956},{\"from\":\"source:User:fields\",\"to\":\"source:User:secondaryphone2:\",\"fromPort\":\"source:User:fields\",\"toPort\":\"source:User:secondaryphone2:\",\"visible\":true,\"common\":false,\"__gohashid\":13957},{\"from\":\"source:User:fields\",\"to\":\"source:User:ssn:\",\"fromPort\":\"source:User:fields\",\"toPort\":\"source:User:ssn:\",\"visible\":true,\"common\":false,\"__gohashid\":13958},{\"from\":\"source:User:fields\",\"to\":\"source:User:state:\",\"fromPort\":\"source:User:fields\",\"toPort\":\"source:User:state:\",\"visible\":true,\"common\":false,\"__gohashid\":13959},{\"from\":\"source:User:fields\",\"to\":\"source:User:success:\",\"fromPort\":\"source:User:fields\",\"toPort\":\"source:User:success:\",\"visible\":true,\"common\":false,\"__gohashid\":13960},{\"from\":\"source:User:fields\",\"to\":\"source:User:userfirstname:\",\"fromPort\":\"source:User:fields\",\"toPort\":\"source:User:userfirstname:\",\"visible\":true,\"common\":false,\"__gohashid\":13961},{\"from\":\"source:User:fields\",\"to\":\"source:User:userId:\",\"fromPort\":\"source:User:fields\",\"toPort\":\"source:User:userId:\",\"visible\":true,\"common\":false,\"__gohashid\":13962},{\"from\":\"source:User:fields\",\"to\":\"source:User:userImage:\",\"fromPort\":\"source:User:fields\",\"toPort\":\"source:User:userImage:\",\"visible\":true,\"common\":false,\"__gohashid\":13963},{\"from\":\"source:User:fields\",\"to\":\"source:User:userlastname:\",\"fromPort\":\"source:User:fields\",\"toPort\":\"source:User:userlastname:\",\"visible\":true,\"common\":false,\"__gohashid\":13964},{\"from\":\"source:User:fields\",\"to\":\"source:User:userName:\",\"fromPort\":\"source:User:fields\",\"toPort\":\"source:User:userName:\",\"visible\":true,\"common\":false,\"__gohashid\":13965},{\"from\":\"source:User:fields\",\"to\":\"source:User:zipcode:\",\"fromPort\":\"source:User:fields\",\"toPort\":\"source:User:zipcode:\",\"visible\":true,\"common\":false,\"__gohashid\":13966},{\"from\":\"source:User:fields\",\"to\":\"source:User:rating:\",\"fromPort\":\"source:User:fields\",\"toPort\":\"source:User:rating:\",\"visible\":true,\"common\":false,\"__gohashid\":13967},{\"from\":\"source:User:fields\",\"to\":\"source:User:featureRequest:\",\"fromPort\":\"source:User:fields\",\"toPort\":\"source:User:featureRequest:\",\"visible\":true,\"common\":false,\"__gohashid\":13968},{\"from\":\"source:User:fields\",\"to\":\"source:User:description:\",\"fromPort\":\"source:User:fields\",\"toPort\":\"source:User:description:\",\"visible\":true,\"common\":false,\"__gohashid\":13969},{\"from\":\"source:User:fields\",\"to\":\"source:User:default_account_wire:\",\"fromPort\":\"source:User:fields\",\"toPort\":\"source:User:default_account_wire:\",\"visible\":true,\"common\":false,\"__gohashid\":13970},{\"from\":\"source:User:fields\",\"to\":\"source:User:isWireTransferActivated:\",\"fromPort\":\"source:User:fields\",\"toPort\":\"source:User:isWireTransferActivated:\",\"visible\":true,\"common\":false,\"__gohashid\":13971},{\"from\":\"source:User:fields\",\"to\":\"source:User:isWireTransferEligible:\",\"fromPort\":\"source:User:fields\",\"toPort\":\"source:User:isWireTransferEligible:\",\"visible\":true,\"common\":false,\"__gohashid\":13972},{\"from\":\"source:User:fields\",\"to\":\"source:User:userImageURL:\",\"fromPort\":\"source:User:fields\",\"toPort\":\"source:User:userImageURL:\",\"visible\":true,\"common\":false,\"__gohashid\":13973},{\"from\":\"source:User:fields\",\"to\":\"source:User:modifiedByName:\",\"fromPort\":\"source:User:fields\",\"toPort\":\"source:User:modifiedByName:\",\"visible\":true,\"common\":false,\"__gohashid\":13974},{\"from\":\"source:User:fields\",\"to\":\"source:User:addresses:\",\"fromPort\":\"source:User:fields\",\"toPort\":\"source:User:addresses:\",\"visible\":true,\"common\":false,\"__gohashid\":13975},{\"from\":\"source:User:fields\",\"to\":\"source:User:emailIds:\",\"fromPort\":\"source:User:fields\",\"toPort\":\"source:User:emailIds:\",\"visible\":true,\"common\":false,\"__gohashid\":13976},{\"from\":\"source:User:fields\",\"to\":\"source:User:phoneNumbers:\",\"fromPort\":\"source:User:fields\",\"toPort\":\"source:User:phoneNumbers:\",\"visible\":true,\"common\":false,\"__gohashid\":13977},{\"from\":\"source:User:fields\",\"to\":\"source:User:preferredContactMethod:\",\"fromPort\":\"source:User:fields\",\"toPort\":\"source:User:preferredContactMethod:\",\"visible\":true,\"common\":false,\"__gohashid\":13978},{\"from\":\"source:User:fields\",\"to\":\"source:User:preferredContactTime:\",\"fromPort\":\"source:User:fields\",\"toPort\":\"source:User:preferredContactTime:\",\"visible\":true,\"common\":false,\"__gohashid\":13979},{\"from\":\"source:User:fields\",\"to\":\"source:User:deleteAddressID:\",\"fromPort\":\"source:User:fields\",\"toPort\":\"source:User:deleteAddressID:\",\"visible\":true,\"common\":false,\"__gohashid\":13980},{\"from\":\"source:User:fields\",\"to\":\"source:User:deleteCommunicationID:\",\"fromPort\":\"source:User:fields\",\"toPort\":\"source:User:deleteCommunicationID:\",\"visible\":true,\"common\":false,\"__gohashid\":13981},{\"from\":\"source:User:fields\",\"to\":\"source:User:maritalStatus:\",\"fromPort\":\"source:User:fields\",\"toPort\":\"source:User:maritalStatus:\",\"visible\":true,\"common\":false,\"__gohashid\":13982},{\"from\":\"source:User:fields\",\"to\":\"source:User:noOfDependents:\",\"fromPort\":\"source:User:fields\",\"toPort\":\"source:User:noOfDependents:\",\"visible\":true,\"common\":false,\"__gohashid\":13983},{\"from\":\"source:User:fields\",\"to\":\"source:User:spouseFirstName:\",\"fromPort\":\"source:User:fields\",\"toPort\":\"source:User:spouseFirstName:\",\"visible\":true,\"common\":false,\"__gohashid\":13984},{\"from\":\"source:User:fields\",\"to\":\"source:User:spouseLastName:\",\"fromPort\":\"source:User:fields\",\"toPort\":\"source:User:spouseLastName:\",\"visible\":true,\"common\":false,\"__gohashid\":13985},{\"from\":\"source:User:fields\",\"to\":\"source:User:gender:\",\"fromPort\":\"source:User:fields\",\"toPort\":\"source:User:gender:\",\"visible\":true,\"common\":false,\"__gohashid\":13986},{\"from\":\"target\",\"to\":\"target:parameters\",\"fromPort\":\"target\",\"toPort\":\"target:parameters\",\"visible\":true,\"common\":false,\"__gohashid\":13987},{\"from\":\"target:parameters\",\"to\":\"target:accountNumber:\",\"fromPort\":\"target:parameters\",\"toPort\":\"target:accountNumber:\",\"visible\":true,\"common\":false,\"__gohashid\":13988},{\"category\":\"Mapping\",\"visible\":true,\"__gohashid\":24390,\"from\":\"source:User:accountNumber:\",\"to\":\"target:accountNumber:\",\"fromPort\":\"source:User:accountNumber:\",\"toPort\":\"target:accountNumber:\"}],\"blockCount\":{\"variableCount\":0},\"variableMap\":{},\"xmlMappingOverride\":true}",
    "oVisualMappingData" : "{\"nodeDataArray\":[{\"isGroup\":true,\"key\":\"response_out\",\"text\":\"User\",\"xy\":\"770 100\",\"__gohashid\":128851},{\"isGroup\":true,\"key\":\"response_in\",\"text\":\"dbpRbLocalServicesJava (1.0).GetUserDetailsToAdmin\",\"xy\":\"150 100\",\"__gohashid\":128852}],\"linkDataArray\":[{\"from\":\"target\",\"to\":\"target:User\",\"fromPort\":\"target\",\"toPort\":\"target:User\",\"visible\":true,\"common\":false,\"__gohashid\":486},{\"from\":\"target:User\",\"to\":\"target:User:fields\",\"fromPort\":\"target:User\",\"toPort\":\"target:User:fields\",\"visible\":true,\"common\":false,\"__gohashid\":487},{\"from\":\"target:User:fields\",\"to\":\"target:User:accountNumber:\",\"fromPort\":\"target:User:fields\",\"toPort\":\"target:User:accountNumber:\",\"visible\":true,\"common\":false,\"__gohashid\":488},{\"from\":\"target:User:fields\",\"to\":\"target:User:accountType:\",\"fromPort\":\"target:User:fields\",\"toPort\":\"target:User:accountType:\",\"visible\":true,\"common\":false,\"__gohashid\":489},{\"from\":\"target:User:fields\",\"to\":\"target:User:addressId:\",\"fromPort\":\"target:User:fields\",\"toPort\":\"target:User:addressId:\",\"visible\":true,\"common\":false,\"__gohashid\":490},{\"from\":\"target:User:fields\",\"to\":\"target:User:addressLine1:\",\"fromPort\":\"target:User:fields\",\"toPort\":\"target:User:addressLine1:\",\"visible\":true,\"common\":false,\"__gohashid\":491},{\"from\":\"target:User:fields\",\"to\":\"target:User:addressLine2:\",\"fromPort\":\"target:User:fields\",\"toPort\":\"target:User:addressLine2:\",\"visible\":true,\"common\":false,\"__gohashid\":492},{\"from\":\"target:User:fields\",\"to\":\"target:User:addressType:\",\"fromPort\":\"target:User:fields\",\"toPort\":\"target:User:addressType:\",\"visible\":true,\"common\":false,\"__gohashid\":493},{\"from\":\"target:User:fields\",\"to\":\"target:User:alertsTurnedOn:\",\"fromPort\":\"target:User:fields\",\"toPort\":\"target:User:alertsTurnedOn:\",\"visible\":true,\"common\":false,\"__gohashid\":494},{\"from\":\"target:User:fields\",\"to\":\"target:User:areAccountStatementTermsAccepted:\",\"fromPort\":\"target:User:fields\",\"toPort\":\"target:User:areAccountStatementTermsAccepted:\",\"visible\":true,\"common\":false,\"__gohashid\":495},{\"from\":\"target:User:fields\",\"to\":\"target:User:areDepositTermsAccepted:\",\"fromPort\":\"target:User:fields\",\"toPort\":\"target:User:areDepositTermsAccepted:\",\"visible\":true,\"common\":false,\"__gohashid\":496},{\"from\":\"target:User:fields\",\"to\":\"target:User:bankName:\",\"fromPort\":\"target:User:fields\",\"toPort\":\"target:User:bankName:\",\"visible\":true,\"common\":false,\"__gohashid\":497},{\"from\":\"target:User:fields\",\"to\":\"target:User:cardNumber:\",\"fromPort\":\"target:User:fields\",\"toPort\":\"target:User:cardNumber:\",\"visible\":true,\"common\":false,\"__gohashid\":498},{\"from\":\"target:User:fields\",\"to\":\"target:User:city:\",\"fromPort\":\"target:User:fields\",\"toPort\":\"target:User:city:\",\"visible\":true,\"common\":false,\"__gohashid\":499},{\"from\":\"target:User:fields\",\"to\":\"target:User:country:\",\"fromPort\":\"target:User:fields\",\"toPort\":\"target:User:country:\",\"visible\":true,\"common\":false,\"__gohashid\":500},{\"from\":\"target:User:fields\",\"to\":\"target:User:currencyCode:\",\"fromPort\":\"target:User:fields\",\"toPort\":\"target:User:currencyCode:\",\"visible\":true,\"common\":false,\"__gohashid\":501},{\"from\":\"target:User:fields\",\"to\":\"target:User:cvv:\",\"fromPort\":\"target:User:fields\",\"toPort\":\"target:User:cvv:\",\"visible\":true,\"common\":false,\"__gohashid\":502},{\"from\":\"target:User:fields\",\"to\":\"target:User:dateOfBirth:\",\"fromPort\":\"target:User:fields\",\"toPort\":\"target:User:dateOfBirth:\",\"visible\":true,\"common\":false,\"__gohashid\":503},{\"from\":\"target:User:fields\",\"to\":\"target:User:default_account_billPay:\",\"fromPort\":\"target:User:fields\",\"toPort\":\"target:User:default_account_billPay:\",\"visible\":true,\"common\":false,\"__gohashid\":504},{\"from\":\"target:User:fields\",\"to\":\"target:User:default_account_cardless:\",\"fromPort\":\"target:User:fields\",\"toPort\":\"target:User:default_account_cardless:\",\"visible\":true,\"common\":false,\"__gohashid\":505},{\"from\":\"target:User:fields\",\"to\":\"target:User:default_account_deposit:\",\"fromPort\":\"target:User:fields\",\"toPort\":\"target:User:default_account_deposit:\",\"visible\":true,\"common\":false,\"__gohashid\":506},{\"from\":\"target:User:fields\",\"to\":\"target:User:default_account_payments:\",\"fromPort\":\"target:User:fields\",\"toPort\":\"target:User:default_account_payments:\",\"visible\":true,\"common\":false,\"__gohashid\":507},{\"from\":\"target:User:fields\",\"to\":\"target:User:default_account_transfers:\",\"fromPort\":\"target:User:fields\",\"toPort\":\"target:User:default_account_transfers:\",\"visible\":true,\"common\":false,\"__gohashid\":508},{\"from\":\"target:User:fields\",\"to\":\"target:User:default_from_account_p2p:\",\"fromPort\":\"target:User:fields\",\"toPort\":\"target:User:default_from_account_p2p:\",\"visible\":true,\"common\":false,\"__gohashid\":509},{\"from\":\"target:User:fields\",\"to\":\"target:User:default_to_account_p2p:\",\"fromPort\":\"target:User:fields\",\"toPort\":\"target:User:default_to_account_p2p:\",\"visible\":true,\"common\":false,\"__gohashid\":510},{\"from\":\"target:User:fields\",\"to\":\"target:User:email:\",\"fromPort\":\"target:User:fields\",\"toPort\":\"target:User:email:\",\"visible\":true,\"common\":false,\"__gohashid\":511},{\"from\":\"target:User:fields\",\"to\":\"target:User:errmsg:\",\"fromPort\":\"target:User:fields\",\"toPort\":\"target:User:errmsg:\",\"visible\":true,\"common\":false,\"__gohashid\":512},{\"from\":\"target:User:fields\",\"to\":\"target:User:isEmailEnabled:\",\"fromPort\":\"target:User:fields\",\"toPort\":\"target:User:isEmailEnabled:\",\"visible\":true,\"common\":false,\"__gohashid\":513},{\"from\":\"target:User:fields\",\"to\":\"target:User:isPhoneEnabled:\",\"fromPort\":\"target:User:fields\",\"toPort\":\"target:User:isPhoneEnabled:\",\"visible\":true,\"common\":false,\"__gohashid\":514},{\"from\":\"target:User:fields\",\"to\":\"target:User:isPinSet:\",\"fromPort\":\"target:User:fields\",\"toPort\":\"target:User:isPinSet:\",\"visible\":true,\"common\":false,\"__gohashid\":515},{\"from\":\"target:User:fields\",\"to\":\"target:User:isPreferredAddress:\",\"fromPort\":\"target:User:fields\",\"toPort\":\"target:User:isPreferredAddress:\",\"visible\":true,\"common\":false,\"__gohashid\":516},{\"from\":\"target:User:fields\",\"to\":\"target:User:lastlogintime:\",\"fromPort\":\"target:User:fields\",\"toPort\":\"target:User:lastlogintime:\",\"visible\":true,\"common\":false,\"__gohashid\":517},{\"from\":\"target:User:fields\",\"to\":\"target:User:oldpassword:\",\"fromPort\":\"target:User:fields\",\"toPort\":\"target:User:oldpassword:\",\"visible\":true,\"common\":false,\"__gohashid\":518},{\"from\":\"target:User:fields\",\"to\":\"target:User:otp:\",\"fromPort\":\"target:User:fields\",\"toPort\":\"target:User:otp:\",\"visible\":true,\"common\":false,\"__gohashid\":519},{\"from\":\"target:User:fields\",\"to\":\"target:User:password:\",\"fromPort\":\"target:User:fields\",\"toPort\":\"target:User:password:\",\"visible\":true,\"common\":false,\"__gohashid\":520},{\"from\":\"target:User:fields\",\"to\":\"target:User:phone:\",\"fromPort\":\"target:User:fields\",\"toPort\":\"target:User:phone:\",\"visible\":true,\"common\":false,\"__gohashid\":521},{\"from\":\"target:User:fields\",\"to\":\"target:User:pin:\",\"fromPort\":\"target:User:fields\",\"toPort\":\"target:User:pin:\",\"visible\":true,\"common\":false,\"__gohashid\":522},{\"from\":\"target:User:fields\",\"to\":\"target:User:result:\",\"fromPort\":\"target:User:fields\",\"toPort\":\"target:User:result:\",\"visible\":true,\"common\":false,\"__gohashid\":523},{\"from\":\"target:User:fields\",\"to\":\"target:User:role:\",\"fromPort\":\"target:User:fields\",\"toPort\":\"target:User:role:\",\"visible\":true,\"common\":false,\"__gohashid\":524},{\"from\":\"target:User:fields\",\"to\":\"target:User:secondaryemail:\",\"fromPort\":\"target:User:fields\",\"toPort\":\"target:User:secondaryemail:\",\"visible\":true,\"common\":false,\"__gohashid\":525},{\"from\":\"target:User:fields\",\"to\":\"target:User:secondaryemail2:\",\"fromPort\":\"target:User:fields\",\"toPort\":\"target:User:secondaryemail2:\",\"visible\":true,\"common\":false,\"__gohashid\":526},{\"from\":\"target:User:fields\",\"to\":\"target:User:secondaryphone:\",\"fromPort\":\"target:User:fields\",\"toPort\":\"target:User:secondaryphone:\",\"visible\":true,\"common\":false,\"__gohashid\":527},{\"from\":\"target:User:fields\",\"to\":\"target:User:secondaryphone2:\",\"fromPort\":\"target:User:fields\",\"toPort\":\"target:User:secondaryphone2:\",\"visible\":true,\"common\":false,\"__gohashid\":528},{\"from\":\"target:User:fields\",\"to\":\"target:User:ssn:\",\"fromPort\":\"target:User:fields\",\"toPort\":\"target:User:ssn:\",\"visible\":true,\"common\":false,\"__gohashid\":529},{\"from\":\"target:User:fields\",\"to\":\"target:User:state:\",\"fromPort\":\"target:User:fields\",\"toPort\":\"target:User:state:\",\"visible\":true,\"common\":false,\"__gohashid\":530},{\"from\":\"target:User:fields\",\"to\":\"target:User:success:\",\"fromPort\":\"target:User:fields\",\"toPort\":\"target:User:success:\",\"visible\":true,\"common\":false,\"__gohashid\":531},{\"from\":\"target:User:fields\",\"to\":\"target:User:userfirstname:\",\"fromPort\":\"target:User:fields\",\"toPort\":\"target:User:userfirstname:\",\"visible\":true,\"common\":false,\"__gohashid\":532},{\"from\":\"target:User:fields\",\"to\":\"target:User:userId:\",\"fromPort\":\"target:User:fields\",\"toPort\":\"target:User:userId:\",\"visible\":true,\"common\":false,\"__gohashid\":533},{\"from\":\"target:User:fields\",\"to\":\"target:User:userImage:\",\"fromPort\":\"target:User:fields\",\"toPort\":\"target:User:userImage:\",\"visible\":true,\"common\":false,\"__gohashid\":534},{\"from\":\"target:User:fields\",\"to\":\"target:User:userlastname:\",\"fromPort\":\"target:User:fields\",\"toPort\":\"target:User:userlastname:\",\"visible\":true,\"common\":false,\"__gohashid\":535},{\"from\":\"target:User:fields\",\"to\":\"target:User:userName:\",\"fromPort\":\"target:User:fields\",\"toPort\":\"target:User:userName:\",\"visible\":true,\"common\":false,\"__gohashid\":536},{\"from\":\"target:User:fields\",\"to\":\"target:User:zipcode:\",\"fromPort\":\"target:User:fields\",\"toPort\":\"target:User:zipcode:\",\"visible\":true,\"common\":false,\"__gohashid\":537},{\"from\":\"target:User:fields\",\"to\":\"target:User:rating:\",\"fromPort\":\"target:User:fields\",\"toPort\":\"target:User:rating:\",\"visible\":true,\"common\":false,\"__gohashid\":538},{\"from\":\"target:User:fields\",\"to\":\"target:User:featureRequest:\",\"fromPort\":\"target:User:fields\",\"toPort\":\"target:User:featureRequest:\",\"visible\":true,\"common\":false,\"__gohashid\":539},{\"from\":\"target:User:fields\",\"to\":\"target:User:description:\",\"fromPort\":\"target:User:fields\",\"toPort\":\"target:User:description:\",\"visible\":true,\"common\":false,\"__gohashid\":540},{\"from\":\"target:User:fields\",\"to\":\"target:User:default_account_wire:\",\"fromPort\":\"target:User:fields\",\"toPort\":\"target:User:default_account_wire:\",\"visible\":true,\"common\":false,\"__gohashid\":541},{\"from\":\"target:User:fields\",\"to\":\"target:User:isWireTransferActivated:\",\"fromPort\":\"target:User:fields\",\"toPort\":\"target:User:isWireTransferActivated:\",\"visible\":true,\"common\":false,\"__gohashid\":542},{\"from\":\"target:User:fields\",\"to\":\"target:User:isWireTransferEligible:\",\"fromPort\":\"target:User:fields\",\"toPort\":\"target:User:isWireTransferEligible:\",\"visible\":true,\"common\":false,\"__gohashid\":543},{\"from\":\"target:User:fields\",\"to\":\"target:User:userImageURL:\",\"fromPort\":\"target:User:fields\",\"toPort\":\"target:User:userImageURL:\",\"visible\":true,\"common\":false,\"__gohashid\":544},{\"from\":\"target:User:fields\",\"to\":\"target:User:modifiedByName:\",\"fromPort\":\"target:User:fields\",\"toPort\":\"target:User:modifiedByName:\",\"visible\":true,\"common\":false,\"__gohashid\":545},{\"from\":\"target:User:fields\",\"to\":\"target:User:addresses:\",\"fromPort\":\"target:User:fields\",\"toPort\":\"target:User:addresses:\",\"visible\":true,\"common\":false,\"__gohashid\":546},{\"from\":\"target:User:fields\",\"to\":\"target:User:emailIds:\",\"fromPort\":\"target:User:fields\",\"toPort\":\"target:User:emailIds:\",\"visible\":true,\"common\":false,\"__gohashid\":547},{\"from\":\"target:User:fields\",\"to\":\"target:User:phoneNumbers:\",\"fromPort\":\"target:User:fields\",\"toPort\":\"target:User:phoneNumbers:\",\"visible\":true,\"common\":false,\"__gohashid\":548},{\"from\":\"target:User:fields\",\"to\":\"target:User:preferredContactMethod:\",\"fromPort\":\"target:User:fields\",\"toPort\":\"target:User:preferredContactMethod:\",\"visible\":true,\"common\":false,\"__gohashid\":549},{\"from\":\"target:User:fields\",\"to\":\"target:User:preferredContactTime:\",\"fromPort\":\"target:User:fields\",\"toPort\":\"target:User:preferredContactTime:\",\"visible\":true,\"common\":false,\"__gohashid\":550},{\"from\":\"target:User:fields\",\"to\":\"target:User:deleteAddressID:\",\"fromPort\":\"target:User:fields\",\"toPort\":\"target:User:deleteAddressID:\",\"visible\":true,\"common\":false,\"__gohashid\":551},{\"from\":\"target:User:fields\",\"to\":\"target:User:deleteCommunicationID:\",\"fromPort\":\"target:User:fields\",\"toPort\":\"target:User:deleteCommunicationID:\",\"visible\":true,\"common\":false,\"__gohashid\":552},{\"from\":\"target:User:fields\",\"to\":\"target:User:maritalStatus:\",\"fromPort\":\"target:User:fields\",\"toPort\":\"target:User:maritalStatus:\",\"visible\":true,\"common\":false,\"__gohashid\":553},{\"from\":\"target:User:fields\",\"to\":\"target:User:noOfDependents:\",\"fromPort\":\"target:User:fields\",\"toPort\":\"target:User:noOfDependents:\",\"visible\":true,\"common\":false,\"__gohashid\":554},{\"from\":\"target:User:fields\",\"to\":\"target:User:spouseFirstName:\",\"fromPort\":\"target:User:fields\",\"toPort\":\"target:User:spouseFirstName:\",\"visible\":true,\"common\":false,\"__gohashid\":555},{\"from\":\"target:User:fields\",\"to\":\"target:User:spouseLastName:\",\"fromPort\":\"target:User:fields\",\"toPort\":\"target:User:spouseLastName:\",\"visible\":true,\"common\":false,\"__gohashid\":556},{\"from\":\"target:User:fields\",\"to\":\"target:User:gender:\",\"fromPort\":\"target:User:fields\",\"toPort\":\"target:User:gender:\",\"visible\":true,\"common\":false,\"__gohashid\":557},{\"from\":\"target:User:fields\",\"to\":\"target:User:showBillPayFromAccPopup:\",\"fromPort\":\"target:User:fields\",\"toPort\":\"target:User:showBillPayFromAccPopup:\",\"visible\":true,\"common\":false,\"__gohashid\":558},{\"from\":\"target:User:fields\",\"to\":\"target:User:isP2PActivated:\",\"fromPort\":\"target:User:fields\",\"toPort\":\"target:User:isP2PActivated:\",\"visible\":true,\"common\":false,\"__gohashid\":559},{\"from\":\"target:User:fields\",\"to\":\"target:User:isP2PSupported:\",\"fromPort\":\"target:User:fields\",\"toPort\":\"target:User:isP2PSupported:\",\"visible\":true,\"common\":false,\"__gohashid\":560},{\"from\":\"target:User:fields\",\"to\":\"target:User:isBillPaySupported:\",\"fromPort\":\"target:User:fields\",\"toPort\":\"target:User:isBillPaySupported:\",\"visible\":true,\"common\":false,\"__gohashid\":561},{\"from\":\"target:User:fields\",\"to\":\"target:User:isBillPayActivated:\",\"fromPort\":\"target:User:fields\",\"toPort\":\"target:User:isBillPayActivated:\",\"visible\":true,\"common\":false,\"__gohashid\":562},{\"from\":\"target:User:fields\",\"to\":\"target:User:securityKey:\",\"fromPort\":\"target:User:fields\",\"toPort\":\"target:User:securityKey:\",\"visible\":true,\"common\":false,\"__gohashid\":563},{\"from\":\"target:User:fields\",\"to\":\"target:User:phoneExtension:\",\"fromPort\":\"target:User:fields\",\"toPort\":\"target:User:phoneExtension:\",\"visible\":true,\"common\":false,\"__gohashid\":564},{\"from\":\"target:User:fields\",\"to\":\"target:User:phoneCountryCode:\",\"fromPort\":\"target:User:fields\",\"toPort\":\"target:User:phoneCountryCode:\",\"visible\":true,\"common\":false,\"__gohashid\":565},{\"from\":\"target:User:fields\",\"to\":\"target:User:idmConfig:\",\"fromPort\":\"target:User:fields\",\"toPort\":\"target:User:idmConfig:\",\"visible\":true,\"common\":false,\"__gohashid\":566},{\"from\":\"target:User:fields\",\"to\":\"target:User:errCode:\",\"fromPort\":\"target:User:fields\",\"toPort\":\"target:User:errCode:\",\"visible\":true,\"common\":false,\"__gohashid\":567},{\"from\":\"target:User:fields\",\"to\":\"target:User:errorMessage:\",\"fromPort\":\"target:User:fields\",\"toPort\":\"target:User:errorMessage:\",\"visible\":true,\"common\":false,\"__gohashid\":568},{\"from\":\"target:User:fields\",\"to\":\"target:User:errorCode:\",\"fromPort\":\"target:User:fields\",\"toPort\":\"target:User:errorCode:\",\"visible\":true,\"common\":false,\"__gohashid\":569},{\"from\":\"target:User:fields\",\"to\":\"target:User:Id:\",\"fromPort\":\"target:User:fields\",\"toPort\":\"target:User:Id:\",\"visible\":true,\"common\":false,\"__gohashid\":570}],\"blockCount\":{\"variableCount\":0},\"variableMap\":{},\"xmlMappingOverride\":true}",
    "applyCommonMapping" : false,
    "applyRequestCommonMapping" : false,
    "applyResponseCommonMapping" : false,
    "backendMeta" : {
      "serviceName" : "dbpRbLocalServicesJava",
      "serviceVersion" : "1.0",
      "operationName" : "GetUserDetailsToAdmin"
    },
    "relationshipHierarchyMapping" : {
      "children" : [ ],
      "name" : "User",
      "actions" : { },
      "selected" : true
    },
    "requestXmlMappingOverride" : true,
    "responseXmlMappingOverride" : true
  }
}