{
  "operationConfig" : {
    "name" : "updateAddress5488",
    "type" : "MappedToBackend",
    "cachable" : false,
    "smsEnabled" : false,
    "security" : "authorized_app_user",
    "responseEncoding" : "UTF-8",
    "httpMethod" : "GET",
    "decodeResponseBody" : false,
    "iMapping" : "<?xml version=\"1.0\" encoding=\"UTF-8\" standalone=\"yes\"?><mapper xmlns=\"http://www.kony.com/ns/mapper\"><map inputpath=\"request_in\" outputpath=\"request_out\"><set-param inputpath=\"zipcode\" outputpath=\"zipcode\"/><set-param inputpath=\"country\" outputpath=\"country\"/><set-param inputpath=\"isPreferredAddress\" outputpath=\"isPreferredAddress\"/><set-param inputpath=\"city\" outputpath=\"city\"/><set-param inputpath=\"addressType\" outputpath=\"addressType\"/><set-param inputpath=\"addressLine1\" outputpath=\"addressLine1\"/><set-param inputpath=\"addressLine2\" outputpath=\"addressLine2\"/><set-param inputpath=\"state\" outputpath=\"state\"/><set-param inputpath=\"addressId\" outputpath=\"addressId\"/></map></mapper>",
    "oMapping" : "<?xml version=\"1.0\" encoding=\"UTF-8\" standalone=\"yes\"?><mapper xmlns=\"http://www.kony.com/ns/mapper\"><map inputpath=\"response_in\" outputpath=\"response_out\"><set-param inputpath=\"success\" outputpath=\"success\"/><set-param inputpath=\"errmsg\" outputpath=\"errmsg\"/></map></mapper>",
    "applyCommonMapping" : true,
    "applyRequestCommonMapping" : true,
    "applyResponseCommonMapping" : true,
    "backendMeta" : {
      "serviceName" : "dbpRbLocalServicesJava",
      "serviceVersion" : "1.0",
      "operationName" : "updateAddress"
    },
    "relationshipHierarchyMapping" : {
      "children" : [ ],
      "name" : "User",
      "actions" : { },
      "selected" : true
    },
    "requestXmlMappingOverride" : false,
    "responseXmlMappingOverride" : false
  }
}