{
  "operationConfig" : {
    "name" : "getBillerByAccountNumber7928",
    "type" : "MappedToBackend",
    "cachable" : false,
    "smsEnabled" : false,
    "security" : "authorized_app_user",
    "responseEncoding" : "UTF-8",
    "httpMethod" : "GET",
    "decodeResponseBody" : false,
    "iMapping" : "<?xml version=\"1.0\" encoding=\"UTF-8\" standalone=\"yes\"?><mapper xmlns=\"http://www.kony.com/ns/mapper\"><map inputpath=\"request_in\" outputpath=\"request_out\"><set-param inputpath=\"zipCode\" outputpath=\"zipCode\"/><set-param inputpath=\"accountNumber\" outputpath=\"accountNumber\"/><set-param inputpath=\"billerName\" outputpath=\"billerName\"/></map></mapper>",
    "oMapping" : "<?xml version=\"1.0\" encoding=\"UTF-8\" standalone=\"yes\"?><mapper xmlns=\"http://www.kony.com/ns/mapper\">    <map inputpath=\"response_in\" outputpath=\"response_out\">        <set-param inputpath=\"billermaster/zipCode\" outputpath=\"zipCode\"/>        <set-param inputpath=\"billermaster/address\" outputpath=\"address\"/>        <set-param inputpath=\"billermaster/billerCategoryName\" outputpath=\"billerCategoryName\"/>        <set-param inputpath=\"billermaster/city\" outputpath=\"city\"/>        <set-param inputpath=\"billermaster/billerCategoryId\" outputpath=\"billerCategoryId\"/>        <set-param inputpath=\"billermaster/ebillSupport\" outputpath=\"ebillSupport\"/>        <set-param inputpath=\"billermaster/id\" outputpath=\"id\"/>        <set-param inputpath=\"billermaster/state\" outputpath=\"state\"/>        <set-param inputpath=\"billermaster/accountNumber\" outputpath=\"accountNumber\"/>        <set-param inputpath=\"billermaster/billerName\" outputpath=\"billerName\"/>    </map></mapper>",
    "oVisualMappingData" : "{\"nodeDataArray\":[{\"isGroup\":true,\"key\":\"response_out\",\"text\":\"BillerMaster\",\"xy\":\"770 100\",\"__gohashid\":75990},{\"isGroup\":true,\"key\":\"response_in\",\"text\":\"dbpRbLocalServicesJava.getBillerByAccountNumber\",\"xy\":\"150 100\",\"__gohashid\":75991}],\"linkDataArray\":[{\"from\":\"target\",\"to\":\"target:BillerMaster\",\"fromPort\":\"target\",\"toPort\":\"target:BillerMaster\",\"visible\":true,\"common\":false,\"__gohashid\":76020},{\"from\":\"target:BillerMaster\",\"to\":\"target:BillerMaster:fields\",\"fromPort\":\"target:BillerMaster\",\"toPort\":\"target:BillerMaster:fields\",\"visible\":true,\"common\":false,\"__gohashid\":76021},{\"from\":\"target:BillerMaster:fields\",\"to\":\"target:BillerMaster:accountNumber:\",\"fromPort\":\"target:BillerMaster:fields\",\"toPort\":\"target:BillerMaster:accountNumber:\",\"visible\":true,\"common\":false,\"__gohashid\":76022},{\"from\":\"target:BillerMaster:fields\",\"to\":\"target:BillerMaster:address:\",\"fromPort\":\"target:BillerMaster:fields\",\"toPort\":\"target:BillerMaster:address:\",\"visible\":true,\"common\":false,\"__gohashid\":76023},{\"from\":\"target:BillerMaster:fields\",\"to\":\"target:BillerMaster:billerCategoryId:\",\"fromPort\":\"target:BillerMaster:fields\",\"toPort\":\"target:BillerMaster:billerCategoryId:\",\"visible\":true,\"common\":false,\"__gohashid\":76024},{\"from\":\"target:BillerMaster:fields\",\"to\":\"target:BillerMaster:billerCategoryName:\",\"fromPort\":\"target:BillerMaster:fields\",\"toPort\":\"target:BillerMaster:billerCategoryName:\",\"visible\":true,\"common\":false,\"__gohashid\":76025},{\"from\":\"target:BillerMaster:fields\",\"to\":\"target:BillerMaster:billerName:\",\"fromPort\":\"target:BillerMaster:fields\",\"toPort\":\"target:BillerMaster:billerName:\",\"visible\":true,\"common\":false,\"__gohashid\":76026},{\"from\":\"target:BillerMaster:fields\",\"to\":\"target:BillerMaster:city:\",\"fromPort\":\"target:BillerMaster:fields\",\"toPort\":\"target:BillerMaster:city:\",\"visible\":true,\"common\":false,\"__gohashid\":76027},{\"from\":\"target:BillerMaster:fields\",\"to\":\"target:BillerMaster:ebillSupport:\",\"fromPort\":\"target:BillerMaster:fields\",\"toPort\":\"target:BillerMaster:ebillSupport:\",\"visible\":true,\"common\":false,\"__gohashid\":76028},{\"from\":\"target:BillerMaster:fields\",\"to\":\"target:BillerMaster:id:\",\"fromPort\":\"target:BillerMaster:fields\",\"toPort\":\"target:BillerMaster:id:\",\"visible\":true,\"common\":false,\"__gohashid\":76029},{\"from\":\"target:BillerMaster:fields\",\"to\":\"target:BillerMaster:limit:\",\"fromPort\":\"target:BillerMaster:fields\",\"toPort\":\"target:BillerMaster:limit:\",\"visible\":true,\"common\":false,\"__gohashid\":76030},{\"from\":\"target:BillerMaster:fields\",\"to\":\"target:BillerMaster:searchString:\",\"fromPort\":\"target:BillerMaster:fields\",\"toPort\":\"target:BillerMaster:searchString:\",\"visible\":true,\"common\":false,\"__gohashid\":76031},{\"from\":\"target:BillerMaster:fields\",\"to\":\"target:BillerMaster:state:\",\"fromPort\":\"target:BillerMaster:fields\",\"toPort\":\"target:BillerMaster:state:\",\"visible\":true,\"common\":false,\"__gohashid\":76032},{\"from\":\"target:BillerMaster:fields\",\"to\":\"target:BillerMaster:zipCode:\",\"fromPort\":\"target:BillerMaster:fields\",\"toPort\":\"target:BillerMaster:zipCode:\",\"visible\":true,\"common\":false,\"__gohashid\":76033},{\"from\":\"source\",\"to\":\"source:parameters\",\"fromPort\":\"source\",\"toPort\":\"source:parameters\",\"visible\":true,\"common\":false,\"__gohashid\":76034},{\"from\":\"source:parameters\",\"to\":\"source:accountNumber:\",\"fromPort\":\"source:parameters\",\"toPort\":\"source:accountNumber:\",\"visible\":true,\"common\":false,\"__gohashid\":76035},{\"from\":\"source:parameters\",\"to\":\"source:address:\",\"fromPort\":\"source:parameters\",\"toPort\":\"source:address:\",\"visible\":true,\"common\":false,\"__gohashid\":76036},{\"from\":\"source:parameters\",\"to\":\"source:billerCategoryId:\",\"fromPort\":\"source:parameters\",\"toPort\":\"source:billerCategoryId:\",\"visible\":true,\"common\":false,\"__gohashid\":76037},{\"from\":\"source:parameters\",\"to\":\"source:billerCategoryName:\",\"fromPort\":\"source:parameters\",\"toPort\":\"source:billerCategoryName:\",\"visible\":true,\"common\":false,\"__gohashid\":76038},{\"from\":\"source:parameters\",\"to\":\"source:billerName:\",\"fromPort\":\"source:parameters\",\"toPort\":\"source:billerName:\",\"visible\":true,\"common\":false,\"__gohashid\":76039},{\"from\":\"source:parameters\",\"to\":\"source:city:\",\"fromPort\":\"source:parameters\",\"toPort\":\"source:city:\",\"visible\":true,\"common\":false,\"__gohashid\":76040},{\"from\":\"source:parameters\",\"to\":\"source:ebillSupport:\",\"fromPort\":\"source:parameters\",\"toPort\":\"source:ebillSupport:\",\"visible\":true,\"common\":false,\"__gohashid\":76041},{\"from\":\"source:parameters\",\"to\":\"source:id:\",\"fromPort\":\"source:parameters\",\"toPort\":\"source:id:\",\"visible\":true,\"common\":false,\"__gohashid\":76042},{\"from\":\"source:parameters\",\"to\":\"source:state:\",\"fromPort\":\"source:parameters\",\"toPort\":\"source:state:\",\"visible\":true,\"common\":false,\"__gohashid\":76043},{\"from\":\"source:parameters\",\"to\":\"source:zipCode:\",\"fromPort\":\"source:parameters\",\"toPort\":\"source:zipCode:\",\"visible\":true,\"common\":false,\"__gohashid\":76044}],\"blockCount\":{\"variableCount\":0},\"variableMap\":{},\"xmlMappingOverride\":true}",
    "applyCommonMapping" : false,
    "applyRequestCommonMapping" : true,
    "applyResponseCommonMapping" : false,
    "backendMeta" : {
      "serviceName" : "dbpRbLocalServicesJava",
      "serviceVersion" : "1.0",
      "operationName" : "getBillerByAccountNumber"
    },
    "relationshipHierarchyMapping" : {
      "children" : [ ],
      "name" : "BillerMaster",
      "actions" : { },
      "selected" : true
    },
    "requestXmlMappingOverride" : false,
    "responseXmlMappingOverride" : true
  }
}