{
  "type" : "svcdriven",
  "custom" : false,
  "junction" : false,
  "customizable" : false,
  "verbs" : {
    "updateOrganization" : "updateOrganizationMapping",
    "unLinkOrgAccounts" : "unLinkOrgAccountsMapping",
    "createOrganization" : "createOrganizationMapping"
  },
  "entityProperties" : {
    "BatchMode" : "buffer",
    "backendMeta" : { },
    "designTimeBackendMeta" : { }
  }
}