{
  "operationConfig" : {
    "name" : "createTemplate8325",
    "type" : "MappedToBackend",
    "cachable" : false,
    "smsEnabled" : false,
    "security" : "authorized_app_user",
    "responseEncoding" : "UTF-8",
    "httpMethod" : "GET",
    "decodeResponseBody" : false,
    "iMapping" : "<?xml version=\"1.0\" encoding=\"UTF-8\" standalone=\"yes\"?><mapper xmlns=\"http://www.kony.com/ns/mapper\">  <map inputpath=\"request_in\" outputpath=\"request_out\">    <set-param inputpath=\"DebitAccount\" outputpath=\"DebitAccount\"/>    <set-param inputpath=\"MaxAmount\" outputpath=\"MaxAmount\"/>    <set-param inputpath=\"Records\" outputpath=\"Records\"/>    <set-param inputpath=\"TotalAmount\" outputpath=\"TotalAmount\" />    <set-param inputpath=\"TemplateDescription\" outputpath=\"TemplateDescription\"/>    <set-param inputpath=\"TemplateName\" outputpath=\"TemplateName\"/>    <set-param inputpath=\"TemplateRequestType_id\" outputpath=\"TemplateRequestType_id\"/>    <set-param inputpath=\"TemplateType_id\" outputpath=\"TemplateType_id\"/>    <set-param inputpath=\"TransactionType_id\" outputpath=\"TransactionType_id\"/>  </map></mapper>",
    "iVisualMappingData" : "{\"nodeDataArray\":[{\"isGroup\":true,\"key\":\"request_in\",\"text\":\"ACHTemplates\",\"xy\":\"150 100\",\"__gohashid\":26659},{\"isGroup\":true,\"key\":\"request_out\",\"text\":\"dbpBBJavaServices (1.0).createTemplate\",\"xy\":\"526.1025934062499 357.2983630000001\",\"__gohashid\":26660}],\"linkDataArray\":[{\"category\":\"Mapping\",\"visible\":true,\"__gohashid\":32876,\"from\":\"source:ACHTemplates:MaxAmount:\",\"to\":\"target:MaxAmount:\",\"fromPort\":\"source:ACHTemplates:MaxAmount:\",\"toPort\":\"target:MaxAmount:\"},{\"category\":\"Mapping\",\"visible\":true,\"__gohashid\":33189,\"from\":\"source:ACHTemplates:Records:\",\"to\":\"target:Records:\",\"fromPort\":\"source:ACHTemplates:Records:\",\"toPort\":\"target:Records:\"},{\"category\":\"Mapping\",\"visible\":true,\"__gohashid\":35887,\"from\":\"source:ACHTemplates:TransactionType_id:\",\"to\":\"target:TransactionType_id:\",\"fromPort\":\"source:ACHTemplates:TransactionType_id:\",\"toPort\":\"target:TransactionType_id:\"},{\"category\":\"Mapping\",\"visible\":true,\"__gohashid\":36102,\"from\":\"source:ACHTemplates:TemplateType_id:\",\"to\":\"target:TemplateType_id:\",\"fromPort\":\"source:ACHTemplates:TemplateType_id:\",\"toPort\":\"target:TemplateType_id:\"},{\"category\":\"Mapping\",\"visible\":true,\"__gohashid\":36297,\"from\":\"source:ACHTemplates:TemplateRequestType_id:\",\"to\":\"target:TemplateRequestType_id:\",\"fromPort\":\"source:ACHTemplates:TemplateRequestType_id:\",\"toPort\":\"target:TemplateRequestType_id:\"},{\"category\":\"Mapping\",\"visible\":true,\"__gohashid\":36720,\"from\":\"source:ACHTemplates:TemplateName:\",\"to\":\"target:TemplateName:\",\"fromPort\":\"source:ACHTemplates:TemplateName:\",\"toPort\":\"target:TemplateName:\"},{\"category\":\"Mapping\",\"visible\":true,\"__gohashid\":37008,\"from\":\"source:ACHTemplates:TemplateDescription:\",\"to\":\"target:TemplateDescription:\",\"fromPort\":\"source:ACHTemplates:TemplateDescription:\",\"toPort\":\"target:TemplateDescription:\"},{\"category\":\"Mapping\",\"visible\":true,\"__gohashid\":5958,\"from\":\"source:ACHTemplates:DebitAccount:\",\"to\":\"target:DebitAccount:\",\"fromPort\":\"source:ACHTemplates:DebitAccount:\",\"toPort\":\"target:DebitAccount:\"},{\"from\":\"source\",\"to\":\"source:ACHTemplates\",\"fromPort\":\"source\",\"toPort\":\"source:ACHTemplates\",\"visible\":true,\"common\":false,\"__gohashid\":3697},{\"from\":\"source:ACHTemplates\",\"to\":\"source:ACHTemplates:fields\",\"fromPort\":\"source:ACHTemplates\",\"toPort\":\"source:ACHTemplates:fields\",\"visible\":true,\"common\":false,\"__gohashid\":3698},{\"from\":\"source:ACHTemplates:fields\",\"to\":\"source:ACHTemplates:BBGeneralTransactionType_id:\",\"fromPort\":\"source:ACHTemplates:fields\",\"toPort\":\"source:ACHTemplates:BBGeneralTransactionType_id:\",\"visible\":true,\"common\":false,\"__gohashid\":3699},{\"from\":\"source:ACHTemplates:fields\",\"to\":\"source:ACHTemplates:CreatedBy:\",\"fromPort\":\"source:ACHTemplates:fields\",\"toPort\":\"source:ACHTemplates:CreatedBy:\",\"visible\":true,\"common\":false,\"__gohashid\":3700},{\"from\":\"source:ACHTemplates:fields\",\"to\":\"source:ACHTemplates:TemplateType_id:\",\"fromPort\":\"source:ACHTemplates:fields\",\"toPort\":\"source:ACHTemplates:TemplateType_id:\",\"visible\":true,\"common\":false,\"__gohashid\":3701},{\"from\":\"source:ACHTemplates:fields\",\"to\":\"source:ACHTemplates:CompanyName:\",\"fromPort\":\"source:ACHTemplates:fields\",\"toPort\":\"source:ACHTemplates:CompanyName:\",\"visible\":true,\"common\":false,\"__gohashid\":3702},{\"from\":\"source:ACHTemplates:fields\",\"to\":\"source:ACHTemplates:TemplateTypeValue:\",\"fromPort\":\"source:ACHTemplates:fields\",\"toPort\":\"source:ACHTemplates:TemplateTypeValue:\",\"visible\":true,\"common\":false,\"__gohashid\":3703},{\"from\":\"source:ACHTemplates:fields\",\"to\":\"source:ACHTemplates:Status:\",\"fromPort\":\"source:ACHTemplates:fields\",\"toPort\":\"source:ACHTemplates:Status:\",\"visible\":true,\"common\":false,\"__gohashid\":3704},{\"from\":\"source:ACHTemplates:fields\",\"to\":\"source:ACHTemplates:TemplateRequestType_id:\",\"fromPort\":\"source:ACHTemplates:fields\",\"toPort\":\"source:ACHTemplates:TemplateRequestType_id:\",\"visible\":true,\"common\":false,\"__gohashid\":3705},{\"from\":\"source:ACHTemplates:fields\",\"to\":\"source:ACHTemplates:softDelete:\",\"fromPort\":\"source:ACHTemplates:fields\",\"toPort\":\"source:ACHTemplates:softDelete:\",\"visible\":true,\"common\":false,\"__gohashid\":3706},{\"from\":\"source:ACHTemplates:fields\",\"to\":\"source:ACHTemplates:TransactionType_id:\",\"fromPort\":\"source:ACHTemplates:fields\",\"toPort\":\"source:ACHTemplates:TransactionType_id:\",\"visible\":true,\"common\":false,\"__gohashid\":3707},{\"from\":\"source:ACHTemplates:fields\",\"to\":\"source:ACHTemplates:Company_id:\",\"fromPort\":\"source:ACHTemplates:fields\",\"toPort\":\"source:ACHTemplates:Company_id:\",\"visible\":true,\"common\":false,\"__gohashid\":3708},{\"from\":\"source:ACHTemplates:fields\",\"to\":\"source:ACHTemplates:TransactionTypeValue:\",\"fromPort\":\"source:ACHTemplates:fields\",\"toPort\":\"source:ACHTemplates:TransactionTypeValue:\",\"visible\":true,\"common\":false,\"__gohashid\":3709},{\"from\":\"source:ACHTemplates:fields\",\"to\":\"source:ACHTemplates:StatusValue:\",\"fromPort\":\"source:ACHTemplates:fields\",\"toPort\":\"source:ACHTemplates:StatusValue:\",\"visible\":true,\"common\":false,\"__gohashid\":3710},{\"from\":\"source:ACHTemplates:fields\",\"to\":\"source:ACHTemplates:RequestType:\",\"fromPort\":\"source:ACHTemplates:fields\",\"toPort\":\"source:ACHTemplates:RequestType:\",\"visible\":true,\"common\":false,\"__gohashid\":3711},{\"from\":\"source:ACHTemplates:fields\",\"to\":\"source:ACHTemplates:DebitAccount:\",\"fromPort\":\"source:ACHTemplates:fields\",\"toPort\":\"source:ACHTemplates:DebitAccount:\",\"visible\":true,\"common\":false,\"__gohashid\":3712},{\"from\":\"source:ACHTemplates:fields\",\"to\":\"source:ACHTemplates:AccountName:\",\"fromPort\":\"source:ACHTemplates:fields\",\"toPort\":\"source:ACHTemplates:AccountName:\",\"visible\":true,\"common\":false,\"__gohashid\":3713},{\"from\":\"source:ACHTemplates:fields\",\"to\":\"source:ACHTemplates:Records:\",\"fromPort\":\"source:ACHTemplates:fields\",\"toPort\":\"source:ACHTemplates:Records:\",\"visible\":true,\"common\":false,\"__gohashid\":3714},{\"from\":\"source:ACHTemplates:fields\",\"to\":\"source:ACHTemplates:TemplateDescription:\",\"fromPort\":\"source:ACHTemplates:fields\",\"toPort\":\"source:ACHTemplates:TemplateDescription:\",\"visible\":true,\"common\":false,\"__gohashid\":3715},{\"from\":\"source:ACHTemplates:fields\",\"to\":\"source:ACHTemplates:TemplateName:\",\"fromPort\":\"source:ACHTemplates:fields\",\"toPort\":\"source:ACHTemplates:TemplateName:\",\"visible\":true,\"common\":false,\"__gohashid\":3716},{\"from\":\"source:ACHTemplates:fields\",\"to\":\"source:ACHTemplates:MaxAmount:\",\"fromPort\":\"source:ACHTemplates:fields\",\"toPort\":\"source:ACHTemplates:MaxAmount:\",\"visible\":true,\"common\":false,\"__gohashid\":3717},{\"from\":\"source:ACHTemplates:fields\",\"to\":\"source:ACHTemplates:CreatedOn:\",\"fromPort\":\"source:ACHTemplates:fields\",\"toPort\":\"source:ACHTemplates:CreatedOn:\",\"visible\":true,\"common\":false,\"__gohashid\":3718},{\"from\":\"source:ACHTemplates:fields\",\"to\":\"source:ACHTemplates:Template_id:\",\"fromPort\":\"source:ACHTemplates:fields\",\"toPort\":\"source:ACHTemplates:Template_id:\",\"visible\":true,\"common\":false,\"__gohashid\":3719},{\"from\":\"source:ACHTemplates:fields\",\"to\":\"source:ACHTemplates:EffectiveDate:\",\"fromPort\":\"source:ACHTemplates:fields\",\"toPort\":\"source:ACHTemplates:EffectiveDate:\",\"visible\":true,\"common\":false,\"__gohashid\":3720},{\"from\":\"source:ACHTemplates:fields\",\"to\":\"source:ACHTemplates:Approver:\",\"fromPort\":\"source:ACHTemplates:fields\",\"toPort\":\"source:ACHTemplates:Approver:\",\"visible\":true,\"common\":false,\"__gohashid\":3721},{\"from\":\"source:ACHTemplates:fields\",\"to\":\"source:ACHTemplates:userName:\",\"fromPort\":\"source:ACHTemplates:fields\",\"toPort\":\"source:ACHTemplates:userName:\",\"visible\":true,\"common\":false,\"__gohashid\":3722},{\"from\":\"source:ACHTemplates:fields\",\"to\":\"source:ACHTemplates:TotalAmount:\",\"fromPort\":\"source:ACHTemplates:fields\",\"toPort\":\"source:ACHTemplates:TotalAmount:\",\"visible\":true,\"common\":false,\"__gohashid\":3723},{\"from\":\"target\",\"to\":\"target:parameters\",\"fromPort\":\"target\",\"toPort\":\"target:parameters\",\"visible\":true,\"common\":false,\"__gohashid\":3724},{\"from\":\"target:parameters\",\"to\":\"target:DebitAccount:\",\"fromPort\":\"target:parameters\",\"toPort\":\"target:DebitAccount:\",\"visible\":true,\"common\":false,\"__gohashid\":3725},{\"from\":\"target:parameters\",\"to\":\"target:MaxAmount:\",\"fromPort\":\"target:parameters\",\"toPort\":\"target:MaxAmount:\",\"visible\":true,\"common\":false,\"__gohashid\":3726},{\"from\":\"target:parameters\",\"to\":\"target:Records:\",\"fromPort\":\"target:parameters\",\"toPort\":\"target:Records:\",\"visible\":true,\"common\":false,\"__gohashid\":3727},{\"from\":\"target:parameters\",\"to\":\"target:TemplateDescription:\",\"fromPort\":\"target:parameters\",\"toPort\":\"target:TemplateDescription:\",\"visible\":true,\"common\":false,\"__gohashid\":3728},{\"from\":\"target:parameters\",\"to\":\"target:TemplateName:\",\"fromPort\":\"target:parameters\",\"toPort\":\"target:TemplateName:\",\"visible\":true,\"common\":false,\"__gohashid\":3729},{\"from\":\"target:parameters\",\"to\":\"target:TemplateRequestType_id:\",\"fromPort\":\"target:parameters\",\"toPort\":\"target:TemplateRequestType_id:\",\"visible\":true,\"common\":false,\"__gohashid\":3730},{\"from\":\"target:parameters\",\"to\":\"target:TemplateType_id:\",\"fromPort\":\"target:parameters\",\"toPort\":\"target:TemplateType_id:\",\"visible\":true,\"common\":false,\"__gohashid\":3731},{\"from\":\"target:parameters\",\"to\":\"target:TotalAmount:\",\"fromPort\":\"target:parameters\",\"toPort\":\"target:TotalAmount:\",\"visible\":true,\"common\":false,\"__gohashid\":3732},{\"from\":\"target:parameters\",\"to\":\"target:TransactionType_id:\",\"fromPort\":\"target:parameters\",\"toPort\":\"target:TransactionType_id:\",\"visible\":true,\"common\":false,\"__gohashid\":3733}],\"blockCount\":{\"variableCount\":0},\"variableMap\":{},\"xmlMappingOverride\":true}",
    "applyCommonMapping" : false,
    "applyRequestCommonMapping" : false,
    "applyResponseCommonMapping" : true,
    "backendMeta" : {
      "serviceName" : "dbpBBJavaServices",
      "serviceVersion" : "1.0",
      "operationName" : "createTemplate"
    },
    "relationshipHierarchyMapping" : {
      "children" : [ ],
      "name" : "ACHTemplates",
      "actions" : { },
      "selected" : true
    },
    "requestXmlMappingOverride" : true,
    "responseXmlMappingOverride" : false
  }
}