{
  "operationConfig" : {
    "name" : "FetchAllBBTemplates4559",
    "type" : "MappedToBackend",
    "cachable" : false,
    "smsEnabled" : false,
    "security" : "authorized_app_user",
    "responseEncoding" : "UTF-8",
    "httpMethod" : "GET",
    "decodeResponseBody" : false,
    "odata" : [ {
      "id" : "$select",
      "dataType" : "string",
      "encode" : true,
      "accessType" : "readonly"
    }, {
      "id" : "$filter",
      "dataType" : "string",
      "encode" : true,
      "accessType" : "readonly"
    }, {
      "id" : "$orderby",
      "dataType" : "string",
      "encode" : true,
      "accessType" : "readonly"
    }, {
      "id" : "$top",
      "dataType" : "string",
      "encode" : true,
      "accessType" : "readonly"
    }, {
      "id" : "$skip",
      "dataType" : "string",
      "encode" : true,
      "accessType" : "readonly"
    }, {
      "id" : "$expand",
      "dataType" : "string",
      "encode" : true,
      "accessType" : "readonly"
    }, {
      "id" : "$batchsize",
      "dataType" : "string",
      "encode" : true,
      "accessType" : "readonly"
    }, {
      "id" : "$batchid",
      "dataType" : "string",
      "encode" : true,
      "accessType" : "readonly"
    } ],
    "oMapping" : "<?xml version=\"1.0\" encoding=\"UTF-8\" standalone=\"yes\"?><mapper xmlns=\"http://www.kony.com/ns/mapper\">                                          <map inputpath=\"response_in\" outputpath=\"response_out\">                                                                                    <map inputpath=\"fetch_achtemplate_details_view\" outputpath=\"ACHTemplates\">                                                                                                                              <set-param inputpath=\"Template_id\" outputpath=\"Template_id\" />                                                                                                                              <set-param inputpath=\"BBGeneralTransactionType_id\" outputpath=\"BBGeneralTransactionType_id\" />                                                                                                                              <set-param inputpath=\"TemplateName\" outputpath=\"TemplateName\" />                                                                                                                              <set-param inputpath=\"TemplateRequestTypeValue\" outputpath=\"RequestType\" />                                                                                                                              <set-param inputpath=\"DebitAccount\" outputpath=\"DebitAccount\" />                                                                                                                              <set-param inputpath=\"createdts\" outputpath=\"CreatedOn\" />                                                                                                                              <set-param inputpath=\"MaxAmount\" outputpath=\"MaxAmount\" />             <set-param inputpath=\"TotalAmount\" outputpath=\"TotalAmount\" />            <set-param inputpath=\"createdby\" outputpath=\"CreatedBy\" />                                                                                                                              <set-param inputpath=\"CreateBy\" outputpath=\"userName\"/>                                    <set-param inputpath=\"EffectiveDate\" outputpath=\"EffectiveDate\" />                                                                                                                              <set-param inputpath=\"Status\" outputpath=\"Status\" />                                                                                                                              <set-param inputpath=\"TemplateRequestType_id\" outputpath=\"TemplateRequestType_id\" />                                                                                                                              <set-param inputpath=\"TemplateType_id\" outputpath=\"TemplateType_id\" />                                                                                                                              <set-param inputpath=\"CompanyName\" outputpath=\"CompanyName\" />                                                                                                                              <set-param inputpath=\"TemplateTypeValue\" outputpath=\"TemplateTypeValue\" />                          <set-param inputpath=\"TemplateDescription\" outputpath=\"TemplateDescription\" />                          <set-param inputpath=\"softDelete\" outputpath=\"softDelete\" />                                                                                                                              <set-param inputpath=\"TransactionType_id\" outputpath=\"TransactionType_id\" />                                                                                                                              <set-param inputpath=\"Company_id\" outputpath=\"Company_id\" />                                                                                                                              <set-param inputpath=\"TransactionTypeValue\" outputpath=\"TransactionTypeValue\" />                                                                                                                              <set-param inputpath=\"StatusValue\" outputpath=\"StatusValue\" />                                                                                                                              <set-param inputpath=\"AccountName\" outputpath=\"AccountName\" />                              <set-param inputpath=\"ActedBy\" outputpath=\"Approver\" />                    </map>     <set-param outputpath=\"dbpErrCode\" inputpath=\"dbpErrCode\" />                <set-param outputpath=\"dbpErrMsg\" inputpath=\"dbpErrMsg\" />        <set-param outputpath=\"opstatus\" inputpath=\"opstatus\" />        <set-param outputpath=\"httpStatusCode\" inputpath=\"httpStatusCode\" />    </map></mapper>",
    "oVisualMappingData" : "{\"nodeDataArray\":[{\"isGroup\":true,\"key\":\"response_out\",\"text\":\"ACHTemplates\",\"xy\":\"770 100\",\"__gohashid\":291},{\"isGroup\":true,\"key\":\"response_in\",\"text\":\"dbpBBJavaServices (1.0).FetchAllBBTemplates\",\"xy\":\"150 100\",\"__gohashid\":292}],\"linkDataArray\":[{\"from\":\"target\",\"to\":\"target:ACHTemplates\",\"fromPort\":\"target\",\"toPort\":\"target:ACHTemplates\",\"visible\":true,\"common\":false,\"__gohashid\":18820},{\"from\":\"target:ACHTemplates\",\"to\":\"target:ACHTemplates:fields\",\"fromPort\":\"target:ACHTemplates\",\"toPort\":\"target:ACHTemplates:fields\",\"visible\":true,\"common\":false,\"__gohashid\":18821},{\"from\":\"target:ACHTemplates:fields\",\"to\":\"target:ACHTemplates:BBGeneralTransactionType_id:\",\"fromPort\":\"target:ACHTemplates:fields\",\"toPort\":\"target:ACHTemplates:BBGeneralTransactionType_id:\",\"visible\":true,\"common\":false,\"__gohashid\":18822},{\"from\":\"target:ACHTemplates:fields\",\"to\":\"target:ACHTemplates:CreatedBy:\",\"fromPort\":\"target:ACHTemplates:fields\",\"toPort\":\"target:ACHTemplates:CreatedBy:\",\"visible\":true,\"common\":false,\"__gohashid\":18823},{\"from\":\"target:ACHTemplates:fields\",\"to\":\"target:ACHTemplates:TemplateType_id:\",\"fromPort\":\"target:ACHTemplates:fields\",\"toPort\":\"target:ACHTemplates:TemplateType_id:\",\"visible\":true,\"common\":false,\"__gohashid\":18824},{\"from\":\"target:ACHTemplates:fields\",\"to\":\"target:ACHTemplates:CompanyName:\",\"fromPort\":\"target:ACHTemplates:fields\",\"toPort\":\"target:ACHTemplates:CompanyName:\",\"visible\":true,\"common\":false,\"__gohashid\":18825},{\"from\":\"target:ACHTemplates:fields\",\"to\":\"target:ACHTemplates:TemplateTypeValue:\",\"fromPort\":\"target:ACHTemplates:fields\",\"toPort\":\"target:ACHTemplates:TemplateTypeValue:\",\"visible\":true,\"common\":false,\"__gohashid\":18826},{\"from\":\"target:ACHTemplates:fields\",\"to\":\"target:ACHTemplates:Status:\",\"fromPort\":\"target:ACHTemplates:fields\",\"toPort\":\"target:ACHTemplates:Status:\",\"visible\":true,\"common\":false,\"__gohashid\":18827},{\"from\":\"target:ACHTemplates:fields\",\"to\":\"target:ACHTemplates:TemplateRequestType_id:\",\"fromPort\":\"target:ACHTemplates:fields\",\"toPort\":\"target:ACHTemplates:TemplateRequestType_id:\",\"visible\":true,\"common\":false,\"__gohashid\":18828},{\"from\":\"target:ACHTemplates:fields\",\"to\":\"target:ACHTemplates:softDelete:\",\"fromPort\":\"target:ACHTemplates:fields\",\"toPort\":\"target:ACHTemplates:softDelete:\",\"visible\":true,\"common\":false,\"__gohashid\":18829},{\"from\":\"target:ACHTemplates:fields\",\"to\":\"target:ACHTemplates:TransactionType_id:\",\"fromPort\":\"target:ACHTemplates:fields\",\"toPort\":\"target:ACHTemplates:TransactionType_id:\",\"visible\":true,\"common\":false,\"__gohashid\":18830},{\"from\":\"target:ACHTemplates:fields\",\"to\":\"target:ACHTemplates:Company_id:\",\"fromPort\":\"target:ACHTemplates:fields\",\"toPort\":\"target:ACHTemplates:Company_id:\",\"visible\":true,\"common\":false,\"__gohashid\":18831},{\"from\":\"target:ACHTemplates:fields\",\"to\":\"target:ACHTemplates:TransactionTypeValue:\",\"fromPort\":\"target:ACHTemplates:fields\",\"toPort\":\"target:ACHTemplates:TransactionTypeValue:\",\"visible\":true,\"common\":false,\"__gohashid\":18832},{\"from\":\"target:ACHTemplates:fields\",\"to\":\"target:ACHTemplates:StatusValue:\",\"fromPort\":\"target:ACHTemplates:fields\",\"toPort\":\"target:ACHTemplates:StatusValue:\",\"visible\":true,\"common\":false,\"__gohashid\":18833},{\"from\":\"target:ACHTemplates:fields\",\"to\":\"target:ACHTemplates:RequestType:\",\"fromPort\":\"target:ACHTemplates:fields\",\"toPort\":\"target:ACHTemplates:RequestType:\",\"visible\":true,\"common\":false,\"__gohashid\":18834},{\"from\":\"target:ACHTemplates:fields\",\"to\":\"target:ACHTemplates:DebitAccount:\",\"fromPort\":\"target:ACHTemplates:fields\",\"toPort\":\"target:ACHTemplates:DebitAccount:\",\"visible\":true,\"common\":false,\"__gohashid\":18835},{\"from\":\"target:ACHTemplates:fields\",\"to\":\"target:ACHTemplates:AccountName:\",\"fromPort\":\"target:ACHTemplates:fields\",\"toPort\":\"target:ACHTemplates:AccountName:\",\"visible\":true,\"common\":false,\"__gohashid\":18836},{\"from\":\"target:ACHTemplates:fields\",\"to\":\"target:ACHTemplates:Records:\",\"fromPort\":\"target:ACHTemplates:fields\",\"toPort\":\"target:ACHTemplates:Records:\",\"visible\":true,\"common\":false,\"__gohashid\":18837},{\"from\":\"target:ACHTemplates:fields\",\"to\":\"target:ACHTemplates:TemplateDescription:\",\"fromPort\":\"target:ACHTemplates:fields\",\"toPort\":\"target:ACHTemplates:TemplateDescription:\",\"visible\":true,\"common\":false,\"__gohashid\":18838},{\"from\":\"target:ACHTemplates:fields\",\"to\":\"target:ACHTemplates:TemplateName:\",\"fromPort\":\"target:ACHTemplates:fields\",\"toPort\":\"target:ACHTemplates:TemplateName:\",\"visible\":true,\"common\":false,\"__gohashid\":18839},{\"from\":\"target:ACHTemplates:fields\",\"to\":\"target:ACHTemplates:MaxAmount:\",\"fromPort\":\"target:ACHTemplates:fields\",\"toPort\":\"target:ACHTemplates:MaxAmount:\",\"visible\":true,\"common\":false,\"__gohashid\":18840},{\"from\":\"target:ACHTemplates:fields\",\"to\":\"target:ACHTemplates:CreatedOn:\",\"fromPort\":\"target:ACHTemplates:fields\",\"toPort\":\"target:ACHTemplates:CreatedOn:\",\"visible\":true,\"common\":false,\"__gohashid\":18841},{\"from\":\"target:ACHTemplates:fields\",\"to\":\"target:ACHTemplates:Template_id:\",\"fromPort\":\"target:ACHTemplates:fields\",\"toPort\":\"target:ACHTemplates:Template_id:\",\"visible\":true,\"common\":false,\"__gohashid\":18842},{\"from\":\"target:ACHTemplates:fields\",\"to\":\"target:ACHTemplates:EffectiveDate:\",\"fromPort\":\"target:ACHTemplates:fields\",\"toPort\":\"target:ACHTemplates:EffectiveDate:\",\"visible\":true,\"common\":false,\"__gohashid\":18843},{\"from\":\"target:ACHTemplates:fields\",\"to\":\"target:ACHTemplates:Approver:\",\"fromPort\":\"target:ACHTemplates:fields\",\"toPort\":\"target:ACHTemplates:Approver:\",\"visible\":true,\"common\":false,\"__gohashid\":18844},{\"from\":\"target:ACHTemplates:fields\",\"to\":\"target:ACHTemplates:userName:\",\"fromPort\":\"target:ACHTemplates:fields\",\"toPort\":\"target:ACHTemplates:userName:\",\"visible\":true,\"common\":false,\"__gohashid\":18845},{\"from\":\"target:ACHTemplates:fields\",\"to\":\"target:ACHTemplates:TotalAmount:\",\"fromPort\":\"target:ACHTemplates:fields\",\"toPort\":\"target:ACHTemplates:TotalAmount:\",\"visible\":true,\"common\":false,\"__gohashid\":18846},{\"from\":\"target:ACHTemplates:fields\",\"to\":\"target:ACHTemplates:dbpErrCode:\",\"fromPort\":\"target:ACHTemplates:fields\",\"toPort\":\"target:ACHTemplates:dbpErrCode:\",\"visible\":true,\"common\":false,\"__gohashid\":18847},{\"from\":\"target:ACHTemplates:fields\",\"to\":\"target:ACHTemplates:dbpErrMsg:\",\"fromPort\":\"target:ACHTemplates:fields\",\"toPort\":\"target:ACHTemplates:dbpErrMsg:\",\"visible\":true,\"common\":false,\"__gohashid\":18848},{\"from\":\"target:ACHTemplates:fields\",\"to\":\"target:ACHTemplates:opstatus:\",\"fromPort\":\"target:ACHTemplates:fields\",\"toPort\":\"target:ACHTemplates:opstatus:\",\"visible\":true,\"common\":false,\"__gohashid\":18849},{\"from\":\"target:ACHTemplates:fields\",\"to\":\"target:ACHTemplates:httpStatusCode:\",\"fromPort\":\"target:ACHTemplates:fields\",\"toPort\":\"target:ACHTemplates:httpStatusCode:\",\"visible\":true,\"common\":false,\"__gohashid\":18850}],\"blockCount\":{\"variableCount\":0},\"variableMap\":{},\"xmlMappingOverride\":true}",
    "applyCommonMapping" : false,
    "applyRequestCommonMapping" : true,
    "applyResponseCommonMapping" : false,
    "backendMeta" : {
      "serviceName" : "dbpBBJavaServices",
      "serviceVersion" : "1.0",
      "operationName" : "FetchAllBBTemplates"
    },
    "relationshipHierarchyMapping" : {
      "children" : [ ],
      "name" : "ACHTemplates",
      "actions" : {
        "get" : true
      },
      "selected" : true
    },
    "requestXmlMappingOverride" : false,
    "responseXmlMappingOverride" : true
  }
}