{
  "operationConfig" : {
    "name" : "readExternalAccountsViewjava7313",
    "type" : "MappedToBackend",
    "cachable" : false,
    "smsEnabled" : false,
    "security" : "authorized_app_user",
    "responseEncoding" : "UTF-8",
    "httpMethod" : "GET",
    "decodeResponseBody" : false,
    "iMapping" : "<?xml version=\"1.0\" encoding=\"UTF-8\" standalone=\"yes\"?><mapper xmlns=\"http://www.kony.com/ns/mapper\">      <map inputpath=\"request_in\" outputpath=\"request_out\">            <set-param inputpath=\"beneficiary\" outputpath=\"beneficiary\"/>        </map></mapper>",
    "oMapping" : "<?xml version=\"1.0\" encoding=\"UTF-8\" standalone=\"yes\"?><mapper xmlns=\"http://www.kony.com/ns/mapper\">      <map inputpath=\"response_in\" outputpath=\"response_out\">            <map inputpath=\"externalaccountsview\" outputpath=\"Payees\">                  <set-param inputpath=\"ToBankName\" outputpath=\"ToBankName\"/>                  <set-param inputpath=\"BeneficiaryName\" outputpath=\"BeneficiaryName\"/>                  <set-param inputpath=\"CounterParty_id\" outputpath=\"CounterParty_id\"/>                  <set-param inputpath=\"ToAccountNumber\" outputpath=\"ToAccountNumber\"/>                  <set-param inputpath=\"PayerAccount_id\" outputpath=\"PayerAccount_id\"/>                  <set-param inputpath=\"MainUser\" outputpath=\"MainUser\"/>                  <set-param inputpath=\"UserName\" outputpath=\"UserName\"/>                  <set-param inputpath=\"FromBankId\" outputpath=\"FromBankId\"/>                  <set-param inputpath=\"FromBankName\" outputpath=\"FromBankName\"/>                  <set-param inputpath=\"FromBank_id\" outputpath=\"FromBank_id\"/>            </map>      </map></mapper>",
    "applyCommonMapping" : false,
    "applyRequestCommonMapping" : false,
    "applyResponseCommonMapping" : false,
    "backendMeta" : {
      "serviceName" : "dbpAccountAggregationjava",
      "serviceVersion" : "1.0",
      "operationName" : "readExternalAccountsViewjava"
    },
    "relationshipHierarchyMapping" : {
      "children" : [ ],
      "name" : "Payees",
      "actions" : { },
      "selected" : true
    },
    "requestXmlMappingOverride" : true,
    "responseXmlMappingOverride" : true
  }
}