{
  "type" : "svcdriven",
  "custom" : false,
  "junction" : false,
  "customizable" : false,
  "verbs" : {
    "createACHCollectionWithVendor" : "createACHCollectionWithVendorMapping",
    "getACHTransactionDetailsById" : "getACHTransactionDetailsByIdMapping",
    "createACHTransaction" : "createACHTransactionMapping",
    "createACHPaymentWithVendor" : "createACHPaymentWithVendorMapping",
    "get" : "getMapping",
    "RejectedTransactions" : "RejectedTransactionsMapping",
    "SaveAsTemplate" : "SaveAsTemplateMapping"
  },
  "entityProperties" : {
    "BatchMode" : "buffer",
    "backendMeta" : { },
    "designTimeBackendMeta" : { }
  }
}